/*
WARNING: Do NOT edit the input and output ports in this file in a text
editor if you plan to continue editing the block that represents it in
the Block Editor! File corruption is VERY likely to occur.
*/
/*
Copyright (C) 1991-2013 Altera Corporation
Your use of Altera Corporation's design tools, logic functions 
and other software and tools, and its AMPP partner logic 
functions, and any output files from any of the foregoing 
(including device programming or simulation files), and any 
associated documentation or information are expressly subject 
to the terms and conditions of the Altera Program License 
Subscription Agreement, Altera MegaCore Function License 
Agreement, or other applicable license agreement, including, 
without limitation, that your use is for the sole purpose of 
programming logic devices manufactured by Altera and sold by 
Altera or its authorized distributors.  Please refer to the 
applicable agreement for further details.
*/
(header "graphic" (version "1.4"))
(pin
	(input)
	(rect 144 80 320 96)
	(text "INPUT" (rect 133 0 161 10)(font "Arial" (font_size 6)))
	(text "dataIn[127..0]" (rect 5 0 73 12)(font "Arial" ))
	(pt 176 8)
	(drawing
		(line (pt 92 12)(pt 117 12))
		(line (pt 92 4)(pt 117 4))
		(line (pt 121 8)(pt 176 8))
		(line (pt 92 12)(pt 92 4))
		(line (pt 117 4)(pt 121 8))
		(line (pt 117 12)(pt 121 8))
	)
	(text "VCC" (rect 136 7 156 17)(font "Arial" (font_size 6)))
)
(pin
	(input)
	(rect 152 32 320 48)
	(text "INPUT" (rect 125 0 153 10)(font "Arial" (font_size 6)))
	(text "CLK_50" (rect 5 0 44 12)(font "Arial" ))
	(pt 168 8)
	(drawing
		(line (pt 84 12)(pt 109 12))
		(line (pt 84 4)(pt 109 4))
		(line (pt 113 8)(pt 168 8))
		(line (pt 84 12)(pt 84 4))
		(line (pt 109 4)(pt 113 8))
		(line (pt 109 12)(pt 113 8))
	)
	(text "VCC" (rect 128 7 148 17)(font "Arial" (font_size 6)))
)
(pin
	(input)
	(rect 152 56 320 72)
	(text "INPUT" (rect 125 0 153 10)(font "Arial" (font_size 6)))
	(text "CLK_100" (rect 5 0 50 12)(font "Arial" ))
	(pt 168 8)
	(drawing
		(line (pt 84 12)(pt 109 12))
		(line (pt 84 4)(pt 109 4))
		(line (pt 113 8)(pt 168 8))
		(line (pt 84 12)(pt 84 4))
		(line (pt 109 4)(pt 113 8))
		(line (pt 109 12)(pt 113 8))
	)
	(text "VCC" (rect 128 7 148 17)(font "Arial" (font_size 6)))
)
(pin
	(input)
	(rect 152 104 320 120)
	(text "INPUT" (rect 125 0 153 10)(font "Arial" (font_size 6)))
	(text "ldBUF" (rect 5 0 36 12)(font "Arial" ))
	(pt 168 8)
	(drawing
		(line (pt 84 12)(pt 109 12))
		(line (pt 84 4)(pt 109 4))
		(line (pt 113 8)(pt 168 8))
		(line (pt 84 12)(pt 84 4))
		(line (pt 109 4)(pt 113 8))
		(line (pt 109 12)(pt 113 8))
	)
	(text "VCC" (rect 128 7 148 17)(font "Arial" (font_size 6)))
)
(pin
	(output)
	(rect 392 88 568 104)
	(text "OUTPUT" (rect 1 0 39 10)(font "Arial" (font_size 6)))
	(text "dataOut[7..0]" (rect 90 0 154 12)(font "Arial" ))
	(pt 0 8)
	(drawing
		(line (pt 0 8)(pt 52 8))
		(line (pt 52 4)(pt 78 4))
		(line (pt 52 12)(pt 78 12))
		(line (pt 52 12)(pt 52 4))
		(line (pt 78 4)(pt 82 8))
		(line (pt 82 8)(pt 78 12))
		(line (pt 78 12)(pt 82 8))
	)
)
(pin
	(output)
	(rect 392 56 568 72)
	(text "OUTPUT" (rect 1 0 39 10)(font "Arial" (font_size 6)))
	(text "addressIn[23..0]" (rect 90 0 170 12)(font "Arial" ))
	(pt 0 8)
	(drawing
		(line (pt 0 8)(pt 52 8))
		(line (pt 52 4)(pt 78 4))
		(line (pt 52 12)(pt 78 12))
		(line (pt 52 12)(pt 52 4))
		(line (pt 78 4)(pt 82 8))
		(line (pt 82 8)(pt 78 12))
		(line (pt 78 12)(pt 82 8))
	)
)
(symbol
	(rect 1152 256 1320 480)
	(text "ALU20" (rect 5 0 43 14)(font "Arial" (font_size 8)))
	(text "inst3" (rect 8 208 31 220)(font "Arial" ))
	(port
		(pt 0 32)
		(input)
		(text "a_[19..0]" (rect 0 0 49 14)(font "Arial" (font_size 8)))
		(text "a_[19..0]" (rect 21 27 70 41)(font "Arial" (font_size 8)))
		(line (pt 0 32)(pt 16 32)(line_width 3))
	)
	(port
		(pt 0 48)
		(input)
		(text "b_[19..0]" (rect 0 0 49 14)(font "Arial" (font_size 8)))
		(text "b_[19..0]" (rect 21 43 70 57)(font "Arial" (font_size 8)))
		(line (pt 0 48)(pt 16 48)(line_width 3))
	)
	(port
		(pt 0 64)
		(input)
		(text "cin" (rect 0 0 16 14)(font "Arial" (font_size 8)))
		(text "cin" (rect 21 59 37 73)(font "Arial" (font_size 8)))
		(line (pt 0 64)(pt 16 64))
	)
	(port
		(pt 0 80)
		(input)
		(text "not" (rect 0 0 17 14)(font "Arial" (font_size 8)))
		(text "not" (rect 21 75 38 89)(font "Arial" (font_size 8)))
		(line (pt 0 80)(pt 16 80))
	)
	(port
		(pt 0 96)
		(input)
		(text "xor" (rect 0 0 18 14)(font "Arial" (font_size 8)))
		(text "xor" (rect 21 91 39 105)(font "Arial" (font_size 8)))
		(line (pt 0 96)(pt 16 96))
	)
	(port
		(pt 0 112)
		(input)
		(text "or" (rect 0 0 11 14)(font "Arial" (font_size 8)))
		(text "or" (rect 21 107 32 121)(font "Arial" (font_size 8)))
		(line (pt 0 112)(pt 16 112))
	)
	(port
		(pt 0 128)
		(input)
		(text "and" (rect 0 0 21 14)(font "Arial" (font_size 8)))
		(text "and" (rect 21 123 42 137)(font "Arial" (font_size 8)))
		(line (pt 0 128)(pt 16 128))
	)
	(port
		(pt 0 144)
		(input)
		(text "dec" (rect 0 0 21 14)(font "Arial" (font_size 8)))
		(text "dec" (rect 21 139 42 153)(font "Arial" (font_size 8)))
		(line (pt 0 144)(pt 16 144))
	)
	(port
		(pt 0 160)
		(input)
		(text "inc" (rect 0 0 16 14)(font "Arial" (font_size 8)))
		(text "inc" (rect 21 155 37 169)(font "Arial" (font_size 8)))
		(line (pt 0 160)(pt 16 160))
	)
	(port
		(pt 0 176)
		(input)
		(text "sub" (rect 0 0 21 14)(font "Arial" (font_size 8)))
		(text "sub" (rect 21 171 42 185)(font "Arial" (font_size 8)))
		(line (pt 0 176)(pt 16 176))
	)
	(port
		(pt 0 192)
		(input)
		(text "add" (rect 0 0 21 14)(font "Arial" (font_size 8)))
		(text "add" (rect 21 187 42 201)(font "Arial" (font_size 8)))
		(line (pt 0 192)(pt 16 192))
	)
	(port
		(pt 168 32)
		(output)
		(text "result[20..0]" (rect 0 0 67 14)(font "Arial" (font_size 8)))
		(text "result[20..0]" (rect 80 27 147 41)(font "Arial" (font_size 8)))
		(line (pt 168 32)(pt 152 32)(line_width 3))
	)
	(drawing
		(rectangle (rect 16 16 152 208))
	)
)
(symbol
	(rect 496 192 728 272)
	(text "REGX" (rect 5 0 34 12)(font "Arial" ))
	(text "inst" (rect 8 64 25 76)(font "Arial" ))
	(port
		(pt 0 24)
		(input)
		(text "clk" (rect 0 0 14 12)(font "Arial" ))
		(text "clk" (rect 21 19 35 31)(font "Arial" ))
		(line (pt 0 24)(pt 16 24))
	)
	(port
		(pt 0 40)
		(input)
		(text "ld" (rect 0 0 8 12)(font "Arial" ))
		(text "ld" (rect 21 35 29 47)(font "Arial" ))
		(line (pt 0 40)(pt 16 40))
	)
	(port
		(pt 0 56)
		(input)
		(text "cl" (rect 0 0 8 12)(font "Arial" ))
		(text "cl" (rect 21 51 29 63)(font "Arial" ))
		(line (pt 0 56)(pt 16 56))
	)
	(port
		(pt 232 32)
		(input)
		(text "inc" (rect 0 0 14 12)(font "Arial" ))
		(text "inc" (rect 193 24 207 36)(font "Arial" ))
		(line (pt 216 32)(pt 232 32))
	)
	(port
		(pt 232 48)
		(input)
		(text "dec" (rect 0 0 17 12)(font "Arial" ))
		(text "dec" (rect 190 40 207 52)(font "Arial" ))
		(line (pt 216 48)(pt 232 48))
	)
	(port
		(pt 112 0)
		(input)
		(text "data_in[size-1..0]" (rect 0 0 83 12)(font "Arial" ))
		(text "DIN" (rect 104 16 124 28)(font "Arial" ))
		(line (pt 112 0)(pt 112 16)(line_width 3))
	)
	(port
		(pt 112 80)
		(output)
		(text "data_out[size-1..0]" (rect 0 -64 90 -52)(font "Arial" ))
		(text "  DOUT" (rect 96 48 133 60)(font "Arial" ))
		(line (pt 112 80)(pt 112 64)(line_width 3))
	)
	(parameter
		"size"
		"20"
		""
		(type "PARAMETER_SIGNED_DEC")	)
	(parameter
		"default_value"
		"0"
		""
		(type "PARAMETER_SIGNED_DEC")	)
	(drawing
		(text "REGISTAR" (rect 88 32 150 46)(font "Arial" (color 0 0 0)(font_size 8)(bold)))
		(rectangle (rect 16 16 216 64))
	)
	(annotation_block (parameter)(rect 728 144 925 186))
)
(symbol
	(rect 560 360 720 432)
	(text "CMPX" (rect 5 0 34 12)(font "Arial" ))
	(text "inst1" (rect 8 56 31 68)(font "Arial" ))
	(port
		(pt 48 0)
		(input)
		(text "A[size-1..0]" (rect 0 0 55 12)(font "Arial" ))
		(text "  A" (rect 40 16 55 28)(font "Arial" ))
		(line (pt 48 0)(pt 48 17)(line_width 3))
	)
	(port
		(pt 104 0)
		(input)
		(text "B[size-1..0]" (rect 0 0 55 12)(font "Arial" ))
		(text "  B" (rect 96 16 110 28)(font "Arial" ))
		(line (pt 104 0)(pt 104 17)(line_width 3))
	)
	(port
		(pt 48 72)
		(output)
		(text "ls" (rect 0 -40 8 -28)(font "Arial" ))
		(text "A<B" (rect 40 40 60 52)(font "Arial" ))
		(line (pt 48 72)(pt 48 56))
	)
	(port
		(pt 80 72)
		(output)
		(text "eq" (rect 0 -40 11 -28)(font "Arial" ))
		(text "A=B" (rect 72 40 92 52)(font "Arial" ))
		(line (pt 80 72)(pt 80 56))
	)
	(port
		(pt 112 72)
		(output)
		(text "gr" (rect 0 -40 9 -28)(font "Arial" ))
		(text "A>B" (rect 104 40 124 52)(font "Arial" ))
		(line (pt 112 72)(pt 112 56))
	)
	(parameter
		"size"
		"20"
		""
		(type "PARAMETER_SIGNED_DEC")	)
	(drawing
		(text " CMP" (rect 64 24 97 38)(font "Arial" (color 0 0 0)(font_size 8)(bold)))
		(rectangle (rect 16 16 136 56))
	)
	(annotation_block (parameter)(rect 720 384 902 412))
)
(symbol
	(rect 640 296 696 352)
	(text "CONSTX" (rect 44 5 56 48)(font "Arial" )(vertical))
	(text "inst2" (rect 4 8 16 31)(font "Arial" )(vertical))
	(port
		(pt 24 56)
		(output)
		(text "data[size-1..0]" (rect -96 0 -27 12)(font "Arial" ))
		(text "c" (rect 17 25 29 30)(font "Arial" )(vertical)(invisible))
		(line (pt 24 56)(pt 24 40)(line_width 3))
	)
	(parameter
		"size"
		"20"
		""
		(type "PARAMETER_SIGNED_DEC")	)
	(parameter
		"const"
		"239999"
		""
		(type "PARAMETER_SIGNED_DEC")	)
	(drawing
		(rectangle (rect 16 24 32 40)(fill (color 218 218 218)))
	)
	(rotate270)
	(annotation_block (parameter)(rect 696 304 883 346))
)
(symbol
	(rect 1072 440 1104 472)
	(text "GND" (rect 8 16 29 26)(font "Arial" (font_size 6)))
	(text "inst5" (rect 3 21 26 33)(font "Arial" )(invisible))
	(port
		(pt 16 0)
		(output)
		(text "1" (rect 18 0 23 12)(font "Courier New" (bold))(invisible))
		(text "1" (rect 18 0 23 12)(font "Courier New" (bold))(invisible))
		(line (pt 16 8)(pt 16 0))
	)
	(drawing
		(line (pt 8 8)(pt 16 16))
		(line (pt 16 16)(pt 24 8))
		(line (pt 8 8)(pt 24 8))
	)
)
(symbol
	(rect 1096 408 1128 424)
	(text "VCC" (rect 7 0 27 10)(font "Arial" (font_size 6)))
	(text "inst6" (rect 3 5 26 17)(font "Arial" )(invisible))
	(port
		(pt 16 16)
		(output)
		(text "1" (rect 19 7 24 19)(font "Courier New" (bold))(invisible))
		(text "1" (rect 19 7 24 19)(font "Courier New" (bold))(invisible))
		(line (pt 16 16)(pt 16 8))
	)
	(drawing
		(line (pt 8 8)(pt 24 8))
	)
)
(symbol
	(rect 360 184 424 232)
	(text "AND2" (rect 1 0 25 10)(font "Arial" (font_size 6)))
	(text "inst7" (rect 3 37 26 49)(font "Arial" ))
	(port
		(pt 0 16)
		(input)
		(text "IN1" (rect 2 7 19 19)(font "Courier New" (bold))(invisible))
		(text "IN1" (rect 2 7 19 19)(font "Courier New" (bold))(invisible))
		(line (pt 0 16)(pt 14 16))
	)
	(port
		(pt 0 32)
		(input)
		(text "IN2" (rect 2 23 19 35)(font "Courier New" (bold))(invisible))
		(text "IN2" (rect 2 23 19 35)(font "Courier New" (bold))(invisible))
		(line (pt 0 32)(pt 14 32))
	)
	(port
		(pt 64 24)
		(output)
		(text "OUT" (rect 48 15 65 27)(font "Courier New" (bold))(invisible))
		(text "OUT" (rect 48 15 65 27)(font "Courier New" (bold))(invisible))
		(line (pt 42 24)(pt 64 24))
	)
	(drawing
		(line (pt 14 12)(pt 30 12))
		(line (pt 14 37)(pt 31 37))
		(line (pt 14 12)(pt 14 37))
		(arc (pt 31 37)(pt 30 12)(rect 18 12 43 37))
	)
)
(symbol
	(rect 280 224 344 272)
	(text "AND2" (rect 1 0 25 10)(font "Arial" (font_size 6)))
	(text "inst8" (rect 3 37 26 49)(font "Arial" ))
	(port
		(pt 0 16)
		(input)
		(text "IN1" (rect 2 7 19 19)(font "Courier New" (bold))(invisible))
		(text "IN1" (rect 2 7 19 19)(font "Courier New" (bold))(invisible))
		(line (pt 0 16)(pt 14 16))
	)
	(port
		(pt 0 32)
		(input)
		(text "IN2" (rect 2 23 19 35)(font "Courier New" (bold))(invisible))
		(text "IN2" (rect 2 23 19 35)(font "Courier New" (bold))(invisible))
		(line (pt 0 32)(pt 14 32))
	)
	(port
		(pt 64 24)
		(output)
		(text "OUT" (rect 48 15 65 27)(font "Courier New" (bold))(invisible))
		(text "OUT" (rect 48 15 65 27)(font "Courier New" (bold))(invisible))
		(line (pt 42 24)(pt 64 24))
	)
	(drawing
		(line (pt 14 12)(pt 30 12))
		(line (pt 14 37)(pt 31 37))
		(line (pt 14 12)(pt 14 37))
		(arc (pt 31 37)(pt 30 12)(rect 18 12 43 37))
	)
)
(symbol
	(rect 544 640 776 720)
	(text "REGX" (rect 5 0 34 12)(font "Arial" ))
	(text "inst9" (rect 8 64 31 76)(font "Arial" ))
	(port
		(pt 0 24)
		(input)
		(text "clk" (rect 0 0 14 12)(font "Arial" ))
		(text "clk" (rect 21 19 35 31)(font "Arial" ))
		(line (pt 0 24)(pt 16 24))
	)
	(port
		(pt 0 40)
		(input)
		(text "ld" (rect 0 0 8 12)(font "Arial" ))
		(text "ld" (rect 21 35 29 47)(font "Arial" ))
		(line (pt 0 40)(pt 16 40))
	)
	(port
		(pt 0 56)
		(input)
		(text "cl" (rect 0 0 8 12)(font "Arial" ))
		(text "cl" (rect 21 51 29 63)(font "Arial" ))
		(line (pt 0 56)(pt 16 56))
	)
	(port
		(pt 232 32)
		(input)
		(text "inc" (rect 0 0 14 12)(font "Arial" ))
		(text "inc" (rect 193 24 207 36)(font "Arial" ))
		(line (pt 216 32)(pt 232 32))
	)
	(port
		(pt 232 48)
		(input)
		(text "dec" (rect 0 0 17 12)(font "Arial" ))
		(text "dec" (rect 190 40 207 52)(font "Arial" ))
		(line (pt 216 48)(pt 232 48))
	)
	(port
		(pt 112 0)
		(input)
		(text "data_in[size-1..0]" (rect 0 0 83 12)(font "Arial" ))
		(text "DIN" (rect 104 16 124 28)(font "Arial" ))
		(line (pt 112 0)(pt 112 16)(line_width 3))
	)
	(port
		(pt 112 80)
		(output)
		(text "data_out[size-1..0]" (rect 0 -64 90 -52)(font "Arial" ))
		(text "  DOUT" (rect 96 48 133 60)(font "Arial" ))
		(line (pt 112 80)(pt 112 64)(line_width 3))
	)
	(parameter
		"size"
		"128"
		""
		(type "PARAMETER_SIGNED_DEC")	)
	(parameter
		"default_value"
		"0"
		""
		(type "PARAMETER_SIGNED_DEC")	)
	(drawing
		(text "REGISTAR" (rect 88 32 150 46)(font "Arial" (color 0 0 0)(font_size 8)(bold)))
		(rectangle (rect 16 16 216 64))
	)
	(annotation_block (parameter)(rect 664 608 861 650))
)
(symbol
	(rect 576 808 784 1192)
	(text "MP16X" (rect 5 0 43 14)(font "Arial" (font_size 8)))
	(text "inst10" (rect 8 368 37 380)(font "Arial" ))
	(port
		(pt 0 32)
		(input)
		(text "S0" (rect 0 0 15 14)(font "Arial" (font_size 8)))
		(text "S0" (rect 21 27 36 41)(font "Arial" (font_size 8)))
		(line (pt 0 32)(pt 16 32))
	)
	(port
		(pt 0 48)
		(input)
		(text "S1" (rect 0 0 15 14)(font "Arial" (font_size 8)))
		(text "S1" (rect 21 43 36 57)(font "Arial" (font_size 8)))
		(line (pt 0 48)(pt 16 48))
	)
	(port
		(pt 0 64)
		(input)
		(text "S2" (rect 0 0 15 14)(font "Arial" (font_size 8)))
		(text "S2" (rect 21 59 36 73)(font "Arial" (font_size 8)))
		(line (pt 0 64)(pt 16 64))
	)
	(port
		(pt 0 80)
		(input)
		(text "S3" (rect 0 0 15 14)(font "Arial" (font_size 8)))
		(text "S3" (rect 21 75 36 89)(font "Arial" (font_size 8)))
		(line (pt 0 80)(pt 16 80))
	)
	(port
		(pt 0 96)
		(input)
		(text "X0_[size-1..0]" (rect 0 0 79 14)(font "Arial" (font_size 8)))
		(text "X0_[size-1..0]" (rect 21 91 100 105)(font "Arial" (font_size 8)))
		(line (pt 0 96)(pt 16 96)(line_width 3))
	)
	(port
		(pt 0 112)
		(input)
		(text "X1_[size-1..0]" (rect 0 0 79 14)(font "Arial" (font_size 8)))
		(text "X1_[size-1..0]" (rect 21 107 100 121)(font "Arial" (font_size 8)))
		(line (pt 0 112)(pt 16 112)(line_width 3))
	)
	(port
		(pt 0 128)
		(input)
		(text "X2_[size-1..0]" (rect 0 0 79 14)(font "Arial" (font_size 8)))
		(text "X2_[size-1..0]" (rect 21 123 100 137)(font "Arial" (font_size 8)))
		(line (pt 0 128)(pt 16 128)(line_width 3))
	)
	(port
		(pt 0 144)
		(input)
		(text "X3_[size-1..0]" (rect 0 0 79 14)(font "Arial" (font_size 8)))
		(text "X3_[size-1..0]" (rect 21 139 100 153)(font "Arial" (font_size 8)))
		(line (pt 0 144)(pt 16 144)(line_width 3))
	)
	(port
		(pt 0 160)
		(input)
		(text "X4_[size-1..0]" (rect 0 0 79 14)(font "Arial" (font_size 8)))
		(text "X4_[size-1..0]" (rect 21 155 100 169)(font "Arial" (font_size 8)))
		(line (pt 0 160)(pt 16 160)(line_width 3))
	)
	(port
		(pt 0 176)
		(input)
		(text "X5_[size-1..0]" (rect 0 0 79 14)(font "Arial" (font_size 8)))
		(text "X5_[size-1..0]" (rect 21 171 100 185)(font "Arial" (font_size 8)))
		(line (pt 0 176)(pt 16 176)(line_width 3))
	)
	(port
		(pt 0 192)
		(input)
		(text "X6_[size-1..0]" (rect 0 0 79 14)(font "Arial" (font_size 8)))
		(text "X6_[size-1..0]" (rect 21 187 100 201)(font "Arial" (font_size 8)))
		(line (pt 0 192)(pt 16 192)(line_width 3))
	)
	(port
		(pt 0 208)
		(input)
		(text "X7_[size-1..0]" (rect 0 0 79 14)(font "Arial" (font_size 8)))
		(text "X7_[size-1..0]" (rect 21 203 100 217)(font "Arial" (font_size 8)))
		(line (pt 0 208)(pt 16 208)(line_width 3))
	)
	(port
		(pt 0 224)
		(input)
		(text "X8_[size-1..0]" (rect 0 0 79 14)(font "Arial" (font_size 8)))
		(text "X8_[size-1..0]" (rect 21 219 100 233)(font "Arial" (font_size 8)))
		(line (pt 0 224)(pt 16 224)(line_width 3))
	)
	(port
		(pt 0 240)
		(input)
		(text "X9_[size-1..0]" (rect 0 0 79 14)(font "Arial" (font_size 8)))
		(text "X9_[size-1..0]" (rect 21 235 100 249)(font "Arial" (font_size 8)))
		(line (pt 0 240)(pt 16 240)(line_width 3))
	)
	(port
		(pt 0 256)
		(input)
		(text "X10_[size-1..0]" (rect 0 0 86 14)(font "Arial" (font_size 8)))
		(text "X10_[size-1..0]" (rect 21 251 107 265)(font "Arial" (font_size 8)))
		(line (pt 0 256)(pt 16 256)(line_width 3))
	)
	(port
		(pt 0 272)
		(input)
		(text "X11_[size-1..0]" (rect 0 0 86 14)(font "Arial" (font_size 8)))
		(text "X11_[size-1..0]" (rect 21 267 107 281)(font "Arial" (font_size 8)))
		(line (pt 0 272)(pt 16 272)(line_width 3))
	)
	(port
		(pt 0 288)
		(input)
		(text "X12_[size-1..0]" (rect 0 0 86 14)(font "Arial" (font_size 8)))
		(text "X12_[size-1..0]" (rect 21 283 107 297)(font "Arial" (font_size 8)))
		(line (pt 0 288)(pt 16 288)(line_width 3))
	)
	(port
		(pt 0 304)
		(input)
		(text "X13_[size-1..0]" (rect 0 0 86 14)(font "Arial" (font_size 8)))
		(text "X13_[size-1..0]" (rect 21 299 107 313)(font "Arial" (font_size 8)))
		(line (pt 0 304)(pt 16 304)(line_width 3))
	)
	(port
		(pt 0 320)
		(input)
		(text "X14_[size-1..0]" (rect 0 0 86 14)(font "Arial" (font_size 8)))
		(text "X14_[size-1..0]" (rect 21 315 107 329)(font "Arial" (font_size 8)))
		(line (pt 0 320)(pt 16 320)(line_width 3))
	)
	(port
		(pt 0 336)
		(input)
		(text "X15_[size-1..0]" (rect 0 0 86 14)(font "Arial" (font_size 8)))
		(text "X15_[size-1..0]" (rect 21 331 107 345)(font "Arial" (font_size 8)))
		(line (pt 0 336)(pt 16 336)(line_width 3))
	)
	(port
		(pt 208 32)
		(output)
		(text "Y[size-1..0]" (rect 0 0 66 14)(font "Arial" (font_size 8)))
		(text "Y[size-1..0]" (rect 121 27 187 41)(font "Arial" (font_size 8)))
		(line (pt 208 32)(pt 192 32)(line_width 3))
	)
	(parameter
		"size"
		"8"
		""
		(type "PARAMETER_SIGNED_DEC")	)
	(drawing
		(rectangle (rect 16 16 192 368))
	)
	(annotation_block (parameter)(rect 576 776 758 804))
)
(symbol
	(rect 1072 312 1128 368)
	(text "CONSTX" (rect 0 8 12 51)(font "Arial" )(vertical))
	(text "inst4" (rect 40 25 52 48)(font "Arial" )(vertical))
	(port
		(pt 32 0)
		(output)
		(text "data[size-1..0]" (rect -96 0 -27 12)(font "Arial" ))
		(text "c" (rect 27 26 39 31)(font "Arial" )(vertical)(invisible))
		(line (pt 32 0)(pt 32 16)(line_width 3))
	)
	(parameter
		"size"
		"20"
		""
		(type "PARAMETER_SIGNED_DEC")	)
	(parameter
		"const"
		"8"
		""
		(type "PARAMETER_SIGNED_DEC")	)
	(drawing
		(rectangle (rect 24 16 40 32)(fill (color 218 218 218)))
	)
	(rotate90)
	(annotation_block (parameter)(rect 888 312 1070 354))
)
(symbol
	(rect 1040 96 1096 152)
	(text "CONSTX" (rect 5 0 48 12)(font "Arial" ))
	(text "inst116" (rect 8 40 43 52)(font "Arial" ))
	(port
		(pt 56 32)
		(output)
		(text "data[size-1..0]" (rect -96 0 -27 12)(font "Arial" ))
		(text "c" (rect 25 27 30 39)(font "Arial" )(invisible))
		(line (pt 56 32)(pt 40 32)(line_width 3))
	)
	(parameter
		"size"
		"3"
		""
		(type "PARAMETER_SIGNED_DEC")	)
	(parameter
		"const"
		"0"
		""
		(type "PARAMETER_SIGNED_DEC")	)
	(drawing
		(rectangle (rect 24 24 40 40)(fill (color 218 218 218)))
	)
	(annotation_block (parameter)(rect 1096 48 1278 90))
)
(symbol
	(rect 144 160 176 176)
	(text "VCC" (rect 7 0 27 10)(font "Arial" (font_size 6)))
	(text "inst456" (rect 3 5 38 17)(font "Arial" )(invisible))
	(port
		(pt 16 16)
		(output)
		(text "1" (rect 19 7 24 19)(font "Courier New" (bold))(invisible))
		(text "1" (rect 19 7 24 19)(font "Courier New" (bold))(invisible))
		(line (pt 16 16)(pt 16 8))
	)
	(drawing
		(line (pt 8 8)(pt 24 8))
	)
)
(connector
	(pt 1104 304)
	(pt 1104 312)
	(bus)
)
(connector
	(pt 1152 304)
	(pt 1104 304)
	(bus)
)
(connector
	(pt 1152 320)
	(pt 1136 320)
)
(connector
	(pt 1152 336)
	(pt 1136 336)
)
(connector
	(pt 1136 320)
	(pt 1136 336)
)
(connector
	(pt 1152 352)
	(pt 1136 352)
)
(connector
	(pt 1136 336)
	(pt 1136 352)
)
(connector
	(pt 1152 368)
	(pt 1136 368)
)
(connector
	(pt 1152 384)
	(pt 1136 384)
)
(connector
	(pt 1136 352)
	(pt 1136 368)
)
(connector
	(pt 1136 368)
	(pt 1136 384)
)
(connector
	(pt 1152 400)
	(pt 1136 400)
)
(connector
	(pt 1152 416)
	(pt 1136 416)
)
(connector
	(pt 1136 384)
	(pt 1136 400)
)
(connector
	(pt 1136 400)
	(pt 1136 416)
)
(connector
	(pt 1136 416)
	(pt 1136 432)
)
(connector
	(pt 1088 432)
	(pt 1088 440)
)
(connector
	(pt 1088 432)
	(pt 1136 432)
)
(connector
	(pt 1136 432)
	(pt 1152 432)
)
(connector
	(pt 1152 448)
	(pt 1112 448)
)
(connector
	(pt 1112 424)
	(pt 1112 448)
)
(connector
	(pt 608 288)
	(pt 1152 288)
	(bus)
)
(connector
	(pt 352 216)
	(pt 360 216)
)
(connector
	(pt 424 208)
	(pt 432 208)
)
(connector
	(pt 432 232)
	(pt 432 208)
)
(connector
	(pt 496 232)
	(pt 432 232)
)
(connector
	(pt 496 248)
	(pt 344 248)
)
(connector
	(pt 256 256)
	(pt 280 256)
)
(connector
	(pt 280 240)
	(pt 240 240)
)
(connector
	(pt 664 352)
	(pt 664 360)
	(bus)
)
(connector
	(pt 608 432)
	(pt 608 440)
)
(connector
	(pt 352 440)
	(pt 608 440)
)
(connector
	(pt 352 216)
	(pt 352 440)
)
(connector
	(pt 256 456)
	(pt 640 456)
)
(connector
	(pt 256 256)
	(pt 256 456)
)
(connector
	(pt 640 432)
	(pt 640 456)
)
(connector
	(pt 608 272)
	(pt 608 288)
	(bus)
)
(connector
	(pt 608 288)
	(pt 608 360)
	(bus)
)
(connector
	(text "BUF[7..0]" (rect 509 888 557 900)(font "Arial" ))
	(pt 576 904)
	(pt 504 904)
	(bus)
)
(connector
	(text "BUF[15..8]" (rect 509 904 563 916)(font "Arial" ))
	(pt 576 920)
	(pt 504 920)
	(bus)
)
(connector
	(text "BUF[23..16]" (rect 509 920 569 932)(font "Arial" ))
	(pt 576 936)
	(pt 504 936)
	(bus)
)
(connector
	(text "BUF[31..24]" (rect 509 936 569 948)(font "Arial" ))
	(pt 576 952)
	(pt 504 952)
	(bus)
)
(connector
	(text "BUF[39..32]" (rect 509 952 569 964)(font "Arial" ))
	(pt 576 968)
	(pt 504 968)
	(bus)
)
(connector
	(text "BUF[47..40]" (rect 509 968 569 980)(font "Arial" ))
	(pt 576 984)
	(pt 504 984)
	(bus)
)
(connector
	(text "BUF[55..48]" (rect 509 984 569 996)(font "Arial" ))
	(pt 576 1000)
	(pt 504 1000)
	(bus)
)
(connector
	(text "BUF[63..56]" (rect 509 1000 569 1012)(font "Arial" ))
	(pt 576 1016)
	(pt 504 1016)
	(bus)
)
(connector
	(text "BUF[71..64]" (rect 509 1016 569 1028)(font "Arial" ))
	(pt 576 1032)
	(pt 504 1032)
	(bus)
)
(connector
	(text "BUF[79..72]" (rect 509 1032 569 1044)(font "Arial" ))
	(pt 576 1048)
	(pt 504 1048)
	(bus)
)
(connector
	(text "BUF[87..80]" (rect 509 1048 569 1060)(font "Arial" ))
	(pt 576 1064)
	(pt 504 1064)
	(bus)
)
(connector
	(text "BUF[95..88]" (rect 509 1064 569 1076)(font "Arial" ))
	(pt 576 1080)
	(pt 504 1080)
	(bus)
)
(connector
	(text "BUF[103..96]" (rect 509 1080 575 1092)(font "Arial" ))
	(pt 576 1096)
	(pt 504 1096)
	(bus)
)
(connector
	(text "BUF[111..104]" (rect 509 1096 580 1108)(font "Arial" ))
	(pt 576 1112)
	(pt 504 1112)
	(bus)
)
(connector
	(text "BUF[119..112]" (rect 509 1112 580 1124)(font "Arial" ))
	(pt 576 1128)
	(pt 504 1128)
	(bus)
)
(connector
	(text "BUF[127..120]" (rect 509 1128 580 1140)(font "Arial" ))
	(pt 576 1144)
	(pt 504 1144)
	(bus)
)
(connector
	(pt 656 736)
	(pt 656 720)
	(bus)
)
(connector
	(text "dataOut[7..0]" (rect 790 824 854 836)(font "Arial" ))
	(pt 848 840)
	(pt 784 840)
	(bus)
)
(connector
	(text "BUF[127..0]" (rect 688 720 748 732)(font "Arial" ))
	(pt 744 736)
	(pt 656 736)
	(bus)
)
(connector
	(pt 656 600)
	(pt 656 640)
	(bus)
)
(connector
	(text "dataIn[127..0]" (rect 683 584 751 596)(font "Arial" ))
	(pt 656 600)
	(pt 760 600)
	(bus)
)
(connector
	(text "CLK_100" (rect 456 200 500 212)(font "Arial" ))
	(pt 464 216)
	(pt 496 216)
)
(connector
	(text "CLK_100" (rect 504 648 548 660)(font "Arial" ))
	(pt 512 664)
	(pt 544 664)
)
(connector
	(text "addressIn[20..0]" (rect 1328 272 1408 284)(font "Arial" ))
	(pt 1320 288)
	(pt 1384 288)
	(bus)
)
(connector
	(text "addressIn[23..21]" (rect 1132 112 1218 124)(font "Arial" ))
	(pt 1096 128)
	(pt 1168 128)
	(bus)
)
(connector
	(pt 240 200)
	(pt 240 240)
)
(connector
	(pt 160 176)
	(pt 160 200)
)
(connector
	(pt 160 200)
	(pt 240 200)
)
(connector
	(pt 240 200)
	(pt 360 200)
)
(connector
	(text "ldBUF" (rect 504 664 534 676)(font "Arial" ))
	(pt 544 680)
	(pt 496 680)
)
(connector
	(text "addressIn[19..0]" (rect 589 101 601 181)(font "Arial" )(vertical))
	(pt 608 112)
	(pt 608 192)
	(bus)
)
(junction (pt 1136 336))
(junction (pt 1136 352))
(junction (pt 1136 368))
(junction (pt 1136 384))
(junction (pt 1136 400))
(junction (pt 1136 416))
(junction (pt 1136 432))
(junction (pt 608 288))
(junction (pt 240 200))
(text "BAFER" (rect 456 584 523 607)(font "Calibri" (color 0 0 0)(font_size 14)(bold)))
(text "<--------OVDE IDE NESTO DRUGO!!!" (rect 184 160 456 178)(font "Calibri" (color 255 0 0)(font_size 11)(bold)))
(rectangle (rect 408 568 984 1224))
