/*
WARNING: Do NOT edit the input and output ports in this file in a text
editor if you plan to continue editing the block that represents it in
the Block Editor! File corruption is VERY likely to occur.
*/
/*
Copyright (C) 1991-2013 Altera Corporation
Your use of Altera Corporation's design tools, logic functions 
and other software and tools, and its AMPP partner logic 
functions, and any output files from any of the foregoing 
(including device programming or simulation files), and any 
associated documentation or information are expressly subject 
to the terms and conditions of the Altera Program License 
Subscription Agreement, Altera MegaCore Function License 
Agreement, or other applicable license agreement, including, 
without limitation, that your use is for the sole purpose of 
programming logic devices manufactured by Altera and sold by 
Altera or its authorized distributors.  Please refer to the 
applicable agreement for further details.
*/
(header "graphic" (version "1.4"))
(pin
	(input)
	(rect 8 360 176 376)
	(text "INPUT" (rect 125 0 153 10)(font "Arial" (font_size 6)))
	(text "ldIRH" (rect 5 0 33 12)(font "Arial" ))
	(pt 168 8)
	(drawing
		(line (pt 84 12)(pt 109 12))
		(line (pt 84 4)(pt 109 4))
		(line (pt 113 8)(pt 168 8))
		(line (pt 84 12)(pt 84 4))
		(line (pt 109 4)(pt 113 8))
		(line (pt 109 12)(pt 113 8))
	)
	(text "VCC" (rect 128 7 148 17)(font "Arial" (font_size 6)))
)
(pin
	(input)
	(rect 504 360 672 376)
	(text "INPUT" (rect 125 0 153 10)(font "Arial" (font_size 6)))
	(text "ldIRL" (rect 5 0 30 12)(font "Arial" ))
	(pt 168 8)
	(drawing
		(line (pt 84 12)(pt 109 12))
		(line (pt 84 4)(pt 109 4))
		(line (pt 113 8)(pt 168 8))
		(line (pt 84 12)(pt 84 4))
		(line (pt 109 4)(pt 113 8))
		(line (pt 109 12)(pt 113 8))
	)
	(text "VCC" (rect 128 7 148 17)(font "Arial" (font_size 6)))
)
(pin
	(input)
	(rect 96 560 264 576)
	(text "INPUT" (rect 125 0 153 10)(font "Arial" (font_size 6)))
	(text "IRHout" (rect 5 0 40 12)(font "Arial" ))
	(pt 168 8)
	(drawing
		(line (pt 84 12)(pt 109 12))
		(line (pt 84 4)(pt 109 4))
		(line (pt 113 8)(pt 168 8))
		(line (pt 84 12)(pt 84 4))
		(line (pt 109 4)(pt 113 8))
		(line (pt 109 12)(pt 113 8))
	)
	(text "VCC" (rect 128 7 148 17)(font "Arial" (font_size 6)))
)
(pin
	(input)
	(rect 96 592 264 608)
	(text "INPUT" (rect 125 0 153 10)(font "Arial" (font_size 6)))
	(text "IRLout" (rect 5 0 38 12)(font "Arial" ))
	(pt 168 8)
	(drawing
		(line (pt 84 12)(pt 109 12))
		(line (pt 84 4)(pt 109 4))
		(line (pt 113 8)(pt 168 8))
		(line (pt 84 12)(pt 84 4))
		(line (pt 109 4)(pt 113 8))
		(line (pt 109 12)(pt 113 8))
	)
	(text "VCC" (rect 128 7 148 17)(font "Arial" (font_size 6)))
)
(pin
	(input)
	(rect 96 624 264 640)
	(text "INPUT" (rect 125 0 153 10)(font "Arial" (font_size 6)))
	(text "PCout" (rect 5 0 35 12)(font "Arial" ))
	(pt 168 8)
	(drawing
		(line (pt 84 12)(pt 109 12))
		(line (pt 84 4)(pt 109 4))
		(line (pt 113 8)(pt 168 8))
		(line (pt 84 12)(pt 84 4))
		(line (pt 109 4)(pt 113 8))
		(line (pt 109 12)(pt 113 8))
	)
	(text "VCC" (rect 128 7 148 17)(font "Arial" (font_size 6)))
)
(pin
	(input)
	(rect -136 -408 32 -392)
	(text "INPUT" (rect 125 0 153 10)(font "Arial" (font_size 6)))
	(text "CLK" (rect 5 0 26 12)(font "Arial" ))
	(pt 168 8)
	(drawing
		(line (pt 84 12)(pt 109 12))
		(line (pt 84 4)(pt 109 4))
		(line (pt 113 8)(pt 168 8))
		(line (pt 84 12)(pt 84 4))
		(line (pt 109 4)(pt 113 8))
		(line (pt 109 12)(pt 113 8))
	)
	(text "VCC" (rect 128 7 148 17)(font "Arial" (font_size 6)))
)
(pin
	(input)
	(rect -72 -24 96 -8)
	(text "INPUT" (rect 125 0 153 10)(font "Arial" (font_size 6)))
	(text "ldPC" (rect 5 0 28 12)(font "Arial" ))
	(pt 168 8)
	(drawing
		(line (pt 84 12)(pt 109 12))
		(line (pt 84 4)(pt 109 4))
		(line (pt 113 8)(pt 168 8))
		(line (pt 84 12)(pt 84 4))
		(line (pt 109 4)(pt 113 8))
		(line (pt 109 12)(pt 113 8))
	)
	(text "VCC" (rect 128 7 148 17)(font "Arial" (font_size 6)))
)
(pin
	(input)
	(rect 576 -32 744 -16)
	(text "INPUT" (rect 15 0 43 10)(font "Arial" (font_size 6)))
	(text "incPC" (rect 109 0 138 12)(font "Arial" ))
	(pt 0 8)
	(drawing
		(line (pt 84 12)(pt 59 12))
		(line (pt 84 4)(pt 59 4))
		(line (pt 55 8)(pt 0 8))
		(line (pt 84 12)(pt 84 4))
		(line (pt 59 4)(pt 55 8))
		(line (pt 59 12)(pt 55 8))
	)
	(flipy)
	(text "VCC" (rect 20 7 40 17)(font "Arial" (font_size 6)))
)
(pin
	(output)
	(rect 96 752 272 768)
	(text "OUTPUT" (rect 1 0 39 10)(font "Arial" (font_size 6)))
	(text "IR[31..0]" (rect 90 0 133 12)(font "Arial" ))
	(pt 0 8)
	(drawing
		(line (pt 0 8)(pt 52 8))
		(line (pt 52 4)(pt 78 4))
		(line (pt 52 12)(pt 78 12))
		(line (pt 52 12)(pt 52 4))
		(line (pt 78 4)(pt 82 8))
		(line (pt 82 8)(pt 78 12))
		(line (pt 78 12)(pt 82 8))
	)
)
(pin
	(bidir)
	(rect 96 704 272 720)
	(text "BIDIR" (rect 1 0 25 10)(font "Arial" (font_size 6)))
	(text "M[15..0]" (rect 90 0 130 12)(font "Arial" ))
	(pt 0 8)
	(drawing
		(line (pt 56 4)(pt 78 4))
		(line (pt 0 8)(pt 52 8))
		(line (pt 56 12)(pt 78 12))
		(line (pt 78 4)(pt 82 8))
		(line (pt 78 12)(pt 82 8))
		(line (pt 56 4)(pt 52 8))
		(line (pt 52 8)(pt 56 12))
	)
	(text "VCC" (rect 4 7 24 17)(font "Arial" (font_size 6)))
)
(symbol
	(rect 696 328 928 408)
	(text "REGX" (rect 5 0 34 12)(font "Arial" ))
	(text "inst1" (rect 8 64 31 76)(font "Arial" ))
	(port
		(pt 0 24)
		(input)
		(text "clk" (rect 0 0 14 12)(font "Arial" ))
		(text "clk" (rect 21 19 35 31)(font "Arial" ))
		(line (pt 0 24)(pt 16 24))
	)
	(port
		(pt 0 40)
		(input)
		(text "ld" (rect 0 0 8 12)(font "Arial" ))
		(text "ld" (rect 21 35 29 47)(font "Arial" ))
		(line (pt 0 40)(pt 16 40))
	)
	(port
		(pt 0 56)
		(input)
		(text "cl" (rect 0 0 8 12)(font "Arial" ))
		(text "cl" (rect 21 51 29 63)(font "Arial" ))
		(line (pt 0 56)(pt 16 56))
	)
	(port
		(pt 232 32)
		(input)
		(text "inc" (rect 0 0 14 12)(font "Arial" ))
		(text "inc" (rect 193 24 207 36)(font "Arial" ))
		(line (pt 216 32)(pt 232 32))
	)
	(port
		(pt 232 48)
		(input)
		(text "dec" (rect 0 0 17 12)(font "Arial" ))
		(text "dec" (rect 190 40 207 52)(font "Arial" ))
		(line (pt 216 48)(pt 232 48))
	)
	(port
		(pt 112 0)
		(input)
		(text "data_in[size-1..0]" (rect 0 0 83 12)(font "Arial" ))
		(text "DIN" (rect 104 16 124 28)(font "Arial" ))
		(line (pt 112 0)(pt 112 16)(line_width 3))
	)
	(port
		(pt 112 80)
		(output)
		(text "data_out[size-1..0]" (rect 0 -64 90 -52)(font "Arial" ))
		(text "  DOUT" (rect 96 48 133 60)(font "Arial" ))
		(line (pt 112 80)(pt 112 64)(line_width 3))
	)
	(parameter
		"size"
		"16"
		""
		(type "PARAMETER_SIGNED_DEC")	)
	(parameter
		"default_value"
		"0"
		""
		(type "PARAMETER_SIGNED_DEC")	)
	(drawing
		(text "REGISTAR" (rect 88 32 150 46)(font "Arial" (color 0 0 0)(font_size 8)(bold)))
		(rectangle (rect 16 16 216 64))
	)
	(annotation_block (parameter)(rect 928 280 1128 328))
)
(symbol
	(rect 544 560 592 592)
	(text "TRI" (rect 1 0 16 10)(font "Arial" (font_size 6)))
	(text "inst3" (rect 3 21 26 33)(font "Arial" ))
	(port
		(pt 0 16)
		(input)
		(text "IN" (rect 2 7 13 19)(font "Courier New" (bold))(invisible))
		(text "IN" (rect 2 7 13 19)(font "Courier New" (bold))(invisible))
		(line (pt 0 16)(pt 14 16))
	)
	(port
		(pt 24 0)
		(input)
		(text "OE" (rect 26 0 37 12)(font "Courier New" (bold))(invisible))
		(text "OE" (rect 26 0 37 12)(font "Courier New" (bold))(invisible))
		(line (pt 24 12)(pt 24 0))
	)
	(port
		(pt 48 16)
		(output)
		(text "OUT" (rect 32 7 49 19)(font "Courier New" (bold))(invisible))
		(text "OUT" (rect 32 7 49 19)(font "Courier New" (bold))(invisible))
		(line (pt 32 16)(pt 48 16))
	)
	(drawing
		(line (pt 14 25)(pt 14 7))
		(line (pt 14 25)(pt 32 16))
		(line (pt 14 7)(pt 32 16))
	)
)
(symbol
	(rect 550 656 598 688)
	(text "TRI" (rect 1 0 16 10)(font "Arial" (font_size 6)))
	(text "inst4" (rect 3 21 26 33)(font "Arial" ))
	(port
		(pt 0 16)
		(input)
		(text "IN" (rect 2 7 13 19)(font "Courier New" (bold))(invisible))
		(text "IN" (rect 2 7 13 19)(font "Courier New" (bold))(invisible))
		(line (pt 0 16)(pt 14 16))
	)
	(port
		(pt 24 0)
		(input)
		(text "OE" (rect 26 0 37 12)(font "Courier New" (bold))(invisible))
		(text "OE" (rect 26 0 37 12)(font "Courier New" (bold))(invisible))
		(line (pt 24 12)(pt 24 0))
	)
	(port
		(pt 48 16)
		(output)
		(text "OUT" (rect 32 7 49 19)(font "Courier New" (bold))(invisible))
		(text "OUT" (rect 32 7 49 19)(font "Courier New" (bold))(invisible))
		(line (pt 32 16)(pt 48 16))
	)
	(drawing
		(line (pt 14 25)(pt 14 7))
		(line (pt 14 25)(pt 32 16))
		(line (pt 14 7)(pt 32 16))
	)
)
(symbol
	(rect 566 176 614 208)
	(text "TRI" (rect 1 0 16 10)(font "Arial" (font_size 6)))
	(text "inst11" (rect 3 21 32 33)(font "Arial" ))
	(port
		(pt 0 16)
		(input)
		(text "IN" (rect 2 7 13 19)(font "Courier New" (bold))(invisible))
		(text "IN" (rect 2 7 13 19)(font "Courier New" (bold))(invisible))
		(line (pt 0 16)(pt 14 16))
	)
	(port
		(pt 24 0)
		(input)
		(text "OE" (rect 26 0 37 12)(font "Courier New" (bold))(invisible))
		(text "OE" (rect 26 0 37 12)(font "Courier New" (bold))(invisible))
		(line (pt 24 12)(pt 24 0))
	)
	(port
		(pt 48 16)
		(output)
		(text "OUT" (rect 32 7 49 19)(font "Courier New" (bold))(invisible))
		(text "OUT" (rect 32 7 49 19)(font "Courier New" (bold))(invisible))
		(line (pt 32 16)(pt 48 16))
	)
	(drawing
		(line (pt 14 25)(pt 14 7))
		(line (pt 14 25)(pt 32 16))
		(line (pt 14 7)(pt 32 16))
	)
)
(symbol
	(rect 216 328 448 408)
	(text "REGX" (rect 5 0 34 12)(font "Arial" ))
	(text "in656st" (rect 8 64 43 76)(font "Arial" ))
	(port
		(pt 0 24)
		(input)
		(text "clk" (rect 0 0 14 12)(font "Arial" ))
		(text "clk" (rect 21 19 35 31)(font "Arial" ))
		(line (pt 0 24)(pt 16 24))
	)
	(port
		(pt 0 40)
		(input)
		(text "ld" (rect 0 0 8 12)(font "Arial" ))
		(text "ld" (rect 21 35 29 47)(font "Arial" ))
		(line (pt 0 40)(pt 16 40))
	)
	(port
		(pt 0 56)
		(input)
		(text "cl" (rect 0 0 8 12)(font "Arial" ))
		(text "cl" (rect 21 51 29 63)(font "Arial" ))
		(line (pt 0 56)(pt 16 56))
	)
	(port
		(pt 232 32)
		(input)
		(text "inc" (rect 0 0 14 12)(font "Arial" ))
		(text "inc" (rect 193 24 207 36)(font "Arial" ))
		(line (pt 216 32)(pt 232 32))
	)
	(port
		(pt 232 48)
		(input)
		(text "dec" (rect 0 0 17 12)(font "Arial" ))
		(text "dec" (rect 190 40 207 52)(font "Arial" ))
		(line (pt 216 48)(pt 232 48))
	)
	(port
		(pt 112 0)
		(input)
		(text "data_in[size-1..0]" (rect 0 0 83 12)(font "Arial" ))
		(text "DIN" (rect 104 16 124 28)(font "Arial" ))
		(line (pt 112 0)(pt 112 16)(line_width 3))
	)
	(port
		(pt 112 80)
		(output)
		(text "data_out[size-1..0]" (rect 0 -64 90 -52)(font "Arial" ))
		(text "  DOUT" (rect 96 48 133 60)(font "Arial" ))
		(line (pt 112 80)(pt 112 64)(line_width 3))
	)
	(parameter
		"size"
		"16"
		""
		(type "PARAMETER_SIGNED_DEC")	)
	(parameter
		"default_value"
		"0"
		""
		(type "PARAMETER_SIGNED_DEC")	)
	(drawing
		(text "REGISTAR" (rect 88 32 150 46)(font "Arial" (color 0 0 0)(font_size 8)(bold)))
		(rectangle (rect 16 16 216 64))
	)
	(annotation_block (parameter)(rect 448 280 648 328))
)
(symbol
	(rect 248 -56 480 24)
	(text "REGX" (rect 5 0 34 12)(font "Arial" ))
	(text "inst7" (rect 8 64 31 76)(font "Arial" ))
	(port
		(pt 0 24)
		(input)
		(text "clk" (rect 0 0 14 12)(font "Arial" ))
		(text "clk" (rect 21 19 35 31)(font "Arial" ))
		(line (pt 0 24)(pt 16 24))
	)
	(port
		(pt 0 40)
		(input)
		(text "ld" (rect 0 0 8 12)(font "Arial" ))
		(text "ld" (rect 21 35 29 47)(font "Arial" ))
		(line (pt 0 40)(pt 16 40))
	)
	(port
		(pt 0 56)
		(input)
		(text "cl" (rect 0 0 8 12)(font "Arial" ))
		(text "cl" (rect 21 51 29 63)(font "Arial" ))
		(line (pt 0 56)(pt 16 56))
	)
	(port
		(pt 232 32)
		(input)
		(text "inc" (rect 0 0 14 12)(font "Arial" ))
		(text "inc" (rect 193 24 207 36)(font "Arial" ))
		(line (pt 216 32)(pt 232 32))
	)
	(port
		(pt 232 48)
		(input)
		(text "dec" (rect 0 0 17 12)(font "Arial" ))
		(text "dec" (rect 190 40 207 52)(font "Arial" ))
		(line (pt 216 48)(pt 232 48))
	)
	(port
		(pt 112 0)
		(input)
		(text "data_in[size-1..0]" (rect 0 0 83 12)(font "Arial" ))
		(text "DIN" (rect 104 16 124 28)(font "Arial" ))
		(line (pt 112 0)(pt 112 16)(line_width 3))
	)
	(port
		(pt 112 80)
		(output)
		(text "data_out[size-1..0]" (rect 0 -64 90 -52)(font "Arial" ))
		(text "  DOUT" (rect 96 48 133 60)(font "Arial" ))
		(line (pt 112 80)(pt 112 64)(line_width 3))
	)
	(parameter
		"size"
		"16"
		""
		(type "PARAMETER_SIGNED_DEC")	)
	(parameter
		"default_value"
		"256"
		""
		(type "PARAMETER_SIGNED_DEC")	)
	(drawing
		(text "REGISTAR" (rect 88 32 150 46)(font "Arial" (color 0 0 0)(font_size 8)(bold)))
		(rectangle (rect 16 16 216 64))
	)
	(annotation_block (parameter)(rect 480 -104 677 -62))
)
(connector
	(text "IR[15..0]" (rect 792 427 804 470)(font "Arial" )(vertical))
	(pt 808 408)
	(pt 808 480)
	(bus)
)
(connector
	(pt 672 368)
	(pt 696 368)
)
(connector
	(text "M[15..0]" (rect 312 278 324 318)(font "Arial" )(vertical))
	(pt 328 328)
	(pt 328 264)
	(bus)
)
(connector
	(text "M[15..0]" (rect 792 278 804 318)(font "Arial" )(vertical))
	(pt 808 328)
	(pt 808 280)
	(bus)
)
(connector
	(text "IR[31..16]" (rect 490 552 539 564)(font "Arial" ))
	(pt 544 576)
	(pt 504 576)
	(bus)
)
(connector
	(text "IRHout" (rect 552 514 564 549)(font "Arial" )(vertical))
	(pt 568 512)
	(pt 568 560)
)
(connector
	(text "M[15..0]" (rect 606 560 646 572)(font "Arial" ))
	(pt 592 576)
	(pt 640 576)
	(bus)
)
(connector
	(text "M[15..0]" (rect 612 656 652 668)(font "Arial" ))
	(pt 598 672)
	(pt 646 672)
	(bus)
)
(connector
	(text "IRLout" (rect 559 609 571 642)(font "Arial" )(vertical))
	(pt 574 608)
	(pt 574 656)
)
(connector
	(text "IR[15..0]" (rect 496 648 539 660)(font "Arial" ))
	(pt 510 672)
	(pt 550 672)
	(bus)
)
(connector
	(text "CLK" (rect 168 336 189 348)(font "Arial" ))
	(pt 160 352)
	(pt 216 352)
)
(connector
	(text "CLK" (rect 648 336 669 348)(font "Arial" ))
	(pt 640 352)
	(pt 696 352)
)
(connector
	(text "CLK" (rect 200 -48 221 -36)(font "Arial" ))
	(pt 248 -32)
	(pt 192 -32)
)
(connector
	(text "M[15..0]" (rect 628 176 668 188)(font "Arial" ))
	(pt 614 192)
	(pt 662 192)
	(bus)
)
(connector
	(pt 480 -24)
	(pt 576 -24)
)
(connector
	(text "PC[15..0]" (rect 512 168 559 180)(font "Arial" ))
	(pt 440 192)
	(pt 566 192)
	(bus)
)
(connector
	(pt 248 -16)
	(pt 96 -16)
)
(connector
	(text "PCout" (rect 576 128 588 158)(font "Arial" )(vertical))
	(pt 590 128)
	(pt 590 176)
)
(connector
	(text "M[15..0]" (rect 344 -106 356 -66)(font "Arial" )(vertical))
	(pt 360 -128)
	(pt 360 -56)
	(bus)
)
(connector
	(text "PC[15..0]" (rect 338 26 350 73)(font "Arial" )(vertical))
	(pt 360 72)
	(pt 360 24)
	(bus)
)
(connector
	(pt 216 368)
	(pt 176 368)
)
(connector
	(text "IR[31..16]" (rect 314 420 326 469)(font "Arial" )(vertical))
	(pt 328 408)
	(pt 328 480)
	(bus)
)
(text "IRH" (rect 368 416 404 435)(font "Arial" (color 0 0 0)(font_size 12)(bold)))
(text "IRL" (rect 848 416 882 435)(font "Arial" (color 0 0 0)(font_size 12)(bold)))
(text "PC" (rect 408 32 437 51)(font "Arial" (color 0 0 0)(font_size 12)(bold)))
