/*
WARNING: Do NOT edit the input and output ports in this file in a text
editor if you plan to continue editing the block that represents it in
the Block Editor! File corruption is VERY likely to occur.
*/
/*
Copyright (C) 1991-2013 Altera Corporation
Your use of Altera Corporation's design tools, logic functions 
and other software and tools, and its AMPP partner logic 
functions, and any output files from any of the foregoing 
(including device programming or simulation files), and any 
associated documentation or information are expressly subject 
to the terms and conditions of the Altera Program License 
Subscription Agreement, Altera MegaCore Function License 
Agreement, or other applicable license agreement, including, 
without limitation, that your use is for the sole purpose of 
programming logic devices manufactured by Altera and sold by 
Altera or its authorized distributors.  Please refer to the 
applicable agreement for further details.
*/
(header "graphic" (version "1.4"))
(global
	(rect 64 72 352 112)
	(parameter)
	(text "PARAM" (rect 3 -1 46 13)(font "Arial" (font_size 8)))
	(text "DEFAULT VALUE" (rect 141 0 229 12)(font "Arial" ))
	(text "size" (rect 3 16 26 30)(font "Arial" (font_size 8)))
	(text " NAME" (rect 108 0 142 12)(font "Arial" ))
	(text "D\"16\"" (rect 141 16 155 30)(font "Arial" (font_size 8)))
	(drawing
		(line (pt 138 40)(pt 138 0))
	)
)
(pin
	(input)
	(rect -336 224 -160 240)
	(text "INPUT" (rect 133 0 161 10)(font "Arial" (font_size 6)))
	(text "S1" (rect 9 0 21 12)(font "Arial" ))
	(pt 176 8)
	(drawing
		(line (pt 92 12)(pt 117 12))
		(line (pt 92 4)(pt 117 4))
		(line (pt 121 8)(pt 176 8))
		(line (pt 92 12)(pt 92 4))
		(line (pt 117 4)(pt 121 8))
		(line (pt 117 12)(pt 121 8))
	)
	(text "VCC" (rect 136 7 156 17)(font "Arial" (font_size 6)))
)
(pin
	(input)
	(rect -336 200 -160 216)
	(text "INPUT" (rect 133 0 161 10)(font "Arial" (font_size 6)))
	(text "S0" (rect 9 0 21 12)(font "Arial" ))
	(pt 176 8)
	(drawing
		(line (pt 92 12)(pt 117 12))
		(line (pt 92 4)(pt 117 4))
		(line (pt 121 8)(pt 176 8))
		(line (pt 92 12)(pt 92 4))
		(line (pt 117 4)(pt 121 8))
		(line (pt 117 12)(pt 121 8))
	)
	(text "VCC" (rect 136 7 156 17)(font "Arial" (font_size 6)))
)
(pin
	(input)
	(rect 8 304 176 320)
	(text "INPUT" (rect 125 0 153 10)(font "Arial" (font_size 6)))
	(text "X0_[size-1..0]" (rect 5 0 72 12)(font "Arial" ))
	(pt 168 8)
	(drawing
		(line (pt 84 12)(pt 109 12))
		(line (pt 84 4)(pt 109 4))
		(line (pt 113 8)(pt 168 8))
		(line (pt 84 12)(pt 84 4))
		(line (pt 109 4)(pt 113 8))
		(line (pt 109 12)(pt 113 8))
	)
	(text "VCC" (rect 128 7 148 17)(font "Arial" (font_size 6)))
)
(pin
	(input)
	(rect 8 336 176 352)
	(text "INPUT" (rect 125 0 153 10)(font "Arial" (font_size 6)))
	(text "X1_[size-1..0]" (rect 5 0 72 12)(font "Arial" ))
	(pt 168 8)
	(drawing
		(line (pt 84 12)(pt 109 12))
		(line (pt 84 4)(pt 109 4))
		(line (pt 113 8)(pt 168 8))
		(line (pt 84 12)(pt 84 4))
		(line (pt 109 4)(pt 113 8))
		(line (pt 109 12)(pt 113 8))
	)
	(text "VCC" (rect 128 7 148 17)(font "Arial" (font_size 6)))
)
(pin
	(input)
	(rect 8 432 176 448)
	(text "INPUT" (rect 125 0 153 10)(font "Arial" (font_size 6)))
	(text "X2_[size-1..0]" (rect 5 0 72 12)(font "Arial" ))
	(pt 168 8)
	(drawing
		(line (pt 84 12)(pt 109 12))
		(line (pt 84 4)(pt 109 4))
		(line (pt 113 8)(pt 168 8))
		(line (pt 84 12)(pt 84 4))
		(line (pt 109 4)(pt 113 8))
		(line (pt 109 12)(pt 113 8))
	)
	(text "VCC" (rect 128 7 148 17)(font "Arial" (font_size 6)))
)
(pin
	(input)
	(rect 8 464 176 480)
	(text "INPUT" (rect 125 0 153 10)(font "Arial" (font_size 6)))
	(text "X3_[size-1..0]" (rect 5 0 72 12)(font "Arial" ))
	(pt 168 8)
	(drawing
		(line (pt 84 12)(pt 109 12))
		(line (pt 84 4)(pt 109 4))
		(line (pt 113 8)(pt 168 8))
		(line (pt 84 12)(pt 84 4))
		(line (pt 109 4)(pt 113 8))
		(line (pt 109 12)(pt 113 8))
	)
	(text "VCC" (rect 128 7 148 17)(font "Arial" (font_size 6)))
)
(pin
	(output)
	(rect 656 384 832 400)
	(text "OUTPUT" (rect 1 0 39 10)(font "Arial" (font_size 6)))
	(text "Y[size-1..0]" (rect 90 0 146 12)(font "Arial" ))
	(pt 0 8)
	(drawing
		(line (pt 0 8)(pt 52 8))
		(line (pt 52 4)(pt 78 4))
		(line (pt 52 12)(pt 78 12))
		(line (pt 52 12)(pt 52 4))
		(line (pt 78 4)(pt 82 8))
		(line (pt 82 8)(pt 78 12))
		(line (pt 78 12)(pt 82 8))
	)
)
(symbol
	(rect 184 280 288 376)
	(text "MP2X" (rect 5 0 32 12)(font "Arial" ))
	(text "inst" (rect 8 80 25 92)(font "Arial" ))
	(port
		(pt 48 96)
		(input)
		(text "S" (rect 0 -16 7 -4)(font "Arial" ))
		(text "S" (rect 48 63 55 75)(font "Arial" ))
		(line (pt 48 96)(pt 48 80))
	)
	(port
		(pt 0 32)
		(input)
		(text "X0[size-1..0]" (rect 0 0 60 12)(font "Arial" ))
		(text "X0" (rect 21 27 32 39)(font "Arial" ))
		(line (pt 0 32)(pt 16 32)(line_width 3))
	)
	(port
		(pt 0 64)
		(input)
		(text "X1[size-1..0]" (rect 0 0 60 12)(font "Arial" ))
		(text "X1" (rect 21 59 32 71)(font "Arial" ))
		(line (pt 0 64)(pt 16 64)(line_width 3))
	)
	(port
		(pt 104 48)
		(output)
		(text "Y[size-1..0]" (rect -88 0 -32 12)(font "Arial" ))
		(text "Y" (rect 76 43 84 55)(font "Arial" ))
		(line (pt 104 48)(pt 88 48)(line_width 3))
	)
	(parameter
		"size"
		"size"
		""
		(type "PARAMETER_SIGNED_DEC")	)
	(drawing
		(text " MX" (rect 40 40 63 54)(font "Arial" (color 0 0 0)(font_size 8)(bold)))
		(rectangle (rect 16 16 88 80))
	)
	(annotation_block (parameter)(rect 288 248 470 276))
)
(symbol
	(rect 184 408 288 504)
	(text "MP2X" (rect 5 0 32 12)(font "Arial" ))
	(text "inst1" (rect 8 80 31 92)(font "Arial" ))
	(port
		(pt 48 96)
		(input)
		(text "S" (rect 0 -16 7 -4)(font "Arial" ))
		(text "S" (rect 48 63 55 75)(font "Arial" ))
		(line (pt 48 96)(pt 48 80))
	)
	(port
		(pt 0 32)
		(input)
		(text "X0[size-1..0]" (rect 0 0 60 12)(font "Arial" ))
		(text "X0" (rect 21 27 32 39)(font "Arial" ))
		(line (pt 0 32)(pt 16 32)(line_width 3))
	)
	(port
		(pt 0 64)
		(input)
		(text "X1[size-1..0]" (rect 0 0 60 12)(font "Arial" ))
		(text "X1" (rect 21 59 32 71)(font "Arial" ))
		(line (pt 0 64)(pt 16 64)(line_width 3))
	)
	(port
		(pt 104 48)
		(output)
		(text "Y[size-1..0]" (rect -88 0 -32 12)(font "Arial" ))
		(text "Y" (rect 76 43 84 55)(font "Arial" ))
		(line (pt 104 48)(pt 88 48)(line_width 3))
	)
	(parameter
		"size"
		"size"
		""
		(type "PARAMETER_SIGNED_DEC")	)
	(drawing
		(text " MX" (rect 40 40 63 54)(font "Arial" (color 0 0 0)(font_size 8)(bold)))
		(rectangle (rect 16 16 88 80))
	)
	(annotation_block (parameter)(rect 288 376 470 404))
)
(symbol
	(rect 536 344 640 440)
	(text "MP2X" (rect 5 0 32 12)(font "Arial" ))
	(text "inst3" (rect 8 80 31 92)(font "Arial" ))
	(port
		(pt 48 96)
		(input)
		(text "S" (rect 0 -16 7 -4)(font "Arial" ))
		(text "S" (rect 48 63 55 75)(font "Arial" ))
		(line (pt 48 96)(pt 48 80))
	)
	(port
		(pt 0 32)
		(input)
		(text "X0[size-1..0]" (rect 0 0 60 12)(font "Arial" ))
		(text "X0" (rect 21 27 32 39)(font "Arial" ))
		(line (pt 0 32)(pt 16 32)(line_width 3))
	)
	(port
		(pt 0 64)
		(input)
		(text "X1[size-1..0]" (rect 0 0 60 12)(font "Arial" ))
		(text "X1" (rect 21 59 32 71)(font "Arial" ))
		(line (pt 0 64)(pt 16 64)(line_width 3))
	)
	(port
		(pt 104 48)
		(output)
		(text "Y[size-1..0]" (rect -88 0 -32 12)(font "Arial" ))
		(text "Y" (rect 76 43 84 55)(font "Arial" ))
		(line (pt 104 48)(pt 88 48)(line_width 3))
	)
	(parameter
		"size"
		"size"
		""
		(type "PARAMETER_SIGNED_DEC")	)
	(drawing
		(text " MX" (rect 40 40 63 54)(font "Arial" (color 0 0 0)(font_size 8)(bold)))
		(rectangle (rect 16 16 88 80))
	)
	(annotation_block (parameter)(rect 640 312 822 340))
)
(connector
	(pt 232 560)
	(pt 232 504)
)
(connector
	(pt 232 376)
	(pt 232 400)
)
(connector
	(pt 288 328)
	(pt 304 328)
	(bus)
)
(connector
	(pt 536 376)
	(pt 304 376)
	(bus)
)
(connector
	(pt 304 328)
	(pt 304 376)
	(bus)
)
(connector
	(pt 536 408)
	(pt 304 408)
	(bus)
)
(connector
	(pt 288 456)
	(pt 304 456)
	(bus)
)
(connector
	(pt 304 456)
	(pt 304 408)
	(bus)
)
(connector
	(pt 232 560)
	(pt -128 560)
)
(connector
	(pt -128 400)
	(pt 232 400)
)
(connector
	(pt -128 208)
	(pt -128 400)
)
(connector
	(pt -128 400)
	(pt -128 560)
)
(connector
	(pt -160 208)
	(pt -128 208)
)
(connector
	(pt 184 312)
	(pt 176 312)
	(bus)
)
(connector
	(pt 184 344)
	(pt 176 344)
	(bus)
)
(connector
	(pt 184 440)
	(pt 176 440)
	(bus)
)
(connector
	(pt 184 472)
	(pt 176 472)
	(bus)
)
(connector
	(pt 640 392)
	(pt 656 392)
	(bus)
)
(connector
	(pt -160 232)
	(pt 504 232)
)
(connector
	(pt 584 456)
	(pt 504 456)
)
(connector
	(pt 584 440)
	(pt 584 456)
)
(connector
	(pt 504 232)
	(pt 504 456)
)
(junction (pt -128 400))
