/*
WARNING: Do NOT edit the input and output ports in this file in a text
editor if you plan to continue editing the block that represents it in
the Block Editor! File corruption is VERY likely to occur.
*/
/*
Copyright (C) 1991-2013 Altera Corporation
Your use of Altera Corporation's design tools, logic functions 
and other software and tools, and its AMPP partner logic 
functions, and any output files from any of the foregoing 
(including device programming or simulation files), and any 
associated documentation or information are expressly subject 
to the terms and conditions of the Altera Program License 
Subscription Agreement, Altera MegaCore Function License 
Agreement, or other applicable license agreement, including, 
without limitation, that your use is for the sole purpose of 
programming logic devices manufactured by Altera and sold by 
Altera or its authorized distributors.  Please refer to the 
applicable agreement for further details.
*/
(header "graphic" (version "1.4"))
(pin
	(input)
	(rect -72 2952 96 2968)
	(text "INPUT" (rect 125 0 153 10)(font "Arial" (font_size 6)))
	(text "IL" (rect 5 0 14 12)(font "Arial" ))
	(pt 168 8)
	(drawing
		(line (pt 84 12)(pt 109 12))
		(line (pt 84 4)(pt 109 4))
		(line (pt 113 8)(pt 168 8))
		(line (pt 84 12)(pt 84 4))
		(line (pt 109 4)(pt 113 8))
		(line (pt 109 12)(pt 113 8))
	)
	(text "VCC" (rect 128 7 148 17)(font "Arial" (font_size 6)))
)
(pin
	(input)
	(rect -72 2888 96 2904)
	(text "INPUT" (rect 125 0 153 10)(font "Arial" (font_size 6)))
	(text "IR" (rect 5 0 16 12)(font "Arial" ))
	(pt 168 8)
	(drawing
		(line (pt 84 12)(pt 109 12))
		(line (pt 84 4)(pt 109 4))
		(line (pt 113 8)(pt 168 8))
		(line (pt 84 12)(pt 84 4))
		(line (pt 109 4)(pt 113 8))
		(line (pt 109 12)(pt 113 8))
	)
	(text "VCC" (rect 128 7 148 17)(font "Arial" (font_size 6)))
)
(pin
	(input)
	(rect -72 2856 96 2872)
	(text "INPUT" (rect 125 0 153 10)(font "Arial" (font_size 6)))
	(text "LD" (rect 5 0 19 12)(font "Arial" ))
	(pt 168 8)
	(drawing
		(line (pt 84 12)(pt 109 12))
		(line (pt 84 4)(pt 109 4))
		(line (pt 113 8)(pt 168 8))
		(line (pt 84 12)(pt 84 4))
		(line (pt 109 4)(pt 113 8))
		(line (pt 109 12)(pt 113 8))
	)
	(text "VCC" (rect 128 7 148 17)(font "Arial" (font_size 6)))
)
(pin
	(input)
	(rect -72 2920 96 2936)
	(text "INPUT" (rect 125 0 153 10)(font "Arial" (font_size 6)))
	(text "SHR" (rect 5 0 28 12)(font "Arial" ))
	(pt 168 8)
	(drawing
		(line (pt 84 12)(pt 109 12))
		(line (pt 84 4)(pt 109 4))
		(line (pt 113 8)(pt 168 8))
		(line (pt 84 12)(pt 84 4))
		(line (pt 109 4)(pt 113 8))
		(line (pt 109 12)(pt 113 8))
	)
	(text "VCC" (rect 128 7 148 17)(font "Arial" (font_size 6)))
)
(pin
	(input)
	(rect -72 2984 96 3000)
	(text "INPUT" (rect 125 0 153 10)(font "Arial" (font_size 6)))
	(text "SHL" (rect 5 0 26 12)(font "Arial" ))
	(pt 168 8)
	(drawing
		(line (pt 84 12)(pt 109 12))
		(line (pt 84 4)(pt 109 4))
		(line (pt 113 8)(pt 168 8))
		(line (pt 84 12)(pt 84 4))
		(line (pt 109 4)(pt 113 8))
		(line (pt 109 12)(pt 113 8))
	)
	(text "VCC" (rect 128 7 148 17)(font "Arial" (font_size 6)))
)
(pin
	(input)
	(rect -72 2832 96 2848)
	(text "INPUT" (rect 125 0 153 10)(font "Arial" (font_size 6)))
	(text "INPUT[15..0]" (rect 5 0 69 12)(font "Arial" ))
	(pt 168 8)
	(drawing
		(line (pt 84 12)(pt 109 12))
		(line (pt 84 4)(pt 109 4))
		(line (pt 113 8)(pt 168 8))
		(line (pt 84 12)(pt 84 4))
		(line (pt 109 4)(pt 113 8))
		(line (pt 109 12)(pt 113 8))
	)
	(text "VCC" (rect 128 7 148 17)(font "Arial" (font_size 6)))
)
(pin
	(input)
	(rect -72 3016 96 3032)
	(text "INPUT" (rect 125 0 153 10)(font "Arial" (font_size 6)))
	(text "CLK" (rect 5 0 26 12)(font "Arial" ))
	(pt 168 8)
	(drawing
		(line (pt 84 12)(pt 109 12))
		(line (pt 84 4)(pt 109 4))
		(line (pt 113 8)(pt 168 8))
		(line (pt 84 12)(pt 84 4))
		(line (pt 109 4)(pt 113 8))
		(line (pt 109 12)(pt 113 8))
	)
	(text "VCC" (rect 128 7 148 17)(font "Arial" (font_size 6)))
)
(pin
	(output)
	(rect 368 2816 544 2832)
	(text "OUTPUT" (rect 1 0 39 10)(font "Arial" (font_size 6)))
	(text "OUTPUT[15..0]" (rect 90 0 165 12)(font "Arial" ))
	(pt 0 8)
	(drawing
		(line (pt 0 8)(pt 52 8))
		(line (pt 52 4)(pt 78 4))
		(line (pt 52 12)(pt 78 12))
		(line (pt 52 12)(pt 52 4))
		(line (pt 78 4)(pt 82 8))
		(line (pt 82 8)(pt 78 12))
		(line (pt 78 12)(pt 82 8))
	)
)
(symbol
	(rect 160 288 288 448)
	(text "REG_LD_SL_SR" (rect 5 0 98 14)(font "Arial" (font_size 8)))
	(text "inst" (rect 8 144 25 156)(font "Arial" ))
	(port
		(pt 0 32)
		(input)
		(text "I" (rect 0 0 2 14)(font "Arial" (font_size 8)))
		(text "I" (rect 21 27 23 41)(font "Arial" (font_size 8)))
		(line (pt 0 32)(pt 16 32))
	)
	(port
		(pt 0 48)
		(input)
		(text "LD" (rect 0 0 15 14)(font "Arial" (font_size 8)))
		(text "LD" (rect 21 43 36 57)(font "Arial" (font_size 8)))
		(line (pt 0 48)(pt 16 48))
	)
	(port
		(pt 0 64)
		(input)
		(text "IR" (rect 0 0 10 14)(font "Arial" (font_size 8)))
		(text "IR" (rect 21 59 31 73)(font "Arial" (font_size 8)))
		(line (pt 0 64)(pt 16 64))
	)
	(port
		(pt 0 80)
		(input)
		(text "SHR" (rect 0 0 24 14)(font "Arial" (font_size 8)))
		(text "SHR" (rect 21 75 45 89)(font "Arial" (font_size 8)))
		(line (pt 0 80)(pt 16 80))
	)
	(port
		(pt 0 96)
		(input)
		(text "IL" (rect 0 0 9 14)(font "Arial" (font_size 8)))
		(text "IL" (rect 21 91 30 105)(font "Arial" (font_size 8)))
		(line (pt 0 96)(pt 16 96))
	)
	(port
		(pt 0 112)
		(input)
		(text "SHL" (rect 0 0 23 14)(font "Arial" (font_size 8)))
		(text "SHL" (rect 21 107 44 121)(font "Arial" (font_size 8)))
		(line (pt 0 112)(pt 16 112))
	)
	(port
		(pt 0 128)
		(input)
		(text "CLK" (rect 0 0 23 14)(font "Arial" (font_size 8)))
		(text "CLK" (rect 21 123 44 137)(font "Arial" (font_size 8)))
		(line (pt 0 128)(pt 16 128))
	)
	(port
		(pt 128 32)
		(output)
		(text "OUTPUT" (rect 0 0 47 14)(font "Arial" (font_size 8)))
		(text "OUTPUT" (rect 60 27 107 41)(font "Arial" (font_size 8)))
		(line (pt 128 32)(pt 112 32))
	)
	(drawing
		(rectangle (rect 16 16 112 144))
	)
)
(symbol
	(rect 160 456 288 616)
	(text "REG_LD_SL_SR" (rect 5 0 98 14)(font "Arial" (font_size 8)))
	(text "inst17" (rect 8 144 37 156)(font "Arial" ))
	(port
		(pt 0 32)
		(input)
		(text "I" (rect 0 0 2 14)(font "Arial" (font_size 8)))
		(text "I" (rect 21 27 23 41)(font "Arial" (font_size 8)))
		(line (pt 0 32)(pt 16 32))
	)
	(port
		(pt 0 48)
		(input)
		(text "LD" (rect 0 0 15 14)(font "Arial" (font_size 8)))
		(text "LD" (rect 21 43 36 57)(font "Arial" (font_size 8)))
		(line (pt 0 48)(pt 16 48))
	)
	(port
		(pt 0 64)
		(input)
		(text "IR" (rect 0 0 10 14)(font "Arial" (font_size 8)))
		(text "IR" (rect 21 59 31 73)(font "Arial" (font_size 8)))
		(line (pt 0 64)(pt 16 64))
	)
	(port
		(pt 0 80)
		(input)
		(text "SHR" (rect 0 0 24 14)(font "Arial" (font_size 8)))
		(text "SHR" (rect 21 75 45 89)(font "Arial" (font_size 8)))
		(line (pt 0 80)(pt 16 80))
	)
	(port
		(pt 0 96)
		(input)
		(text "IL" (rect 0 0 9 14)(font "Arial" (font_size 8)))
		(text "IL" (rect 21 91 30 105)(font "Arial" (font_size 8)))
		(line (pt 0 96)(pt 16 96))
	)
	(port
		(pt 0 112)
		(input)
		(text "SHL" (rect 0 0 23 14)(font "Arial" (font_size 8)))
		(text "SHL" (rect 21 107 44 121)(font "Arial" (font_size 8)))
		(line (pt 0 112)(pt 16 112))
	)
	(port
		(pt 0 128)
		(input)
		(text "CLK" (rect 0 0 23 14)(font "Arial" (font_size 8)))
		(text "CLK" (rect 21 123 44 137)(font "Arial" (font_size 8)))
		(line (pt 0 128)(pt 16 128))
	)
	(port
		(pt 128 32)
		(output)
		(text "OUTPUT" (rect 0 0 47 14)(font "Arial" (font_size 8)))
		(text "OUTPUT" (rect 60 27 107 41)(font "Arial" (font_size 8)))
		(line (pt 128 32)(pt 112 32))
	)
	(drawing
		(rectangle (rect 16 16 112 144))
	)
)
(symbol
	(rect 160 624 288 784)
	(text "REG_LD_SL_SR" (rect 5 0 98 14)(font "Arial" (font_size 8)))
	(text "inst18" (rect 8 144 37 156)(font "Arial" ))
	(port
		(pt 0 32)
		(input)
		(text "I" (rect 0 0 2 14)(font "Arial" (font_size 8)))
		(text "I" (rect 21 27 23 41)(font "Arial" (font_size 8)))
		(line (pt 0 32)(pt 16 32))
	)
	(port
		(pt 0 48)
		(input)
		(text "LD" (rect 0 0 15 14)(font "Arial" (font_size 8)))
		(text "LD" (rect 21 43 36 57)(font "Arial" (font_size 8)))
		(line (pt 0 48)(pt 16 48))
	)
	(port
		(pt 0 64)
		(input)
		(text "IR" (rect 0 0 10 14)(font "Arial" (font_size 8)))
		(text "IR" (rect 21 59 31 73)(font "Arial" (font_size 8)))
		(line (pt 0 64)(pt 16 64))
	)
	(port
		(pt 0 80)
		(input)
		(text "SHR" (rect 0 0 24 14)(font "Arial" (font_size 8)))
		(text "SHR" (rect 21 75 45 89)(font "Arial" (font_size 8)))
		(line (pt 0 80)(pt 16 80))
	)
	(port
		(pt 0 96)
		(input)
		(text "IL" (rect 0 0 9 14)(font "Arial" (font_size 8)))
		(text "IL" (rect 21 91 30 105)(font "Arial" (font_size 8)))
		(line (pt 0 96)(pt 16 96))
	)
	(port
		(pt 0 112)
		(input)
		(text "SHL" (rect 0 0 23 14)(font "Arial" (font_size 8)))
		(text "SHL" (rect 21 107 44 121)(font "Arial" (font_size 8)))
		(line (pt 0 112)(pt 16 112))
	)
	(port
		(pt 0 128)
		(input)
		(text "CLK" (rect 0 0 23 14)(font "Arial" (font_size 8)))
		(text "CLK" (rect 21 123 44 137)(font "Arial" (font_size 8)))
		(line (pt 0 128)(pt 16 128))
	)
	(port
		(pt 128 32)
		(output)
		(text "OUTPUT" (rect 0 0 47 14)(font "Arial" (font_size 8)))
		(text "OUTPUT" (rect 60 27 107 41)(font "Arial" (font_size 8)))
		(line (pt 128 32)(pt 112 32))
	)
	(drawing
		(rectangle (rect 16 16 112 144))
	)
)
(symbol
	(rect 160 792 288 952)
	(text "REG_LD_SL_SR" (rect 5 0 98 14)(font "Arial" (font_size 8)))
	(text "inst19" (rect 8 144 37 156)(font "Arial" ))
	(port
		(pt 0 32)
		(input)
		(text "I" (rect 0 0 2 14)(font "Arial" (font_size 8)))
		(text "I" (rect 21 27 23 41)(font "Arial" (font_size 8)))
		(line (pt 0 32)(pt 16 32))
	)
	(port
		(pt 0 48)
		(input)
		(text "LD" (rect 0 0 15 14)(font "Arial" (font_size 8)))
		(text "LD" (rect 21 43 36 57)(font "Arial" (font_size 8)))
		(line (pt 0 48)(pt 16 48))
	)
	(port
		(pt 0 64)
		(input)
		(text "IR" (rect 0 0 10 14)(font "Arial" (font_size 8)))
		(text "IR" (rect 21 59 31 73)(font "Arial" (font_size 8)))
		(line (pt 0 64)(pt 16 64))
	)
	(port
		(pt 0 80)
		(input)
		(text "SHR" (rect 0 0 24 14)(font "Arial" (font_size 8)))
		(text "SHR" (rect 21 75 45 89)(font "Arial" (font_size 8)))
		(line (pt 0 80)(pt 16 80))
	)
	(port
		(pt 0 96)
		(input)
		(text "IL" (rect 0 0 9 14)(font "Arial" (font_size 8)))
		(text "IL" (rect 21 91 30 105)(font "Arial" (font_size 8)))
		(line (pt 0 96)(pt 16 96))
	)
	(port
		(pt 0 112)
		(input)
		(text "SHL" (rect 0 0 23 14)(font "Arial" (font_size 8)))
		(text "SHL" (rect 21 107 44 121)(font "Arial" (font_size 8)))
		(line (pt 0 112)(pt 16 112))
	)
	(port
		(pt 0 128)
		(input)
		(text "CLK" (rect 0 0 23 14)(font "Arial" (font_size 8)))
		(text "CLK" (rect 21 123 44 137)(font "Arial" (font_size 8)))
		(line (pt 0 128)(pt 16 128))
	)
	(port
		(pt 128 32)
		(output)
		(text "OUTPUT" (rect 0 0 47 14)(font "Arial" (font_size 8)))
		(text "OUTPUT" (rect 60 27 107 41)(font "Arial" (font_size 8)))
		(line (pt 128 32)(pt 112 32))
	)
	(drawing
		(rectangle (rect 16 16 112 144))
	)
)
(symbol
	(rect 160 960 288 1120)
	(text "REG_LD_SL_SR" (rect 5 0 98 14)(font "Arial" (font_size 8)))
	(text "inst20" (rect 8 144 37 156)(font "Arial" ))
	(port
		(pt 0 32)
		(input)
		(text "I" (rect 0 0 2 14)(font "Arial" (font_size 8)))
		(text "I" (rect 21 27 23 41)(font "Arial" (font_size 8)))
		(line (pt 0 32)(pt 16 32))
	)
	(port
		(pt 0 48)
		(input)
		(text "LD" (rect 0 0 15 14)(font "Arial" (font_size 8)))
		(text "LD" (rect 21 43 36 57)(font "Arial" (font_size 8)))
		(line (pt 0 48)(pt 16 48))
	)
	(port
		(pt 0 64)
		(input)
		(text "IR" (rect 0 0 10 14)(font "Arial" (font_size 8)))
		(text "IR" (rect 21 59 31 73)(font "Arial" (font_size 8)))
		(line (pt 0 64)(pt 16 64))
	)
	(port
		(pt 0 80)
		(input)
		(text "SHR" (rect 0 0 24 14)(font "Arial" (font_size 8)))
		(text "SHR" (rect 21 75 45 89)(font "Arial" (font_size 8)))
		(line (pt 0 80)(pt 16 80))
	)
	(port
		(pt 0 96)
		(input)
		(text "IL" (rect 0 0 9 14)(font "Arial" (font_size 8)))
		(text "IL" (rect 21 91 30 105)(font "Arial" (font_size 8)))
		(line (pt 0 96)(pt 16 96))
	)
	(port
		(pt 0 112)
		(input)
		(text "SHL" (rect 0 0 23 14)(font "Arial" (font_size 8)))
		(text "SHL" (rect 21 107 44 121)(font "Arial" (font_size 8)))
		(line (pt 0 112)(pt 16 112))
	)
	(port
		(pt 0 128)
		(input)
		(text "CLK" (rect 0 0 23 14)(font "Arial" (font_size 8)))
		(text "CLK" (rect 21 123 44 137)(font "Arial" (font_size 8)))
		(line (pt 0 128)(pt 16 128))
	)
	(port
		(pt 128 32)
		(output)
		(text "OUTPUT" (rect 0 0 47 14)(font "Arial" (font_size 8)))
		(text "OUTPUT" (rect 60 27 107 41)(font "Arial" (font_size 8)))
		(line (pt 128 32)(pt 112 32))
	)
	(drawing
		(rectangle (rect 16 16 112 144))
	)
)
(symbol
	(rect 160 1128 288 1288)
	(text "REG_LD_SL_SR" (rect 5 0 98 14)(font "Arial" (font_size 8)))
	(text "inst21" (rect 8 144 37 156)(font "Arial" ))
	(port
		(pt 0 32)
		(input)
		(text "I" (rect 0 0 2 14)(font "Arial" (font_size 8)))
		(text "I" (rect 21 27 23 41)(font "Arial" (font_size 8)))
		(line (pt 0 32)(pt 16 32))
	)
	(port
		(pt 0 48)
		(input)
		(text "LD" (rect 0 0 15 14)(font "Arial" (font_size 8)))
		(text "LD" (rect 21 43 36 57)(font "Arial" (font_size 8)))
		(line (pt 0 48)(pt 16 48))
	)
	(port
		(pt 0 64)
		(input)
		(text "IR" (rect 0 0 10 14)(font "Arial" (font_size 8)))
		(text "IR" (rect 21 59 31 73)(font "Arial" (font_size 8)))
		(line (pt 0 64)(pt 16 64))
	)
	(port
		(pt 0 80)
		(input)
		(text "SHR" (rect 0 0 24 14)(font "Arial" (font_size 8)))
		(text "SHR" (rect 21 75 45 89)(font "Arial" (font_size 8)))
		(line (pt 0 80)(pt 16 80))
	)
	(port
		(pt 0 96)
		(input)
		(text "IL" (rect 0 0 9 14)(font "Arial" (font_size 8)))
		(text "IL" (rect 21 91 30 105)(font "Arial" (font_size 8)))
		(line (pt 0 96)(pt 16 96))
	)
	(port
		(pt 0 112)
		(input)
		(text "SHL" (rect 0 0 23 14)(font "Arial" (font_size 8)))
		(text "SHL" (rect 21 107 44 121)(font "Arial" (font_size 8)))
		(line (pt 0 112)(pt 16 112))
	)
	(port
		(pt 0 128)
		(input)
		(text "CLK" (rect 0 0 23 14)(font "Arial" (font_size 8)))
		(text "CLK" (rect 21 123 44 137)(font "Arial" (font_size 8)))
		(line (pt 0 128)(pt 16 128))
	)
	(port
		(pt 128 32)
		(output)
		(text "OUTPUT" (rect 0 0 47 14)(font "Arial" (font_size 8)))
		(text "OUTPUT" (rect 60 27 107 41)(font "Arial" (font_size 8)))
		(line (pt 128 32)(pt 112 32))
	)
	(drawing
		(rectangle (rect 16 16 112 144))
	)
)
(symbol
	(rect 160 1296 288 1456)
	(text "REG_LD_SL_SR" (rect 5 0 98 14)(font "Arial" (font_size 8)))
	(text "inst22" (rect 8 144 37 156)(font "Arial" ))
	(port
		(pt 0 32)
		(input)
		(text "I" (rect 0 0 2 14)(font "Arial" (font_size 8)))
		(text "I" (rect 21 27 23 41)(font "Arial" (font_size 8)))
		(line (pt 0 32)(pt 16 32))
	)
	(port
		(pt 0 48)
		(input)
		(text "LD" (rect 0 0 15 14)(font "Arial" (font_size 8)))
		(text "LD" (rect 21 43 36 57)(font "Arial" (font_size 8)))
		(line (pt 0 48)(pt 16 48))
	)
	(port
		(pt 0 64)
		(input)
		(text "IR" (rect 0 0 10 14)(font "Arial" (font_size 8)))
		(text "IR" (rect 21 59 31 73)(font "Arial" (font_size 8)))
		(line (pt 0 64)(pt 16 64))
	)
	(port
		(pt 0 80)
		(input)
		(text "SHR" (rect 0 0 24 14)(font "Arial" (font_size 8)))
		(text "SHR" (rect 21 75 45 89)(font "Arial" (font_size 8)))
		(line (pt 0 80)(pt 16 80))
	)
	(port
		(pt 0 96)
		(input)
		(text "IL" (rect 0 0 9 14)(font "Arial" (font_size 8)))
		(text "IL" (rect 21 91 30 105)(font "Arial" (font_size 8)))
		(line (pt 0 96)(pt 16 96))
	)
	(port
		(pt 0 112)
		(input)
		(text "SHL" (rect 0 0 23 14)(font "Arial" (font_size 8)))
		(text "SHL" (rect 21 107 44 121)(font "Arial" (font_size 8)))
		(line (pt 0 112)(pt 16 112))
	)
	(port
		(pt 0 128)
		(input)
		(text "CLK" (rect 0 0 23 14)(font "Arial" (font_size 8)))
		(text "CLK" (rect 21 123 44 137)(font "Arial" (font_size 8)))
		(line (pt 0 128)(pt 16 128))
	)
	(port
		(pt 128 32)
		(output)
		(text "OUTPUT" (rect 0 0 47 14)(font "Arial" (font_size 8)))
		(text "OUTPUT" (rect 60 27 107 41)(font "Arial" (font_size 8)))
		(line (pt 128 32)(pt 112 32))
	)
	(drawing
		(rectangle (rect 16 16 112 144))
	)
)
(symbol
	(rect 160 1464 288 1624)
	(text "REG_LD_SL_SR" (rect 5 0 98 14)(font "Arial" (font_size 8)))
	(text "inst23" (rect 8 144 37 156)(font "Arial" ))
	(port
		(pt 0 32)
		(input)
		(text "I" (rect 0 0 2 14)(font "Arial" (font_size 8)))
		(text "I" (rect 21 27 23 41)(font "Arial" (font_size 8)))
		(line (pt 0 32)(pt 16 32))
	)
	(port
		(pt 0 48)
		(input)
		(text "LD" (rect 0 0 15 14)(font "Arial" (font_size 8)))
		(text "LD" (rect 21 43 36 57)(font "Arial" (font_size 8)))
		(line (pt 0 48)(pt 16 48))
	)
	(port
		(pt 0 64)
		(input)
		(text "IR" (rect 0 0 10 14)(font "Arial" (font_size 8)))
		(text "IR" (rect 21 59 31 73)(font "Arial" (font_size 8)))
		(line (pt 0 64)(pt 16 64))
	)
	(port
		(pt 0 80)
		(input)
		(text "SHR" (rect 0 0 24 14)(font "Arial" (font_size 8)))
		(text "SHR" (rect 21 75 45 89)(font "Arial" (font_size 8)))
		(line (pt 0 80)(pt 16 80))
	)
	(port
		(pt 0 96)
		(input)
		(text "IL" (rect 0 0 9 14)(font "Arial" (font_size 8)))
		(text "IL" (rect 21 91 30 105)(font "Arial" (font_size 8)))
		(line (pt 0 96)(pt 16 96))
	)
	(port
		(pt 0 112)
		(input)
		(text "SHL" (rect 0 0 23 14)(font "Arial" (font_size 8)))
		(text "SHL" (rect 21 107 44 121)(font "Arial" (font_size 8)))
		(line (pt 0 112)(pt 16 112))
	)
	(port
		(pt 0 128)
		(input)
		(text "CLK" (rect 0 0 23 14)(font "Arial" (font_size 8)))
		(text "CLK" (rect 21 123 44 137)(font "Arial" (font_size 8)))
		(line (pt 0 128)(pt 16 128))
	)
	(port
		(pt 128 32)
		(output)
		(text "OUTPUT" (rect 0 0 47 14)(font "Arial" (font_size 8)))
		(text "OUTPUT" (rect 60 27 107 41)(font "Arial" (font_size 8)))
		(line (pt 128 32)(pt 112 32))
	)
	(drawing
		(rectangle (rect 16 16 112 144))
	)
)
(symbol
	(rect 160 1632 288 1792)
	(text "REG_LD_SL_SR" (rect 5 0 98 14)(font "Arial" (font_size 8)))
	(text "inst24" (rect 8 144 37 156)(font "Arial" ))
	(port
		(pt 0 32)
		(input)
		(text "I" (rect 0 0 2 14)(font "Arial" (font_size 8)))
		(text "I" (rect 21 27 23 41)(font "Arial" (font_size 8)))
		(line (pt 0 32)(pt 16 32))
	)
	(port
		(pt 0 48)
		(input)
		(text "LD" (rect 0 0 15 14)(font "Arial" (font_size 8)))
		(text "LD" (rect 21 43 36 57)(font "Arial" (font_size 8)))
		(line (pt 0 48)(pt 16 48))
	)
	(port
		(pt 0 64)
		(input)
		(text "IR" (rect 0 0 10 14)(font "Arial" (font_size 8)))
		(text "IR" (rect 21 59 31 73)(font "Arial" (font_size 8)))
		(line (pt 0 64)(pt 16 64))
	)
	(port
		(pt 0 80)
		(input)
		(text "SHR" (rect 0 0 24 14)(font "Arial" (font_size 8)))
		(text "SHR" (rect 21 75 45 89)(font "Arial" (font_size 8)))
		(line (pt 0 80)(pt 16 80))
	)
	(port
		(pt 0 96)
		(input)
		(text "IL" (rect 0 0 9 14)(font "Arial" (font_size 8)))
		(text "IL" (rect 21 91 30 105)(font "Arial" (font_size 8)))
		(line (pt 0 96)(pt 16 96))
	)
	(port
		(pt 0 112)
		(input)
		(text "SHL" (rect 0 0 23 14)(font "Arial" (font_size 8)))
		(text "SHL" (rect 21 107 44 121)(font "Arial" (font_size 8)))
		(line (pt 0 112)(pt 16 112))
	)
	(port
		(pt 0 128)
		(input)
		(text "CLK" (rect 0 0 23 14)(font "Arial" (font_size 8)))
		(text "CLK" (rect 21 123 44 137)(font "Arial" (font_size 8)))
		(line (pt 0 128)(pt 16 128))
	)
	(port
		(pt 128 32)
		(output)
		(text "OUTPUT" (rect 0 0 47 14)(font "Arial" (font_size 8)))
		(text "OUTPUT" (rect 60 27 107 41)(font "Arial" (font_size 8)))
		(line (pt 128 32)(pt 112 32))
	)
	(drawing
		(rectangle (rect 16 16 112 144))
	)
)
(symbol
	(rect 160 1800 288 1960)
	(text "REG_LD_SL_SR" (rect 5 0 98 14)(font "Arial" (font_size 8)))
	(text "inst25" (rect 8 144 37 156)(font "Arial" ))
	(port
		(pt 0 32)
		(input)
		(text "I" (rect 0 0 2 14)(font "Arial" (font_size 8)))
		(text "I" (rect 21 27 23 41)(font "Arial" (font_size 8)))
		(line (pt 0 32)(pt 16 32))
	)
	(port
		(pt 0 48)
		(input)
		(text "LD" (rect 0 0 15 14)(font "Arial" (font_size 8)))
		(text "LD" (rect 21 43 36 57)(font "Arial" (font_size 8)))
		(line (pt 0 48)(pt 16 48))
	)
	(port
		(pt 0 64)
		(input)
		(text "IR" (rect 0 0 10 14)(font "Arial" (font_size 8)))
		(text "IR" (rect 21 59 31 73)(font "Arial" (font_size 8)))
		(line (pt 0 64)(pt 16 64))
	)
	(port
		(pt 0 80)
		(input)
		(text "SHR" (rect 0 0 24 14)(font "Arial" (font_size 8)))
		(text "SHR" (rect 21 75 45 89)(font "Arial" (font_size 8)))
		(line (pt 0 80)(pt 16 80))
	)
	(port
		(pt 0 96)
		(input)
		(text "IL" (rect 0 0 9 14)(font "Arial" (font_size 8)))
		(text "IL" (rect 21 91 30 105)(font "Arial" (font_size 8)))
		(line (pt 0 96)(pt 16 96))
	)
	(port
		(pt 0 112)
		(input)
		(text "SHL" (rect 0 0 23 14)(font "Arial" (font_size 8)))
		(text "SHL" (rect 21 107 44 121)(font "Arial" (font_size 8)))
		(line (pt 0 112)(pt 16 112))
	)
	(port
		(pt 0 128)
		(input)
		(text "CLK" (rect 0 0 23 14)(font "Arial" (font_size 8)))
		(text "CLK" (rect 21 123 44 137)(font "Arial" (font_size 8)))
		(line (pt 0 128)(pt 16 128))
	)
	(port
		(pt 128 32)
		(output)
		(text "OUTPUT" (rect 0 0 47 14)(font "Arial" (font_size 8)))
		(text "OUTPUT" (rect 60 27 107 41)(font "Arial" (font_size 8)))
		(line (pt 128 32)(pt 112 32))
	)
	(drawing
		(rectangle (rect 16 16 112 144))
	)
)
(symbol
	(rect 160 2136 288 2296)
	(text "REG_LD_SL_SR" (rect 5 0 98 14)(font "Arial" (font_size 8)))
	(text "inst26" (rect 8 144 37 156)(font "Arial" ))
	(port
		(pt 0 32)
		(input)
		(text "I" (rect 0 0 2 14)(font "Arial" (font_size 8)))
		(text "I" (rect 21 27 23 41)(font "Arial" (font_size 8)))
		(line (pt 0 32)(pt 16 32))
	)
	(port
		(pt 0 48)
		(input)
		(text "LD" (rect 0 0 15 14)(font "Arial" (font_size 8)))
		(text "LD" (rect 21 43 36 57)(font "Arial" (font_size 8)))
		(line (pt 0 48)(pt 16 48))
	)
	(port
		(pt 0 64)
		(input)
		(text "IR" (rect 0 0 10 14)(font "Arial" (font_size 8)))
		(text "IR" (rect 21 59 31 73)(font "Arial" (font_size 8)))
		(line (pt 0 64)(pt 16 64))
	)
	(port
		(pt 0 80)
		(input)
		(text "SHR" (rect 0 0 24 14)(font "Arial" (font_size 8)))
		(text "SHR" (rect 21 75 45 89)(font "Arial" (font_size 8)))
		(line (pt 0 80)(pt 16 80))
	)
	(port
		(pt 0 96)
		(input)
		(text "IL" (rect 0 0 9 14)(font "Arial" (font_size 8)))
		(text "IL" (rect 21 91 30 105)(font "Arial" (font_size 8)))
		(line (pt 0 96)(pt 16 96))
	)
	(port
		(pt 0 112)
		(input)
		(text "SHL" (rect 0 0 23 14)(font "Arial" (font_size 8)))
		(text "SHL" (rect 21 107 44 121)(font "Arial" (font_size 8)))
		(line (pt 0 112)(pt 16 112))
	)
	(port
		(pt 0 128)
		(input)
		(text "CLK" (rect 0 0 23 14)(font "Arial" (font_size 8)))
		(text "CLK" (rect 21 123 44 137)(font "Arial" (font_size 8)))
		(line (pt 0 128)(pt 16 128))
	)
	(port
		(pt 128 32)
		(output)
		(text "OUTPUT" (rect 0 0 47 14)(font "Arial" (font_size 8)))
		(text "OUTPUT" (rect 60 27 107 41)(font "Arial" (font_size 8)))
		(line (pt 128 32)(pt 112 32))
	)
	(drawing
		(rectangle (rect 16 16 112 144))
	)
)
(symbol
	(rect 160 2304 288 2464)
	(text "REG_LD_SL_SR" (rect 5 0 98 14)(font "Arial" (font_size 8)))
	(text "inst27" (rect 8 144 37 156)(font "Arial" ))
	(port
		(pt 0 32)
		(input)
		(text "I" (rect 0 0 2 14)(font "Arial" (font_size 8)))
		(text "I" (rect 21 27 23 41)(font "Arial" (font_size 8)))
		(line (pt 0 32)(pt 16 32))
	)
	(port
		(pt 0 48)
		(input)
		(text "LD" (rect 0 0 15 14)(font "Arial" (font_size 8)))
		(text "LD" (rect 21 43 36 57)(font "Arial" (font_size 8)))
		(line (pt 0 48)(pt 16 48))
	)
	(port
		(pt 0 64)
		(input)
		(text "IR" (rect 0 0 10 14)(font "Arial" (font_size 8)))
		(text "IR" (rect 21 59 31 73)(font "Arial" (font_size 8)))
		(line (pt 0 64)(pt 16 64))
	)
	(port
		(pt 0 80)
		(input)
		(text "SHR" (rect 0 0 24 14)(font "Arial" (font_size 8)))
		(text "SHR" (rect 21 75 45 89)(font "Arial" (font_size 8)))
		(line (pt 0 80)(pt 16 80))
	)
	(port
		(pt 0 96)
		(input)
		(text "IL" (rect 0 0 9 14)(font "Arial" (font_size 8)))
		(text "IL" (rect 21 91 30 105)(font "Arial" (font_size 8)))
		(line (pt 0 96)(pt 16 96))
	)
	(port
		(pt 0 112)
		(input)
		(text "SHL" (rect 0 0 23 14)(font "Arial" (font_size 8)))
		(text "SHL" (rect 21 107 44 121)(font "Arial" (font_size 8)))
		(line (pt 0 112)(pt 16 112))
	)
	(port
		(pt 0 128)
		(input)
		(text "CLK" (rect 0 0 23 14)(font "Arial" (font_size 8)))
		(text "CLK" (rect 21 123 44 137)(font "Arial" (font_size 8)))
		(line (pt 0 128)(pt 16 128))
	)
	(port
		(pt 128 32)
		(output)
		(text "OUTPUT" (rect 0 0 47 14)(font "Arial" (font_size 8)))
		(text "OUTPUT" (rect 60 27 107 41)(font "Arial" (font_size 8)))
		(line (pt 128 32)(pt 112 32))
	)
	(drawing
		(rectangle (rect 16 16 112 144))
	)
)
(symbol
	(rect 160 2472 288 2632)
	(text "REG_LD_SL_SR" (rect 5 0 98 14)(font "Arial" (font_size 8)))
	(text "inst28" (rect 8 144 37 156)(font "Arial" ))
	(port
		(pt 0 32)
		(input)
		(text "I" (rect 0 0 2 14)(font "Arial" (font_size 8)))
		(text "I" (rect 21 27 23 41)(font "Arial" (font_size 8)))
		(line (pt 0 32)(pt 16 32))
	)
	(port
		(pt 0 48)
		(input)
		(text "LD" (rect 0 0 15 14)(font "Arial" (font_size 8)))
		(text "LD" (rect 21 43 36 57)(font "Arial" (font_size 8)))
		(line (pt 0 48)(pt 16 48))
	)
	(port
		(pt 0 64)
		(input)
		(text "IR" (rect 0 0 10 14)(font "Arial" (font_size 8)))
		(text "IR" (rect 21 59 31 73)(font "Arial" (font_size 8)))
		(line (pt 0 64)(pt 16 64))
	)
	(port
		(pt 0 80)
		(input)
		(text "SHR" (rect 0 0 24 14)(font "Arial" (font_size 8)))
		(text "SHR" (rect 21 75 45 89)(font "Arial" (font_size 8)))
		(line (pt 0 80)(pt 16 80))
	)
	(port
		(pt 0 96)
		(input)
		(text "IL" (rect 0 0 9 14)(font "Arial" (font_size 8)))
		(text "IL" (rect 21 91 30 105)(font "Arial" (font_size 8)))
		(line (pt 0 96)(pt 16 96))
	)
	(port
		(pt 0 112)
		(input)
		(text "SHL" (rect 0 0 23 14)(font "Arial" (font_size 8)))
		(text "SHL" (rect 21 107 44 121)(font "Arial" (font_size 8)))
		(line (pt 0 112)(pt 16 112))
	)
	(port
		(pt 0 128)
		(input)
		(text "CLK" (rect 0 0 23 14)(font "Arial" (font_size 8)))
		(text "CLK" (rect 21 123 44 137)(font "Arial" (font_size 8)))
		(line (pt 0 128)(pt 16 128))
	)
	(port
		(pt 128 32)
		(output)
		(text "OUTPUT" (rect 0 0 47 14)(font "Arial" (font_size 8)))
		(text "OUTPUT" (rect 60 27 107 41)(font "Arial" (font_size 8)))
		(line (pt 128 32)(pt 112 32))
	)
	(drawing
		(rectangle (rect 16 16 112 144))
	)
)
(symbol
	(rect 160 2640 288 2800)
	(text "REG_LD_SL_SR" (rect 5 0 98 14)(font "Arial" (font_size 8)))
	(text "inst29" (rect 8 144 37 156)(font "Arial" ))
	(port
		(pt 0 32)
		(input)
		(text "I" (rect 0 0 2 14)(font "Arial" (font_size 8)))
		(text "I" (rect 21 27 23 41)(font "Arial" (font_size 8)))
		(line (pt 0 32)(pt 16 32))
	)
	(port
		(pt 0 48)
		(input)
		(text "LD" (rect 0 0 15 14)(font "Arial" (font_size 8)))
		(text "LD" (rect 21 43 36 57)(font "Arial" (font_size 8)))
		(line (pt 0 48)(pt 16 48))
	)
	(port
		(pt 0 64)
		(input)
		(text "IR" (rect 0 0 10 14)(font "Arial" (font_size 8)))
		(text "IR" (rect 21 59 31 73)(font "Arial" (font_size 8)))
		(line (pt 0 64)(pt 16 64))
	)
	(port
		(pt 0 80)
		(input)
		(text "SHR" (rect 0 0 24 14)(font "Arial" (font_size 8)))
		(text "SHR" (rect 21 75 45 89)(font "Arial" (font_size 8)))
		(line (pt 0 80)(pt 16 80))
	)
	(port
		(pt 0 96)
		(input)
		(text "IL" (rect 0 0 9 14)(font "Arial" (font_size 8)))
		(text "IL" (rect 21 91 30 105)(font "Arial" (font_size 8)))
		(line (pt 0 96)(pt 16 96))
	)
	(port
		(pt 0 112)
		(input)
		(text "SHL" (rect 0 0 23 14)(font "Arial" (font_size 8)))
		(text "SHL" (rect 21 107 44 121)(font "Arial" (font_size 8)))
		(line (pt 0 112)(pt 16 112))
	)
	(port
		(pt 0 128)
		(input)
		(text "CLK" (rect 0 0 23 14)(font "Arial" (font_size 8)))
		(text "CLK" (rect 21 123 44 137)(font "Arial" (font_size 8)))
		(line (pt 0 128)(pt 16 128))
	)
	(port
		(pt 128 32)
		(output)
		(text "OUTPUT" (rect 0 0 47 14)(font "Arial" (font_size 8)))
		(text "OUTPUT" (rect 60 27 107 41)(font "Arial" (font_size 8)))
		(line (pt 128 32)(pt 112 32))
	)
	(drawing
		(rectangle (rect 16 16 112 144))
	)
)
(symbol
	(rect 160 120 288 280)
	(text "REG_LD_SL_SR" (rect 5 0 98 14)(font "Arial" (font_size 8)))
	(text "inst57" (rect 8 144 37 156)(font "Arial" ))
	(port
		(pt 0 32)
		(input)
		(text "I" (rect 0 0 2 14)(font "Arial" (font_size 8)))
		(text "I" (rect 21 27 23 41)(font "Arial" (font_size 8)))
		(line (pt 0 32)(pt 16 32))
	)
	(port
		(pt 0 48)
		(input)
		(text "LD" (rect 0 0 15 14)(font "Arial" (font_size 8)))
		(text "LD" (rect 21 43 36 57)(font "Arial" (font_size 8)))
		(line (pt 0 48)(pt 16 48))
	)
	(port
		(pt 0 64)
		(input)
		(text "IR" (rect 0 0 10 14)(font "Arial" (font_size 8)))
		(text "IR" (rect 21 59 31 73)(font "Arial" (font_size 8)))
		(line (pt 0 64)(pt 16 64))
	)
	(port
		(pt 0 80)
		(input)
		(text "SHR" (rect 0 0 24 14)(font "Arial" (font_size 8)))
		(text "SHR" (rect 21 75 45 89)(font "Arial" (font_size 8)))
		(line (pt 0 80)(pt 16 80))
	)
	(port
		(pt 0 96)
		(input)
		(text "IL" (rect 0 0 9 14)(font "Arial" (font_size 8)))
		(text "IL" (rect 21 91 30 105)(font "Arial" (font_size 8)))
		(line (pt 0 96)(pt 16 96))
	)
	(port
		(pt 0 112)
		(input)
		(text "SHL" (rect 0 0 23 14)(font "Arial" (font_size 8)))
		(text "SHL" (rect 21 107 44 121)(font "Arial" (font_size 8)))
		(line (pt 0 112)(pt 16 112))
	)
	(port
		(pt 0 128)
		(input)
		(text "CLK" (rect 0 0 23 14)(font "Arial" (font_size 8)))
		(text "CLK" (rect 21 123 44 137)(font "Arial" (font_size 8)))
		(line (pt 0 128)(pt 16 128))
	)
	(port
		(pt 128 32)
		(output)
		(text "OUTPUT" (rect 0 0 47 14)(font "Arial" (font_size 8)))
		(text "OUTPUT" (rect 60 27 107 41)(font "Arial" (font_size 8)))
		(line (pt 128 32)(pt 112 32))
	)
	(drawing
		(rectangle (rect 16 16 112 144))
	)
)
(symbol
	(rect 160 1968 288 2128)
	(text "REG_LD_SL_SR" (rect 5 0 98 14)(font "Arial" (font_size 8)))
	(text "inst58" (rect 8 144 37 156)(font "Arial" ))
	(port
		(pt 0 32)
		(input)
		(text "I" (rect 0 0 2 14)(font "Arial" (font_size 8)))
		(text "I" (rect 21 27 23 41)(font "Arial" (font_size 8)))
		(line (pt 0 32)(pt 16 32))
	)
	(port
		(pt 0 48)
		(input)
		(text "LD" (rect 0 0 15 14)(font "Arial" (font_size 8)))
		(text "LD" (rect 21 43 36 57)(font "Arial" (font_size 8)))
		(line (pt 0 48)(pt 16 48))
	)
	(port
		(pt 0 64)
		(input)
		(text "IR" (rect 0 0 10 14)(font "Arial" (font_size 8)))
		(text "IR" (rect 21 59 31 73)(font "Arial" (font_size 8)))
		(line (pt 0 64)(pt 16 64))
	)
	(port
		(pt 0 80)
		(input)
		(text "SHR" (rect 0 0 24 14)(font "Arial" (font_size 8)))
		(text "SHR" (rect 21 75 45 89)(font "Arial" (font_size 8)))
		(line (pt 0 80)(pt 16 80))
	)
	(port
		(pt 0 96)
		(input)
		(text "IL" (rect 0 0 9 14)(font "Arial" (font_size 8)))
		(text "IL" (rect 21 91 30 105)(font "Arial" (font_size 8)))
		(line (pt 0 96)(pt 16 96))
	)
	(port
		(pt 0 112)
		(input)
		(text "SHL" (rect 0 0 23 14)(font "Arial" (font_size 8)))
		(text "SHL" (rect 21 107 44 121)(font "Arial" (font_size 8)))
		(line (pt 0 112)(pt 16 112))
	)
	(port
		(pt 0 128)
		(input)
		(text "CLK" (rect 0 0 23 14)(font "Arial" (font_size 8)))
		(text "CLK" (rect 21 123 44 137)(font "Arial" (font_size 8)))
		(line (pt 0 128)(pt 16 128))
	)
	(port
		(pt 128 32)
		(output)
		(text "OUTPUT" (rect 0 0 47 14)(font "Arial" (font_size 8)))
		(text "OUTPUT" (rect 60 27 107 41)(font "Arial" (font_size 8)))
		(line (pt 128 32)(pt 112 32))
	)
	(drawing
		(rectangle (rect 16 16 112 144))
	)
)
(connector
	(text "LD" (rect 104 152 118 164)(font "Arial" ))
	(pt 160 168)
	(pt 96 168)
)
(connector
	(text "OUTPUT1" (rect 104 168 153 180)(font "Arial" ))
	(pt 160 184)
	(pt 96 184)
)
(connector
	(text "SHR" (rect 104 184 127 196)(font "Arial" ))
	(pt 160 200)
	(pt 96 200)
)
(connector
	(text "LD" (rect 104 320 118 332)(font "Arial" ))
	(pt 160 336)
	(pt 96 336)
)
(connector
	(text "SHR" (rect 104 352 127 364)(font "Arial" ))
	(pt 160 368)
	(pt 96 368)
)
(connector
	(text "OUTPUT0" (rect 104 368 153 380)(font "Arial" ))
	(pt 160 384)
	(pt 96 384)
)
(connector
	(text "SHL" (rect 104 384 125 396)(font "Arial" ))
	(pt 160 400)
	(pt 96 400)
)
(connector
	(text "CLK" (rect 104 400 125 412)(font "Arial" ))
	(pt 160 416)
	(pt 96 416)
)
(connector
	(text "SHR" (rect 104 520 127 532)(font "Arial" ))
	(pt 160 536)
	(pt 96 536)
)
(connector
	(text "SHL" (rect 104 552 125 564)(font "Arial" ))
	(pt 160 568)
	(pt 96 568)
)
(connector
	(text "CLK" (rect 104 568 125 580)(font "Arial" ))
	(pt 160 584)
	(pt 96 584)
)
(connector
	(text "LD" (rect 104 656 118 668)(font "Arial" ))
	(pt 160 672)
	(pt 96 672)
)
(connector
	(text "SHR" (rect 104 688 127 700)(font "Arial" ))
	(pt 160 704)
	(pt 96 704)
)
(connector
	(text "SHL" (rect 104 720 125 732)(font "Arial" ))
	(pt 160 736)
	(pt 96 736)
)
(connector
	(text "CLK" (rect 104 736 125 748)(font "Arial" ))
	(pt 160 752)
	(pt 96 752)
)
(connector
	(text "LD" (rect 104 824 118 836)(font "Arial" ))
	(pt 160 840)
	(pt 96 840)
)
(connector
	(text "SHR" (rect 104 856 127 868)(font "Arial" ))
	(pt 160 872)
	(pt 96 872)
)
(connector
	(text "SHL" (rect 104 888 125 900)(font "Arial" ))
	(pt 160 904)
	(pt 96 904)
)
(connector
	(text "CLK" (rect 104 904 125 916)(font "Arial" ))
	(pt 160 920)
	(pt 96 920)
)
(connector
	(text "LD" (rect 104 992 118 1004)(font "Arial" ))
	(pt 160 1008)
	(pt 96 1008)
)
(connector
	(text "SHR" (rect 104 1024 127 1036)(font "Arial" ))
	(pt 160 1040)
	(pt 96 1040)
)
(connector
	(text "SHL" (rect 104 1056 125 1068)(font "Arial" ))
	(pt 160 1072)
	(pt 96 1072)
)
(connector
	(text "CLK" (rect 104 1072 125 1084)(font "Arial" ))
	(pt 160 1088)
	(pt 96 1088)
)
(connector
	(text "LD" (rect 104 1160 118 1172)(font "Arial" ))
	(pt 160 1176)
	(pt 96 1176)
)
(connector
	(text "SHR" (rect 104 1192 127 1204)(font "Arial" ))
	(pt 160 1208)
	(pt 96 1208)
)
(connector
	(text "SHL" (rect 104 1224 125 1236)(font "Arial" ))
	(pt 160 1240)
	(pt 96 1240)
)
(connector
	(text "CLK" (rect 104 1240 125 1252)(font "Arial" ))
	(pt 160 1256)
	(pt 96 1256)
)
(connector
	(text "LD" (rect 104 1328 118 1340)(font "Arial" ))
	(pt 160 1344)
	(pt 96 1344)
)
(connector
	(text "SHR" (rect 104 1360 127 1372)(font "Arial" ))
	(pt 160 1376)
	(pt 96 1376)
)
(connector
	(text "SHL" (rect 104 1392 125 1404)(font "Arial" ))
	(pt 160 1408)
	(pt 96 1408)
)
(connector
	(text "CLK" (rect 104 1408 125 1420)(font "Arial" ))
	(pt 160 1424)
	(pt 96 1424)
)
(connector
	(text "LD" (rect 104 1496 118 1508)(font "Arial" ))
	(pt 160 1512)
	(pt 96 1512)
)
(connector
	(text "SHR" (rect 104 1528 127 1540)(font "Arial" ))
	(pt 160 1544)
	(pt 96 1544)
)
(connector
	(text "SHL" (rect 104 1560 125 1572)(font "Arial" ))
	(pt 160 1576)
	(pt 96 1576)
)
(connector
	(text "CLK" (rect 104 1576 125 1588)(font "Arial" ))
	(pt 160 1592)
	(pt 96 1592)
)
(connector
	(text "LD" (rect 104 1664 118 1676)(font "Arial" ))
	(pt 160 1680)
	(pt 96 1680)
)
(connector
	(text "SHR" (rect 104 1696 127 1708)(font "Arial" ))
	(pt 160 1712)
	(pt 96 1712)
)
(connector
	(text "SHL" (rect 104 1728 125 1740)(font "Arial" ))
	(pt 160 1744)
	(pt 96 1744)
)
(connector
	(text "CLK" (rect 104 1744 125 1756)(font "Arial" ))
	(pt 160 1760)
	(pt 96 1760)
)
(connector
	(text "LD" (rect 104 1832 118 1844)(font "Arial" ))
	(pt 160 1848)
	(pt 96 1848)
)
(connector
	(text "SHR" (rect 104 1864 127 1876)(font "Arial" ))
	(pt 160 1880)
	(pt 96 1880)
)
(connector
	(text "SHL" (rect 104 1896 125 1908)(font "Arial" ))
	(pt 160 1912)
	(pt 96 1912)
)
(connector
	(text "CLK" (rect 104 1912 125 1924)(font "Arial" ))
	(pt 160 1928)
	(pt 96 1928)
)
(connector
	(text "LD" (rect 104 2000 118 2012)(font "Arial" ))
	(pt 160 2016)
	(pt 96 2016)
)
(connector
	(text "SHR" (rect 104 2032 127 2044)(font "Arial" ))
	(pt 160 2048)
	(pt 96 2048)
)
(connector
	(text "SHL" (rect 104 2064 125 2076)(font "Arial" ))
	(pt 160 2080)
	(pt 96 2080)
)
(connector
	(text "CLK" (rect 104 2080 125 2092)(font "Arial" ))
	(pt 160 2096)
	(pt 96 2096)
)
(connector
	(text "LD" (rect 104 2168 118 2180)(font "Arial" ))
	(pt 160 2184)
	(pt 96 2184)
)
(connector
	(text "SHR" (rect 104 2200 127 2212)(font "Arial" ))
	(pt 160 2216)
	(pt 96 2216)
)
(connector
	(text "SHL" (rect 104 2232 125 2244)(font "Arial" ))
	(pt 160 2248)
	(pt 96 2248)
)
(connector
	(text "CLK" (rect 104 2248 125 2260)(font "Arial" ))
	(pt 160 2264)
	(pt 96 2264)
)
(connector
	(text "LD" (rect 104 2336 118 2348)(font "Arial" ))
	(pt 160 2352)
	(pt 96 2352)
)
(connector
	(text "SHR" (rect 104 2368 127 2380)(font "Arial" ))
	(pt 160 2384)
	(pt 96 2384)
)
(connector
	(text "SHL" (rect 104 2400 125 2412)(font "Arial" ))
	(pt 160 2416)
	(pt 96 2416)
)
(connector
	(text "CLK" (rect 104 2416 125 2428)(font "Arial" ))
	(pt 160 2432)
	(pt 96 2432)
)
(connector
	(text "LD" (rect 104 2504 118 2516)(font "Arial" ))
	(pt 160 2520)
	(pt 96 2520)
)
(connector
	(text "SHR" (rect 104 2536 127 2548)(font "Arial" ))
	(pt 160 2552)
	(pt 96 2552)
)
(connector
	(text "SHL" (rect 104 2568 125 2580)(font "Arial" ))
	(pt 160 2584)
	(pt 96 2584)
)
(connector
	(text "CLK" (rect 104 2584 125 2596)(font "Arial" ))
	(pt 160 2600)
	(pt 96 2600)
)
(connector
	(text "LD" (rect 104 2672 118 2684)(font "Arial" ))
	(pt 160 2688)
	(pt 96 2688)
)
(connector
	(pt 152 232)
	(pt 152 240)
)
(connector
	(pt 160 232)
	(pt 152 232)
)
(connector
	(text "SHL" (rect 104 224 125 236)(font "Arial" ))
	(pt 152 240)
	(pt 96 240)
)
(connector
	(pt 160 248)
	(pt 152 248)
)
(connector
	(pt 152 248)
	(pt 152 264)
)
(connector
	(text "CLK" (rect 104 248 125 260)(font "Arial" ))
	(pt 152 264)
	(pt 96 264)
)
(connector
	(text "OUTPUT2" (rect 104 336 153 348)(font "Arial" ))
	(pt 160 352)
	(pt 96 352)
)
(connector
	(text "OUTPUT1" (rect 104 536 153 548)(font "Arial" ))
	(pt 160 552)
	(pt 96 552)
)
(connector
	(text "OUTPUT3" (rect 104 504 153 516)(font "Arial" ))
	(pt 160 520)
	(pt 96 520)
)
(connector
	(text "OUTPUT4" (rect 104 672 153 684)(font "Arial" ))
	(pt 160 688)
	(pt 96 688)
)
(connector
	(text "OUTPUT2" (rect 104 704 153 716)(font "Arial" ))
	(pt 160 720)
	(pt 96 720)
)
(connector
	(text "OUTPUT5" (rect 104 840 153 852)(font "Arial" ))
	(pt 160 856)
	(pt 96 856)
)
(connector
	(text "OUTPUT3" (rect 104 872 153 884)(font "Arial" ))
	(pt 160 888)
	(pt 96 888)
)
(connector
	(text "OUTPUT6" (rect 104 1008 153 1020)(font "Arial" ))
	(pt 160 1024)
	(pt 96 1024)
)
(connector
	(text "OUTPUT4" (rect 104 1040 153 1052)(font "Arial" ))
	(pt 160 1056)
	(pt 96 1056)
)
(connector
	(text "OUTPUT7" (rect 104 1176 153 1188)(font "Arial" ))
	(pt 160 1192)
	(pt 96 1192)
)
(connector
	(text "OUTPUT5" (rect 104 1208 153 1220)(font "Arial" ))
	(pt 160 1224)
	(pt 96 1224)
)
(connector
	(text "OUTPUT8" (rect 104 1344 153 1356)(font "Arial" ))
	(pt 160 1360)
	(pt 96 1360)
)
(connector
	(text "OUTPUT6" (rect 104 1376 153 1388)(font "Arial" ))
	(pt 160 1392)
	(pt 96 1392)
)
(connector
	(text "OUTPUT9" (rect 104 1512 153 1524)(font "Arial" ))
	(pt 160 1528)
	(pt 96 1528)
)
(connector
	(text "OUTPUT7" (rect 104 1544 153 1556)(font "Arial" ))
	(pt 160 1560)
	(pt 96 1560)
)
(connector
	(text "OUTPUT10" (rect 104 1680 159 1692)(font "Arial" ))
	(pt 160 1696)
	(pt 96 1696)
)
(connector
	(text "OUTPUT8" (rect 104 1712 153 1724)(font "Arial" ))
	(pt 160 1728)
	(pt 96 1728)
)
(connector
	(text "OUTPUT11" (rect 104 1848 159 1860)(font "Arial" ))
	(pt 160 1864)
	(pt 96 1864)
)
(connector
	(text "OUTPUT9" (rect 104 1880 153 1892)(font "Arial" ))
	(pt 160 1896)
	(pt 96 1896)
)
(connector
	(text "OUTPUT12" (rect 104 2016 159 2028)(font "Arial" ))
	(pt 160 2032)
	(pt 96 2032)
)
(connector
	(text "OUTPUT10" (rect 104 2048 159 2060)(font "Arial" ))
	(pt 160 2064)
	(pt 96 2064)
)
(connector
	(text "OUTPUT13" (rect 104 2184 159 2196)(font "Arial" ))
	(pt 160 2200)
	(pt 96 2200)
)
(connector
	(text "OUTPUT11" (rect 104 2216 159 2228)(font "Arial" ))
	(pt 160 2232)
	(pt 96 2232)
)
(connector
	(text "OUTPUT14" (rect 104 2352 159 2364)(font "Arial" ))
	(pt 160 2368)
	(pt 96 2368)
)
(connector
	(text "OUTPUT12" (rect 104 2384 159 2396)(font "Arial" ))
	(pt 160 2400)
	(pt 96 2400)
)
(connector
	(text "OUTPUT15" (rect 104 2520 159 2532)(font "Arial" ))
	(pt 160 2536)
	(pt 96 2536)
)
(connector
	(text "OUTPUT13" (rect 104 2552 159 2564)(font "Arial" ))
	(pt 160 2568)
	(pt 96 2568)
)
(connector
	(pt 152 2736)
	(pt 152 2744)
)
(connector
	(pt 160 2736)
	(pt 152 2736)
)
(connector
	(text "OUTPUT14" (rect 96 2728 151 2740)(font "Arial" ))
	(pt 152 2744)
	(pt 88 2744)
)
(connector
	(pt 144 2752)
	(pt 144 2760)
)
(connector
	(pt 160 2752)
	(pt 144 2752)
)
(connector
	(text "SHL" (rect 96 2744 117 2756)(font "Arial" ))
	(pt 144 2760)
	(pt 88 2760)
)
(connector
	(pt 136 2768)
	(pt 136 2776)
)
(connector
	(pt 160 2768)
	(pt 136 2768)
)
(connector
	(text "CLK" (rect 96 2760 117 2772)(font "Arial" ))
	(pt 136 2776)
	(pt 88 2776)
)
(connector
	(pt 152 2720)
	(pt 152 2728)
)
(connector
	(pt 160 2720)
	(pt 152 2720)
)
(connector
	(text "SHR" (rect 96 2712 119 2724)(font "Arial" ))
	(pt 152 2728)
	(pt 88 2728)
)
(connector
	(text "IL" (rect 104 200 113 212)(font "Arial" ))
	(pt 160 216)
	(pt 96 216)
)
(connector
	(text "IR" (rect 104 2688 115 2700)(font "Arial" ))
	(pt 160 2704)
	(pt 96 2704)
)
(connector
	(text "I0" (rect 137 136 146 148)(font "Arial" ))
	(pt 160 152)
	(pt 104 152)
)
(connector
	(text "I1" (rect 132 304 141 316)(font "Arial" ))
	(pt 160 320)
	(pt 96 320)
)
(connector
	(text "LD" (rect 104 488 118 500)(font "Arial" ))
	(pt 160 504)
	(pt 96 504)
)
(connector
	(text "I2" (rect 112 472 121 484)(font "Arial" ))
	(pt 96 488)
	(pt 160 488)
)
(connector
	(text "I3" (rect 126 640 135 652)(font "Arial" ))
	(pt 160 656)
	(pt 96 656)
)
(connector
	(text "I4" (rect 123 808 132 820)(font "Arial" ))
	(pt 96 824)
	(pt 160 824)
)
(connector
	(text "I5" (rect 124 976 133 988)(font "Arial" ))
	(pt 160 992)
	(pt 96 992)
)
(connector
	(text "I6" (rect 130 1144 139 1156)(font "Arial" ))
	(pt 160 1160)
	(pt 96 1160)
)
(connector
	(text "I7" (rect 126 1312 135 1324)(font "Arial" ))
	(pt 160 1328)
	(pt 96 1328)
)
(connector
	(text "I8" (rect 127 1480 136 1492)(font "Arial" ))
	(pt 160 1496)
	(pt 96 1496)
)
(connector
	(text "I9" (rect 112 1648 121 1660)(font "Arial" ))
	(pt 160 1664)
	(pt 96 1664)
)
(connector
	(text "I10" (rect 124 1816 139 1828)(font "Arial" ))
	(pt 160 1832)
	(pt 96 1832)
)
(connector
	(text "I11" (rect 131 1984 146 1996)(font "Arial" ))
	(pt 160 2000)
	(pt 96 2000)
)
(connector
	(text "I12" (rect 124 2152 139 2164)(font "Arial" ))
	(pt 160 2168)
	(pt 96 2168)
)
(connector
	(text "I13" (rect 124 2320 139 2332)(font "Arial" ))
	(pt 160 2336)
	(pt 96 2336)
)
(connector
	(text "I14" (rect 117 2488 132 2500)(font "Arial" ))
	(pt 160 2504)
	(pt 96 2504)
)
(connector
	(text "I15" (rect 104 2656 119 2668)(font "Arial" ))
	(pt 160 2672)
	(pt 96 2672)
)
(connector
	(text "OUTPUT0" (rect 305 136 354 148)(font "Arial" ))
	(pt 288 152)
	(pt 320 152)
)
(connector
	(text "OUTPUT1" (rect 296 304 345 316)(font "Arial" ))
	(pt 288 320)
	(pt 320 320)
)
(connector
	(text "OUTPUT2" (rect 309 472 358 484)(font "Arial" ))
	(pt 288 488)
	(pt 320 488)
)
(connector
	(text "OUTPUT3" (rect 307 640 356 652)(font "Arial" ))
	(pt 288 656)
	(pt 320 656)
)
(connector
	(text "OUTPUT4" (rect 309 808 358 820)(font "Arial" ))
	(pt 288 824)
	(pt 320 824)
)
(connector
	(text "OUTPUT5" (rect 311 976 360 988)(font "Arial" ))
	(pt 288 992)
	(pt 320 992)
)
(connector
	(text "OUTPUT6" (rect 306 1144 355 1156)(font "Arial" ))
	(pt 288 1160)
	(pt 320 1160)
)
(connector
	(text "OUTPUT7" (rect 310 1312 359 1324)(font "Arial" ))
	(pt 288 1328)
	(pt 320 1328)
)
(connector
	(text "OUTPUT8" (rect 309 1480 358 1492)(font "Arial" ))
	(pt 288 1496)
	(pt 320 1496)
)
(connector
	(text "OUTPUT9" (rect 308 1648 357 1660)(font "Arial" ))
	(pt 288 1664)
	(pt 320 1664)
)
(connector
	(text "OUTPUT10" (rect 311 1816 366 1828)(font "Arial" ))
	(pt 288 1832)
	(pt 320 1832)
)
(connector
	(text "OUTPUT11" (rect 296 1984 351 1996)(font "Arial" ))
	(pt 288 2000)
	(pt 320 2000)
)
(connector
	(text "OUTPUT12" (rect 309 2152 364 2164)(font "Arial" ))
	(pt 288 2168)
	(pt 320 2168)
)
(connector
	(text "OUTPUT13" (rect 315 2320 370 2332)(font "Arial" ))
	(pt 288 2336)
	(pt 320 2336)
)
(connector
	(text "OUTPUT14" (rect 307 2488 362 2500)(font "Arial" ))
	(pt 288 2504)
	(pt 320 2504)
)
(connector
	(text "OUTPUT15" (rect 306 2656 361 2668)(font "Arial" ))
	(pt 288 2672)
	(pt 320 2672)
)
(connector
	(text "I[15..0]" (rect 104 2824 139 2836)(font "Arial" ))
	(pt 96 2840)
	(pt 136 2840)
	(bus)
)
(text "I6" (rect 162 1144 171 1156)(font "Arial" ))
