/*
WARNING: Do NOT edit the input and output ports in this file in a text
editor if you plan to continue editing the block that represents it in
the Block Editor! File corruption is VERY likely to occur.
*/
/*
Copyright (C) 1991-2013 Altera Corporation
Your use of Altera Corporation's design tools, logic functions 
and other software and tools, and its AMPP partner logic 
functions, and any output files from any of the foregoing 
(including device programming or simulation files), and any 
associated documentation or information are expressly subject 
to the terms and conditions of the Altera Program License 
Subscription Agreement, Altera MegaCore Function License 
Agreement, or other applicable license agreement, including, 
without limitation, that your use is for the sole purpose of 
programming logic devices manufactured by Altera and sold by 
Altera or its authorized distributors.  Please refer to the 
applicable agreement for further details.
*/
(header "graphic" (version "1.4"))
(pin
	(input)
	(rect -480 -104 -304 -88)
	(text "INPUT" (rect 133 0 161 10)(font "Arial" (font_size 6)))
	(text "regdir" (rect 9 0 36 12)(font "Arial" ))
	(pt 176 8)
	(drawing
		(line (pt 92 12)(pt 117 12))
		(line (pt 92 4)(pt 117 4))
		(line (pt 121 8)(pt 176 8))
		(line (pt 92 12)(pt 92 4))
		(line (pt 117 4)(pt 121 8))
		(line (pt 117 12)(pt 121 8))
	)
	(text "VCC" (rect 136 7 156 17)(font "Arial" (font_size 6)))
)
(pin
	(input)
	(rect -480 -88 -304 -72)
	(text "INPUT" (rect 133 0 161 10)(font "Arial" (font_size 6)))
	(text "regind" (rect 9 0 38 12)(font "Arial" ))
	(pt 176 8)
	(drawing
		(line (pt 92 12)(pt 117 12))
		(line (pt 92 4)(pt 117 4))
		(line (pt 121 8)(pt 176 8))
		(line (pt 92 12)(pt 92 4))
		(line (pt 117 4)(pt 121 8))
		(line (pt 117 12)(pt 121 8))
	)
	(text "VCC" (rect 136 7 156 17)(font "Arial" (font_size 6)))
)
(pin
	(input)
	(rect -480 -72 -304 -56)
	(text "INPUT" (rect 133 0 161 10)(font "Arial" (font_size 6)))
	(text "memdir" (rect 9 0 45 12)(font "Arial" ))
	(pt 176 8)
	(drawing
		(line (pt 92 12)(pt 117 12))
		(line (pt 92 4)(pt 117 4))
		(line (pt 121 8)(pt 176 8))
		(line (pt 92 12)(pt 92 4))
		(line (pt 117 4)(pt 121 8))
		(line (pt 117 12)(pt 121 8))
	)
	(text "VCC" (rect 136 7 156 17)(font "Arial" (font_size 6)))
)
(pin
	(input)
	(rect -480 -56 -304 -40)
	(text "INPUT" (rect 133 0 161 10)(font "Arial" (font_size 6)))
	(text "memind" (rect 9 0 47 12)(font "Arial" ))
	(pt 176 8)
	(drawing
		(line (pt 92 12)(pt 117 12))
		(line (pt 92 4)(pt 117 4))
		(line (pt 121 8)(pt 176 8))
		(line (pt 92 12)(pt 92 4))
		(line (pt 117 4)(pt 121 8))
		(line (pt 117 12)(pt 121 8))
	)
	(text "VCC" (rect 136 7 156 17)(font "Arial" (font_size 6)))
)
(pin
	(input)
	(rect -480 -40 -304 -24)
	(text "INPUT" (rect 133 0 161 10)(font "Arial" (font_size 6)))
	(text "immed" (rect 9 0 42 12)(font "Arial" ))
	(pt 176 8)
	(drawing
		(line (pt 92 12)(pt 117 12))
		(line (pt 92 4)(pt 117 4))
		(line (pt 121 8)(pt 176 8))
		(line (pt 92 12)(pt 92 4))
		(line (pt 117 4)(pt 121 8))
		(line (pt 117 12)(pt 121 8))
	)
	(text "VCC" (rect 136 7 156 17)(font "Arial" (font_size 6)))
)
(pin
	(input)
	(rect -408 40 -232 56)
	(text "INPUT" (rect 133 0 161 10)(font "Arial" (font_size 6)))
	(text "LD" (rect 9 0 23 12)(font "Arial" ))
	(pt 176 8)
	(drawing
		(line (pt 92 12)(pt 117 12))
		(line (pt 92 4)(pt 117 4))
		(line (pt 121 8)(pt 176 8))
		(line (pt 92 12)(pt 92 4))
		(line (pt 117 4)(pt 121 8))
		(line (pt 117 12)(pt 121 8))
	)
	(text "VCC" (rect 136 7 156 17)(font "Arial" (font_size 6)))
)
(pin
	(input)
	(rect -408 56 -232 72)
	(text "INPUT" (rect 133 0 161 10)(font "Arial" (font_size 6)))
	(text "ST" (rect 9 0 21 12)(font "Arial" ))
	(pt 176 8)
	(drawing
		(line (pt 92 12)(pt 117 12))
		(line (pt 92 4)(pt 117 4))
		(line (pt 121 8)(pt 176 8))
		(line (pt 92 12)(pt 92 4))
		(line (pt 117 4)(pt 121 8))
		(line (pt 117 12)(pt 121 8))
	)
	(text "VCC" (rect 136 7 156 17)(font "Arial" (font_size 6)))
)
(pin
	(input)
	(rect -408 72 -232 88)
	(text "INPUT" (rect 133 0 161 10)(font "Arial" (font_size 6)))
	(text "ADD" (rect 9 0 32 12)(font "Arial" ))
	(pt 176 8)
	(drawing
		(line (pt 92 12)(pt 117 12))
		(line (pt 92 4)(pt 117 4))
		(line (pt 121 8)(pt 176 8))
		(line (pt 92 12)(pt 92 4))
		(line (pt 117 4)(pt 121 8))
		(line (pt 117 12)(pt 121 8))
	)
	(text "VCC" (rect 136 7 156 17)(font "Arial" (font_size 6)))
)
(pin
	(input)
	(rect -408 88 -232 104)
	(text "INPUT" (rect 133 0 161 10)(font "Arial" (font_size 6)))
	(text "SUB" (rect 9 0 31 12)(font "Arial" ))
	(pt 176 8)
	(drawing
		(line (pt 92 12)(pt 117 12))
		(line (pt 92 4)(pt 117 4))
		(line (pt 121 8)(pt 176 8))
		(line (pt 92 12)(pt 92 4))
		(line (pt 117 4)(pt 121 8))
		(line (pt 117 12)(pt 121 8))
	)
	(text "VCC" (rect 136 7 156 17)(font "Arial" (font_size 6)))
)
(pin
	(input)
	(rect -408 104 -232 120)
	(text "INPUT" (rect 133 0 161 10)(font "Arial" (font_size 6)))
	(text "AND" (rect 9 0 32 12)(font "Arial" ))
	(pt 176 8)
	(drawing
		(line (pt 92 12)(pt 117 12))
		(line (pt 92 4)(pt 117 4))
		(line (pt 121 8)(pt 176 8))
		(line (pt 92 12)(pt 92 4))
		(line (pt 117 4)(pt 121 8))
		(line (pt 117 12)(pt 121 8))
	)
	(text "VCC" (rect 136 7 156 17)(font "Arial" (font_size 6)))
)
(pin
	(input)
	(rect -408 120 -232 136)
	(text "INPUT" (rect 133 0 161 10)(font "Arial" (font_size 6)))
	(text "OR" (rect 9 0 25 12)(font "Arial" ))
	(pt 176 8)
	(drawing
		(line (pt 92 12)(pt 117 12))
		(line (pt 92 4)(pt 117 4))
		(line (pt 121 8)(pt 176 8))
		(line (pt 92 12)(pt 92 4))
		(line (pt 117 4)(pt 121 8))
		(line (pt 117 12)(pt 121 8))
	)
	(text "VCC" (rect 136 7 156 17)(font "Arial" (font_size 6)))
)
(pin
	(input)
	(rect -408 136 -232 152)
	(text "INPUT" (rect 133 0 161 10)(font "Arial" (font_size 6)))
	(text "XOR" (rect 9 0 31 12)(font "Arial" ))
	(pt 176 8)
	(drawing
		(line (pt 92 12)(pt 117 12))
		(line (pt 92 4)(pt 117 4))
		(line (pt 121 8)(pt 176 8))
		(line (pt 92 12)(pt 92 4))
		(line (pt 117 4)(pt 121 8))
		(line (pt 117 12)(pt 121 8))
	)
	(text "VCC" (rect 136 7 156 17)(font "Arial" (font_size 6)))
)
(pin
	(input)
	(rect -408 152 -232 168)
	(text "INPUT" (rect 133 0 161 10)(font "Arial" (font_size 6)))
	(text "NOT" (rect 9 0 31 12)(font "Arial" ))
	(pt 176 8)
	(drawing
		(line (pt 92 12)(pt 117 12))
		(line (pt 92 4)(pt 117 4))
		(line (pt 121 8)(pt 176 8))
		(line (pt 92 12)(pt 92 4))
		(line (pt 117 4)(pt 121 8))
		(line (pt 117 12)(pt 121 8))
	)
	(text "VCC" (rect 136 7 156 17)(font "Arial" (font_size 6)))
)
(pin
	(input)
	(rect -408 168 -232 184)
	(text "INPUT" (rect 133 0 161 10)(font "Arial" (font_size 6)))
	(text "PUSH" (rect 9 0 39 12)(font "Arial" ))
	(pt 176 8)
	(drawing
		(line (pt 92 12)(pt 117 12))
		(line (pt 92 4)(pt 117 4))
		(line (pt 121 8)(pt 176 8))
		(line (pt 92 12)(pt 92 4))
		(line (pt 117 4)(pt 121 8))
		(line (pt 117 12)(pt 121 8))
	)
	(text "VCC" (rect 136 7 156 17)(font "Arial" (font_size 6)))
)
(pin
	(input)
	(rect -408 184 -232 200)
	(text "INPUT" (rect 133 0 161 10)(font "Arial" (font_size 6)))
	(text "POP" (rect 9 0 31 12)(font "Arial" ))
	(pt 176 8)
	(drawing
		(line (pt 92 12)(pt 117 12))
		(line (pt 92 4)(pt 117 4))
		(line (pt 121 8)(pt 176 8))
		(line (pt 92 12)(pt 92 4))
		(line (pt 117 4)(pt 121 8))
		(line (pt 117 12)(pt 121 8))
	)
	(text "VCC" (rect 136 7 156 17)(font "Arial" (font_size 6)))
)
(pin
	(input)
	(rect -408 200 -232 216)
	(text "INPUT" (rect 133 0 161 10)(font "Arial" (font_size 6)))
	(text "INC" (rect 9 0 29 12)(font "Arial" ))
	(pt 176 8)
	(drawing
		(line (pt 92 12)(pt 117 12))
		(line (pt 92 4)(pt 117 4))
		(line (pt 121 8)(pt 176 8))
		(line (pt 92 12)(pt 92 4))
		(line (pt 117 4)(pt 121 8))
		(line (pt 117 12)(pt 121 8))
	)
	(text "VCC" (rect 136 7 156 17)(font "Arial" (font_size 6)))
)
(pin
	(input)
	(rect -408 216 -232 232)
	(text "INPUT" (rect 133 0 161 10)(font "Arial" (font_size 6)))
	(text "DEC" (rect 9 0 32 12)(font "Arial" ))
	(pt 176 8)
	(drawing
		(line (pt 92 12)(pt 117 12))
		(line (pt 92 4)(pt 117 4))
		(line (pt 121 8)(pt 176 8))
		(line (pt 92 12)(pt 92 4))
		(line (pt 117 4)(pt 121 8))
		(line (pt 117 12)(pt 121 8))
	)
	(text "VCC" (rect 136 7 156 17)(font "Arial" (font_size 6)))
)
(pin
	(input)
	(rect -616 384 -440 400)
	(text "INPUT" (rect 133 0 161 10)(font "Arial" (font_size 6)))
	(text "RTI" (rect 9 0 26 12)(font "Arial" ))
	(pt 176 8)
	(drawing
		(line (pt 92 12)(pt 117 12))
		(line (pt 92 4)(pt 117 4))
		(line (pt 121 8)(pt 176 8))
		(line (pt 92 12)(pt 92 4))
		(line (pt 117 4)(pt 121 8))
		(line (pt 117 12)(pt 121 8))
	)
	(text "VCC" (rect 136 7 156 17)(font "Arial" (font_size 6)))
)
(pin
	(input)
	(rect -616 408 -440 424)
	(text "INPUT" (rect 133 0 161 10)(font "Arial" (font_size 6)))
	(text "RTS" (rect 9 0 30 12)(font "Arial" ))
	(pt 176 8)
	(drawing
		(line (pt 92 12)(pt 117 12))
		(line (pt 92 4)(pt 117 4))
		(line (pt 121 8)(pt 176 8))
		(line (pt 92 12)(pt 92 4))
		(line (pt 117 4)(pt 121 8))
		(line (pt 117 12)(pt 121 8))
	)
	(text "VCC" (rect 136 7 156 17)(font "Arial" (font_size 6)))
)
(pin
	(input)
	(rect -408 264 -232 280)
	(text "INPUT" (rect 133 0 161 10)(font "Arial" (font_size 6)))
	(text "ASR" (rect 9 0 31 12)(font "Arial" ))
	(pt 176 8)
	(drawing
		(line (pt 92 12)(pt 117 12))
		(line (pt 92 4)(pt 117 4))
		(line (pt 121 8)(pt 176 8))
		(line (pt 92 12)(pt 92 4))
		(line (pt 117 4)(pt 121 8))
		(line (pt 117 12)(pt 121 8))
	)
	(text "VCC" (rect 136 7 156 17)(font "Arial" (font_size 6)))
)
(pin
	(input)
	(rect -408 280 -232 296)
	(text "INPUT" (rect 133 0 161 10)(font "Arial" (font_size 6)))
	(text "LSR" (rect 9 0 30 12)(font "Arial" ))
	(pt 176 8)
	(drawing
		(line (pt 92 12)(pt 117 12))
		(line (pt 92 4)(pt 117 4))
		(line (pt 121 8)(pt 176 8))
		(line (pt 92 12)(pt 92 4))
		(line (pt 117 4)(pt 121 8))
		(line (pt 117 12)(pt 121 8))
	)
	(text "VCC" (rect 136 7 156 17)(font "Arial" (font_size 6)))
)
(pin
	(input)
	(rect -408 296 -232 312)
	(text "INPUT" (rect 133 0 161 10)(font "Arial" (font_size 6)))
	(text "ROR" (rect 9 0 33 12)(font "Arial" ))
	(pt 176 8)
	(drawing
		(line (pt 92 12)(pt 117 12))
		(line (pt 92 4)(pt 117 4))
		(line (pt 121 8)(pt 176 8))
		(line (pt 92 12)(pt 92 4))
		(line (pt 117 4)(pt 121 8))
		(line (pt 117 12)(pt 121 8))
	)
	(text "VCC" (rect 136 7 156 17)(font "Arial" (font_size 6)))
)
(pin
	(input)
	(rect -408 312 -232 328)
	(text "INPUT" (rect 133 0 161 10)(font "Arial" (font_size 6)))
	(text "RORC" (rect 9 0 42 12)(font "Arial" ))
	(pt 176 8)
	(drawing
		(line (pt 92 12)(pt 117 12))
		(line (pt 92 4)(pt 117 4))
		(line (pt 121 8)(pt 176 8))
		(line (pt 92 12)(pt 92 4))
		(line (pt 117 4)(pt 121 8))
		(line (pt 117 12)(pt 121 8))
	)
	(text "VCC" (rect 136 7 156 17)(font "Arial" (font_size 6)))
)
(pin
	(input)
	(rect -408 328 -232 344)
	(text "INPUT" (rect 133 0 161 10)(font "Arial" (font_size 6)))
	(text "ASL" (rect 9 0 29 12)(font "Arial" ))
	(pt 176 8)
	(drawing
		(line (pt 92 12)(pt 117 12))
		(line (pt 92 4)(pt 117 4))
		(line (pt 121 8)(pt 176 8))
		(line (pt 92 12)(pt 92 4))
		(line (pt 117 4)(pt 121 8))
		(line (pt 117 12)(pt 121 8))
	)
	(text "VCC" (rect 136 7 156 17)(font "Arial" (font_size 6)))
)
(pin
	(input)
	(rect -408 344 -232 360)
	(text "INPUT" (rect 133 0 161 10)(font "Arial" (font_size 6)))
	(text "LSL" (rect 9 0 27 12)(font "Arial" ))
	(pt 176 8)
	(drawing
		(line (pt 92 12)(pt 117 12))
		(line (pt 92 4)(pt 117 4))
		(line (pt 121 8)(pt 176 8))
		(line (pt 92 12)(pt 92 4))
		(line (pt 117 4)(pt 121 8))
		(line (pt 117 12)(pt 121 8))
	)
	(text "VCC" (rect 136 7 156 17)(font "Arial" (font_size 6)))
)
(pin
	(input)
	(rect -408 360 -232 376)
	(text "INPUT" (rect 133 0 161 10)(font "Arial" (font_size 6)))
	(text "ROL" (rect 9 0 31 12)(font "Arial" ))
	(pt 176 8)
	(drawing
		(line (pt 92 12)(pt 117 12))
		(line (pt 92 4)(pt 117 4))
		(line (pt 121 8)(pt 176 8))
		(line (pt 92 12)(pt 92 4))
		(line (pt 117 4)(pt 121 8))
		(line (pt 117 12)(pt 121 8))
	)
	(text "VCC" (rect 136 7 156 17)(font "Arial" (font_size 6)))
)
(pin
	(input)
	(rect -408 376 -232 392)
	(text "INPUT" (rect 133 0 161 10)(font "Arial" (font_size 6)))
	(text "ROLC" (rect 9 0 39 12)(font "Arial" ))
	(pt 176 8)
	(drawing
		(line (pt 92 12)(pt 117 12))
		(line (pt 92 4)(pt 117 4))
		(line (pt 121 8)(pt 176 8))
		(line (pt 92 12)(pt 92 4))
		(line (pt 117 4)(pt 121 8))
		(line (pt 117 12)(pt 121 8))
	)
	(text "VCC" (rect 136 7 156 17)(font "Arial" (font_size 6)))
)
(pin
	(input)
	(rect -616 432 -440 448)
	(text "INPUT" (rect 133 0 161 10)(font "Arial" (font_size 6)))
	(text "INTE" (rect 9 0 33 12)(font "Arial" ))
	(pt 176 8)
	(drawing
		(line (pt 92 12)(pt 117 12))
		(line (pt 92 4)(pt 117 4))
		(line (pt 121 8)(pt 176 8))
		(line (pt 92 12)(pt 92 4))
		(line (pt 117 4)(pt 121 8))
		(line (pt 117 12)(pt 121 8))
	)
	(text "VCC" (rect 136 7 156 17)(font "Arial" (font_size 6)))
)
(pin
	(input)
	(rect -616 448 -440 464)
	(text "INPUT" (rect 133 0 161 10)(font "Arial" (font_size 6)))
	(text "INTD" (rect 9 0 34 12)(font "Arial" ))
	(pt 176 8)
	(drawing
		(line (pt 92 12)(pt 117 12))
		(line (pt 92 4)(pt 117 4))
		(line (pt 121 8)(pt 176 8))
		(line (pt 92 12)(pt 92 4))
		(line (pt 117 4)(pt 121 8))
		(line (pt 117 12)(pt 121 8))
	)
	(text "VCC" (rect 136 7 156 17)(font "Arial" (font_size 6)))
)
(pin
	(input)
	(rect -616 496 -440 512)
	(text "INPUT" (rect 133 0 161 10)(font "Arial" (font_size 6)))
	(text "HALT" (rect 9 0 36 12)(font "Arial" ))
	(pt 176 8)
	(drawing
		(line (pt 92 12)(pt 117 12))
		(line (pt 92 4)(pt 117 4))
		(line (pt 121 8)(pt 176 8))
		(line (pt 92 12)(pt 92 4))
		(line (pt 117 4)(pt 121 8))
		(line (pt 117 12)(pt 121 8))
	)
	(text "VCC" (rect 136 7 156 17)(font "Arial" (font_size 6)))
)
(pin
	(input)
	(rect -616 472 -440 488)
	(text "INPUT" (rect 133 0 161 10)(font "Arial" (font_size 6)))
	(text "INT" (rect 9 0 26 12)(font "Arial" ))
	(pt 176 8)
	(drawing
		(line (pt 92 12)(pt 117 12))
		(line (pt 92 4)(pt 117 4))
		(line (pt 121 8)(pt 176 8))
		(line (pt 92 12)(pt 92 4))
		(line (pt 117 4)(pt 121 8))
		(line (pt 117 12)(pt 121 8))
	)
	(text "VCC" (rect 136 7 156 17)(font "Arial" (font_size 6)))
)
(pin
	(input)
	(rect -616 520 -440 536)
	(text "INPUT" (rect 133 0 161 10)(font "Arial" (font_size 6)))
	(text "BEQL" (rect 9 0 37 12)(font "Arial" ))
	(pt 176 8)
	(drawing
		(line (pt 92 12)(pt 117 12))
		(line (pt 92 4)(pt 117 4))
		(line (pt 121 8)(pt 176 8))
		(line (pt 92 12)(pt 92 4))
		(line (pt 117 4)(pt 121 8))
		(line (pt 117 12)(pt 121 8))
	)
	(text "VCC" (rect 136 7 156 17)(font "Arial" (font_size 6)))
)
(pin
	(input)
	(rect -616 536 -440 552)
	(text "INPUT" (rect 133 0 161 10)(font "Arial" (font_size 6)))
	(text "BNEQL" (rect 9 0 45 12)(font "Arial" ))
	(pt 176 8)
	(drawing
		(line (pt 92 12)(pt 117 12))
		(line (pt 92 4)(pt 117 4))
		(line (pt 121 8)(pt 176 8))
		(line (pt 92 12)(pt 92 4))
		(line (pt 117 4)(pt 121 8))
		(line (pt 117 12)(pt 121 8))
	)
	(text "VCC" (rect 136 7 156 17)(font "Arial" (font_size 6)))
)
(pin
	(input)
	(rect -616 552 -440 568)
	(text "INPUT" (rect 133 0 161 10)(font "Arial" (font_size 6)))
	(text "BNEG" (rect 9 0 39 12)(font "Arial" ))
	(pt 176 8)
	(drawing
		(line (pt 92 12)(pt 117 12))
		(line (pt 92 4)(pt 117 4))
		(line (pt 121 8)(pt 176 8))
		(line (pt 92 12)(pt 92 4))
		(line (pt 117 4)(pt 121 8))
		(line (pt 117 12)(pt 121 8))
	)
	(text "VCC" (rect 136 7 156 17)(font "Arial" (font_size 6)))
)
(pin
	(input)
	(rect -616 568 -440 584)
	(text "INPUT" (rect 133 0 161 10)(font "Arial" (font_size 6)))
	(text "BNNEG" (rect 9 0 47 12)(font "Arial" ))
	(pt 176 8)
	(drawing
		(line (pt 92 12)(pt 117 12))
		(line (pt 92 4)(pt 117 4))
		(line (pt 121 8)(pt 176 8))
		(line (pt 92 12)(pt 92 4))
		(line (pt 117 4)(pt 121 8))
		(line (pt 117 12)(pt 121 8))
	)
	(text "VCC" (rect 136 7 156 17)(font "Arial" (font_size 6)))
)
(pin
	(input)
	(rect -616 584 -440 600)
	(text "INPUT" (rect 133 0 161 10)(font "Arial" (font_size 6)))
	(text "BOVF" (rect 9 0 38 12)(font "Arial" ))
	(pt 176 8)
	(drawing
		(line (pt 92 12)(pt 117 12))
		(line (pt 92 4)(pt 117 4))
		(line (pt 121 8)(pt 176 8))
		(line (pt 92 12)(pt 92 4))
		(line (pt 117 4)(pt 121 8))
		(line (pt 117 12)(pt 121 8))
	)
	(text "VCC" (rect 136 7 156 17)(font "Arial" (font_size 6)))
)
(pin
	(input)
	(rect -616 600 -440 616)
	(text "INPUT" (rect 133 0 161 10)(font "Arial" (font_size 6)))
	(text "BNOVF" (rect 9 0 46 12)(font "Arial" ))
	(pt 176 8)
	(drawing
		(line (pt 92 12)(pt 117 12))
		(line (pt 92 4)(pt 117 4))
		(line (pt 121 8)(pt 176 8))
		(line (pt 92 12)(pt 92 4))
		(line (pt 117 4)(pt 121 8))
		(line (pt 117 12)(pt 121 8))
	)
	(text "VCC" (rect 136 7 156 17)(font "Arial" (font_size 6)))
)
(pin
	(input)
	(rect -616 616 -440 632)
	(text "INPUT" (rect 133 0 161 10)(font "Arial" (font_size 6)))
	(text "BCAR" (rect 9 0 39 12)(font "Arial" ))
	(pt 176 8)
	(drawing
		(line (pt 92 12)(pt 117 12))
		(line (pt 92 4)(pt 117 4))
		(line (pt 121 8)(pt 176 8))
		(line (pt 92 12)(pt 92 4))
		(line (pt 117 4)(pt 121 8))
		(line (pt 117 12)(pt 121 8))
	)
	(text "VCC" (rect 136 7 156 17)(font "Arial" (font_size 6)))
)
(pin
	(input)
	(rect -616 632 -440 648)
	(text "INPUT" (rect 133 0 161 10)(font "Arial" (font_size 6)))
	(text "BNCAR" (rect 9 0 47 12)(font "Arial" ))
	(pt 176 8)
	(drawing
		(line (pt 92 12)(pt 117 12))
		(line (pt 92 4)(pt 117 4))
		(line (pt 121 8)(pt 176 8))
		(line (pt 92 12)(pt 92 4))
		(line (pt 117 4)(pt 121 8))
		(line (pt 117 12)(pt 121 8))
	)
	(text "VCC" (rect 136 7 156 17)(font "Arial" (font_size 6)))
)
(pin
	(input)
	(rect -616 648 -440 664)
	(text "INPUT" (rect 133 0 161 10)(font "Arial" (font_size 6)))
	(text "BGRT" (rect 9 0 38 12)(font "Arial" ))
	(pt 176 8)
	(drawing
		(line (pt 92 12)(pt 117 12))
		(line (pt 92 4)(pt 117 4))
		(line (pt 121 8)(pt 176 8))
		(line (pt 92 12)(pt 92 4))
		(line (pt 117 4)(pt 121 8))
		(line (pt 117 12)(pt 121 8))
	)
	(text "VCC" (rect 136 7 156 17)(font "Arial" (font_size 6)))
)
(pin
	(input)
	(rect -616 664 -440 680)
	(text "INPUT" (rect 133 0 161 10)(font "Arial" (font_size 6)))
	(text "BGRTE" (rect 9 0 45 12)(font "Arial" ))
	(pt 176 8)
	(drawing
		(line (pt 92 12)(pt 117 12))
		(line (pt 92 4)(pt 117 4))
		(line (pt 121 8)(pt 176 8))
		(line (pt 92 12)(pt 92 4))
		(line (pt 117 4)(pt 121 8))
		(line (pt 117 12)(pt 121 8))
	)
	(text "VCC" (rect 136 7 156 17)(font "Arial" (font_size 6)))
)
(pin
	(input)
	(rect -616 680 -440 696)
	(text "INPUT" (rect 133 0 161 10)(font "Arial" (font_size 6)))
	(text "BLSS" (rect 9 0 36 12)(font "Arial" ))
	(pt 176 8)
	(drawing
		(line (pt 92 12)(pt 117 12))
		(line (pt 92 4)(pt 117 4))
		(line (pt 121 8)(pt 176 8))
		(line (pt 92 12)(pt 92 4))
		(line (pt 117 4)(pt 121 8))
		(line (pt 117 12)(pt 121 8))
	)
	(text "VCC" (rect 136 7 156 17)(font "Arial" (font_size 6)))
)
(pin
	(input)
	(rect -616 696 -440 712)
	(text "INPUT" (rect 133 0 161 10)(font "Arial" (font_size 6)))
	(text "BLSSE" (rect 9 0 43 12)(font "Arial" ))
	(pt 176 8)
	(drawing
		(line (pt 92 12)(pt 117 12))
		(line (pt 92 4)(pt 117 4))
		(line (pt 121 8)(pt 176 8))
		(line (pt 92 12)(pt 92 4))
		(line (pt 117 4)(pt 121 8))
		(line (pt 117 12)(pt 121 8))
	)
	(text "VCC" (rect 136 7 156 17)(font "Arial" (font_size 6)))
)
(pin
	(input)
	(rect -616 712 -440 728)
	(text "INPUT" (rect 133 0 161 10)(font "Arial" (font_size 6)))
	(text "BGRTU" (rect 9 0 46 12)(font "Arial" ))
	(pt 176 8)
	(drawing
		(line (pt 92 12)(pt 117 12))
		(line (pt 92 4)(pt 117 4))
		(line (pt 121 8)(pt 176 8))
		(line (pt 92 12)(pt 92 4))
		(line (pt 117 4)(pt 121 8))
		(line (pt 117 12)(pt 121 8))
	)
	(text "VCC" (rect 136 7 156 17)(font "Arial" (font_size 6)))
)
(pin
	(input)
	(rect -616 728 -440 744)
	(text "INPUT" (rect 133 0 161 10)(font "Arial" (font_size 6)))
	(text "BGRTEU" (rect 9 0 53 12)(font "Arial" ))
	(pt 176 8)
	(drawing
		(line (pt 92 12)(pt 117 12))
		(line (pt 92 4)(pt 117 4))
		(line (pt 121 8)(pt 176 8))
		(line (pt 92 12)(pt 92 4))
		(line (pt 117 4)(pt 121 8))
		(line (pt 117 12)(pt 121 8))
	)
	(text "VCC" (rect 136 7 156 17)(font "Arial" (font_size 6)))
)
(pin
	(input)
	(rect -616 744 -440 760)
	(text "INPUT" (rect 133 0 161 10)(font "Arial" (font_size 6)))
	(text "BLSSU" (rect 9 0 44 12)(font "Arial" ))
	(pt 176 8)
	(drawing
		(line (pt 92 12)(pt 117 12))
		(line (pt 92 4)(pt 117 4))
		(line (pt 121 8)(pt 176 8))
		(line (pt 92 12)(pt 92 4))
		(line (pt 117 4)(pt 121 8))
		(line (pt 117 12)(pt 121 8))
	)
	(text "VCC" (rect 136 7 156 17)(font "Arial" (font_size 6)))
)
(pin
	(input)
	(rect -616 760 -440 776)
	(text "INPUT" (rect 133 0 161 10)(font "Arial" (font_size 6)))
	(text "BLSSEU" (rect 9 0 51 12)(font "Arial" ))
	(pt 176 8)
	(drawing
		(line (pt 92 12)(pt 117 12))
		(line (pt 92 4)(pt 117 4))
		(line (pt 121 8)(pt 176 8))
		(line (pt 92 12)(pt 92 4))
		(line (pt 117 4)(pt 121 8))
		(line (pt 117 12)(pt 121 8))
	)
	(text "VCC" (rect 136 7 156 17)(font "Arial" (font_size 6)))
)
(pin
	(input)
	(rect -616 776 -440 792)
	(text "INPUT" (rect 133 0 161 10)(font "Arial" (font_size 6)))
	(text "JSR" (rect 9 0 30 12)(font "Arial" ))
	(pt 176 8)
	(drawing
		(line (pt 92 12)(pt 117 12))
		(line (pt 92 4)(pt 117 4))
		(line (pt 121 8)(pt 176 8))
		(line (pt 92 12)(pt 92 4))
		(line (pt 117 4)(pt 121 8))
		(line (pt 117 12)(pt 121 8))
	)
	(text "VCC" (rect 136 7 156 17)(font "Arial" (font_size 6)))
)
(pin
	(input)
	(rect -616 792 -440 808)
	(text "INPUT" (rect 133 0 161 10)(font "Arial" (font_size 6)))
	(text "JMP" (rect 9 0 30 12)(font "Arial" ))
	(pt 176 8)
	(drawing
		(line (pt 92 12)(pt 117 12))
		(line (pt 92 4)(pt 117 4))
		(line (pt 121 8)(pt 176 8))
		(line (pt 92 12)(pt 92 4))
		(line (pt 117 4)(pt 121 8))
		(line (pt 117 12)(pt 121 8))
	)
	(text "VCC" (rect 136 7 156 17)(font "Arial" (font_size 6)))
)
(pin
	(input)
	(rect -360 -400 -184 -384)
	(text "INPUT" (rect 133 0 161 10)(font "Arial" (font_size 6)))
	(text "START" (rect 9 0 43 12)(font "Arial" ))
	(pt 176 8)
	(drawing
		(line (pt 92 12)(pt 117 12))
		(line (pt 92 4)(pt 117 4))
		(line (pt 121 8)(pt 176 8))
		(line (pt 92 12)(pt 92 4))
		(line (pt 117 4)(pt 121 8))
		(line (pt 117 12)(pt 121 8))
	)
	(text "VCC" (rect 136 7 156 17)(font "Arial" (font_size 6)))
)
(pin
	(input)
	(rect -360 -384 -184 -368)
	(text "INPUT" (rect 133 0 161 10)(font "Arial" (font_size 6)))
	(text "gropr" (rect 9 0 33 12)(font "Arial" ))
	(pt 176 8)
	(drawing
		(line (pt 92 12)(pt 117 12))
		(line (pt 92 4)(pt 117 4))
		(line (pt 121 8)(pt 176 8))
		(line (pt 92 12)(pt 92 4))
		(line (pt 117 4)(pt 121 8))
		(line (pt 117 12)(pt 121 8))
	)
	(text "VCC" (rect 136 7 156 17)(font "Arial" (font_size 6)))
)
(pin
	(input)
	(rect -360 -368 -184 -352)
	(text "INPUT" (rect 133 0 161 10)(font "Arial" (font_size 6)))
	(text "gradr" (rect 9 0 33 12)(font "Arial" ))
	(pt 176 8)
	(drawing
		(line (pt 92 12)(pt 117 12))
		(line (pt 92 4)(pt 117 4))
		(line (pt 121 8)(pt 176 8))
		(line (pt 92 12)(pt 92 4))
		(line (pt 117 4)(pt 121 8))
		(line (pt 117 12)(pt 121 8))
	)
	(text "VCC" (rect 136 7 156 17)(font "Arial" (font_size 6)))
)
(pin
	(input)
	(rect -360 -352 -184 -336)
	(text "INPUT" (rect 133 0 161 10)(font "Arial" (font_size 6)))
	(text "l1" (rect 9 0 17 12)(font "Arial" ))
	(pt 176 8)
	(drawing
		(line (pt 92 12)(pt 117 12))
		(line (pt 92 4)(pt 117 4))
		(line (pt 121 8)(pt 176 8))
		(line (pt 92 12)(pt 92 4))
		(line (pt 117 4)(pt 121 8))
		(line (pt 117 12)(pt 121 8))
	)
	(text "VCC" (rect 136 7 156 17)(font "Arial" (font_size 6)))
)
(pin
	(input)
	(rect -360 -336 -184 -320)
	(text "INPUT" (rect 133 0 161 10)(font "Arial" (font_size 6)))
	(text "l2_int" (rect 9 0 34 12)(font "Arial" ))
	(pt 176 8)
	(drawing
		(line (pt 92 12)(pt 117 12))
		(line (pt 92 4)(pt 117 4))
		(line (pt 121 8)(pt 176 8))
		(line (pt 92 12)(pt 92 4))
		(line (pt 117 4)(pt 121 8))
		(line (pt 117 12)(pt 121 8))
	)
	(text "VCC" (rect 136 7 156 17)(font "Arial" (font_size 6)))
)
(pin
	(input)
	(rect -360 -320 -184 -304)
	(text "INPUT" (rect 133 0 161 10)(font "Arial" (font_size 6)))
	(text "l2_arlog" (rect 9 0 46 12)(font "Arial" ))
	(pt 176 8)
	(drawing
		(line (pt 92 12)(pt 117 12))
		(line (pt 92 4)(pt 117 4))
		(line (pt 121 8)(pt 176 8))
		(line (pt 92 12)(pt 92 4))
		(line (pt 117 4)(pt 121 8))
		(line (pt 117 12)(pt 121 8))
	)
	(text "VCC" (rect 136 7 156 17)(font "Arial" (font_size 6)))
)
(pin
	(input)
	(rect -360 -304 -184 -288)
	(text "INPUT" (rect 133 0 161 10)(font "Arial" (font_size 6)))
	(text "l3_jmp" (rect 9 0 40 12)(font "Arial" ))
	(pt 176 8)
	(drawing
		(line (pt 92 12)(pt 117 12))
		(line (pt 92 4)(pt 117 4))
		(line (pt 121 8)(pt 176 8))
		(line (pt 92 12)(pt 92 4))
		(line (pt 117 4)(pt 121 8))
		(line (pt 117 12)(pt 121 8))
	)
	(text "VCC" (rect 136 7 156 17)(font "Arial" (font_size 6)))
)
(pin
	(input)
	(rect -360 -288 -184 -272)
	(text "INPUT" (rect 133 0 161 10)(font "Arial" (font_size 6)))
	(text "l3_brnch" (rect 9 0 50 12)(font "Arial" ))
	(pt 176 8)
	(drawing
		(line (pt 92 12)(pt 117 12))
		(line (pt 92 4)(pt 117 4))
		(line (pt 121 8)(pt 176 8))
		(line (pt 92 12)(pt 92 4))
		(line (pt 117 4)(pt 121 8))
		(line (pt 117 12)(pt 121 8))
	)
	(text "VCC" (rect 136 7 156 17)(font "Arial" (font_size 6)))
)
(pin
	(input)
	(rect -368 -544 -192 -528)
	(text "INPUT" (rect 133 0 161 10)(font "Arial" (font_size 6)))
	(text "clk" (rect 9 0 23 12)(font "Arial" ))
	(pt 176 8)
	(drawing
		(line (pt 92 12)(pt 117 12))
		(line (pt 92 4)(pt 117 4))
		(line (pt 121 8)(pt 176 8))
		(line (pt 92 12)(pt 92 4))
		(line (pt 117 4)(pt 121 8))
		(line (pt 117 12)(pt 121 8))
	)
	(text "VCC" (rect 136 7 156 17)(font "Arial" (font_size 6)))
	(annotation_block (location)(rect -424 -592 -368 -576))
)
(pin
	(input)
	(rect 1104 856 1280 872)
	(text "INPUT" (rect 133 0 161 10)(font "Arial" (font_size 6)))
	(text "brpom" (rect 9 0 39 12)(font "Arial" ))
	(pt 176 8)
	(drawing
		(line (pt 92 12)(pt 117 12))
		(line (pt 92 4)(pt 117 4))
		(line (pt 121 8)(pt 176 8))
		(line (pt 92 12)(pt 92 4))
		(line (pt 117 4)(pt 121 8))
		(line (pt 117 12)(pt 121 8))
	)
	(text "VCC" (rect 136 7 156 17)(font "Arial" (font_size 6)))
)
(pin
	(input)
	(rect 1104 872 1280 888)
	(text "INPUT" (rect 133 0 161 10)(font "Arial" (font_size 6)))
	(text "prekid" (rect 9 0 38 12)(font "Arial" ))
	(pt 176 8)
	(drawing
		(line (pt 92 12)(pt 117 12))
		(line (pt 92 4)(pt 117 4))
		(line (pt 121 8)(pt 176 8))
		(line (pt 92 12)(pt 92 4))
		(line (pt 117 4)(pt 121 8))
		(line (pt 117 12)(pt 121 8))
	)
	(text "VCC" (rect 136 7 156 17)(font "Arial" (font_size 6)))
)
(pin
	(input)
	(rect 1104 888 1280 904)
	(text "INPUT" (rect 133 0 161 10)(font "Arial" (font_size 6)))
	(text "PRINS" (rect 9 0 43 12)(font "Arial" ))
	(pt 176 8)
	(drawing
		(line (pt 92 12)(pt 117 12))
		(line (pt 92 4)(pt 117 4))
		(line (pt 121 8)(pt 176 8))
		(line (pt 92 12)(pt 92 4))
		(line (pt 117 4)(pt 121 8))
		(line (pt 117 12)(pt 121 8))
	)
	(text "VCC" (rect 136 7 156 17)(font "Arial" (font_size 6)))
)
(pin
	(input)
	(rect 1104 904 1280 920)
	(text "INPUT" (rect 133 0 161 10)(font "Arial" (font_size 6)))
	(text "PRCOD" (rect 9 0 49 12)(font "Arial" ))
	(pt 176 8)
	(drawing
		(line (pt 92 12)(pt 117 12))
		(line (pt 92 4)(pt 117 4))
		(line (pt 121 8)(pt 176 8))
		(line (pt 92 12)(pt 92 4))
		(line (pt 117 4)(pt 121 8))
		(line (pt 117 12)(pt 121 8))
	)
	(text "VCC" (rect 136 7 156 17)(font "Arial" (font_size 6)))
)
(pin
	(input)
	(rect 1104 920 1280 936)
	(text "INPUT" (rect 133 0 161 10)(font "Arial" (font_size 6)))
	(text "PRADR" (rect 9 0 47 12)(font "Arial" ))
	(pt 176 8)
	(drawing
		(line (pt 92 12)(pt 117 12))
		(line (pt 92 4)(pt 117 4))
		(line (pt 121 8)(pt 176 8))
		(line (pt 92 12)(pt 92 4))
		(line (pt 117 4)(pt 121 8))
		(line (pt 117 12)(pt 121 8))
	)
	(text "VCC" (rect 136 7 156 17)(font "Arial" (font_size 6)))
)
(pin
	(input)
	(rect 1104 936 1280 952)
	(text "INPUT" (rect 133 0 161 10)(font "Arial" (font_size 6)))
	(text "PRINM" (rect 9 0 44 12)(font "Arial" ))
	(pt 176 8)
	(drawing
		(line (pt 92 12)(pt 117 12))
		(line (pt 92 4)(pt 117 4))
		(line (pt 121 8)(pt 176 8))
		(line (pt 92 12)(pt 92 4))
		(line (pt 117 4)(pt 121 8))
		(line (pt 117 12)(pt 121 8))
	)
	(text "VCC" (rect 136 7 156 17)(font "Arial" (font_size 6)))
)
(pin
	(input)
	(rect 1104 952 1280 968)
	(text "INPUT" (rect 133 0 161 10)(font "Arial" (font_size 6)))
	(text "printr" (rect 9 0 33 12)(font "Arial" ))
	(pt 176 8)
	(drawing
		(line (pt 92 12)(pt 117 12))
		(line (pt 92 4)(pt 117 4))
		(line (pt 121 8)(pt 176 8))
		(line (pt 92 12)(pt 92 4))
		(line (pt 117 4)(pt 121 8))
		(line (pt 117 12)(pt 121 8))
	)
	(text "VCC" (rect 136 7 156 17)(font "Arial" (font_size 6)))
)
(pin
	(output)
	(rect 224 576 400 592)
	(text "OUTPUT" (rect 1 0 39 10)(font "Arial" (font_size 6)))
	(text "read" (rect 90 0 111 12)(font "Arial" ))
	(pt 0 8)
	(drawing
		(line (pt 0 8)(pt 52 8))
		(line (pt 52 4)(pt 78 4))
		(line (pt 52 12)(pt 78 12))
		(line (pt 52 12)(pt 52 4))
		(line (pt 78 4)(pt 82 8))
		(line (pt 82 8)(pt 78 12))
		(line (pt 78 12)(pt 82 8))
	)
)
(pin
	(output)
	(rect 224 592 400 608)
	(text "OUTPUT" (rect 1 0 39 10)(font "Arial" (font_size 6)))
	(text "write" (rect 90 0 112 12)(font "Arial" ))
	(pt 0 8)
	(drawing
		(line (pt 0 8)(pt 52 8))
		(line (pt 52 4)(pt 78 4))
		(line (pt 52 12)(pt 78 12))
		(line (pt 52 12)(pt 52 4))
		(line (pt 78 4)(pt 82 8))
		(line (pt 82 8)(pt 78 12))
		(line (pt 78 12)(pt 82 8))
	)
)
(pin
	(output)
	(rect 224 608 400 624)
	(text "OUTPUT" (rect 1 0 39 10)(font "Arial" (font_size 6)))
	(text "intack" (rect 90 0 119 12)(font "Arial" ))
	(pt 0 8)
	(drawing
		(line (pt 0 8)(pt 52 8))
		(line (pt 52 4)(pt 78 4))
		(line (pt 52 12)(pt 78 12))
		(line (pt 52 12)(pt 52 4))
		(line (pt 78 4)(pt 82 8))
		(line (pt 82 8)(pt 78 12))
		(line (pt 78 12)(pt 82 8))
	)
)
(pin
	(output)
	(rect 224 624 400 640)
	(text "OUTPUT" (rect 1 0 39 10)(font "Arial" (font_size 6)))
	(text "MARout" (rect 90 0 128 12)(font "Arial" ))
	(pt 0 8)
	(drawing
		(line (pt 0 8)(pt 52 8))
		(line (pt 52 4)(pt 78 4))
		(line (pt 52 12)(pt 78 12))
		(line (pt 52 12)(pt 52 4))
		(line (pt 78 4)(pt 82 8))
		(line (pt 82 8)(pt 78 12))
		(line (pt 78 12)(pt 82 8))
	)
)
(pin
	(output)
	(rect 224 640 400 656)
	(text "OUTPUT" (rect 1 0 39 10)(font "Arial" (font_size 6)))
	(text "MDRout" (rect 90 0 130 12)(font "Arial" ))
	(pt 0 8)
	(drawing
		(line (pt 0 8)(pt 52 8))
		(line (pt 52 4)(pt 78 4))
		(line (pt 52 12)(pt 78 12))
		(line (pt 52 12)(pt 52 4))
		(line (pt 78 4)(pt 82 8))
		(line (pt 82 8)(pt 78 12))
		(line (pt 78 12)(pt 82 8))
	)
)
(pin
	(output)
	(rect 224 656 400 672)
	(text "OUTPUT" (rect 1 0 39 10)(font "Arial" (font_size 6)))
	(text "MDRin" (rect 90 0 123 12)(font "Arial" ))
	(pt 0 8)
	(drawing
		(line (pt 0 8)(pt 52 8))
		(line (pt 52 4)(pt 78 4))
		(line (pt 52 12)(pt 78 12))
		(line (pt 52 12)(pt 52 4))
		(line (pt 78 4)(pt 82 8))
		(line (pt 82 8)(pt 78 12))
		(line (pt 78 12)(pt 82 8))
	)
)
(pin
	(output)
	(rect 224 672 400 688)
	(text "OUTPUT" (rect 1 0 39 10)(font "Arial" (font_size 6)))
	(text "ldMDR" (rect 90 0 123 12)(font "Arial" ))
	(pt 0 8)
	(drawing
		(line (pt 0 8)(pt 52 8))
		(line (pt 52 4)(pt 78 4))
		(line (pt 52 12)(pt 78 12))
		(line (pt 52 12)(pt 52 4))
		(line (pt 78 4)(pt 82 8))
		(line (pt 82 8)(pt 78 12))
		(line (pt 78 12)(pt 82 8))
	)
)
(pin
	(output)
	(rect 224 688 400 704)
	(text "OUTPUT" (rect 1 0 39 10)(font "Arial" (font_size 6)))
	(text "incMAR" (rect 90 0 127 12)(font "Arial" ))
	(pt 0 8)
	(drawing
		(line (pt 0 8)(pt 52 8))
		(line (pt 52 4)(pt 78 4))
		(line (pt 52 12)(pt 78 12))
		(line (pt 52 12)(pt 52 4))
		(line (pt 78 4)(pt 82 8))
		(line (pt 82 8)(pt 78 12))
		(line (pt 78 12)(pt 82 8))
	)
)
(pin
	(output)
	(rect 224 704 400 720)
	(text "OUTPUT" (rect 1 0 39 10)(font "Arial" (font_size 6)))
	(text "ldMAR" (rect 90 0 121 12)(font "Arial" ))
	(pt 0 8)
	(drawing
		(line (pt 0 8)(pt 52 8))
		(line (pt 52 4)(pt 78 4))
		(line (pt 52 12)(pt 78 12))
		(line (pt 52 12)(pt 52 4))
		(line (pt 78 4)(pt 82 8))
		(line (pt 82 8)(pt 78 12))
		(line (pt 78 12)(pt 82 8))
	)
)
(pin
	(output)
	(rect 224 720 400 736)
	(text "OUTPUT" (rect 1 0 39 10)(font "Arial" (font_size 6)))
	(text "incPC" (rect 90 0 119 12)(font "Arial" ))
	(pt 0 8)
	(drawing
		(line (pt 0 8)(pt 52 8))
		(line (pt 52 4)(pt 78 4))
		(line (pt 52 12)(pt 78 12))
		(line (pt 52 12)(pt 52 4))
		(line (pt 78 4)(pt 82 8))
		(line (pt 82 8)(pt 78 12))
		(line (pt 78 12)(pt 82 8))
	)
)
(pin
	(output)
	(rect 224 736 400 752)
	(text "OUTPUT" (rect 1 0 39 10)(font "Arial" (font_size 6)))
	(text "ldPC" (rect 90 0 113 12)(font "Arial" ))
	(pt 0 8)
	(drawing
		(line (pt 0 8)(pt 52 8))
		(line (pt 52 4)(pt 78 4))
		(line (pt 52 12)(pt 78 12))
		(line (pt 52 12)(pt 52 4))
		(line (pt 78 4)(pt 82 8))
		(line (pt 82 8)(pt 78 12))
		(line (pt 78 12)(pt 82 8))
	)
)
(pin
	(output)
	(rect 224 752 400 768)
	(text "OUTPUT" (rect 1 0 39 10)(font "Arial" (font_size 6)))
	(text "ldIRH" (rect 90 0 118 12)(font "Arial" ))
	(pt 0 8)
	(drawing
		(line (pt 0 8)(pt 52 8))
		(line (pt 52 4)(pt 78 4))
		(line (pt 52 12)(pt 78 12))
		(line (pt 52 12)(pt 52 4))
		(line (pt 78 4)(pt 82 8))
		(line (pt 82 8)(pt 78 12))
		(line (pt 78 12)(pt 82 8))
	)
)
(pin
	(output)
	(rect 224 768 400 784)
	(text "OUTPUT" (rect 1 0 39 10)(font "Arial" (font_size 6)))
	(text "ldIRL" (rect 90 0 115 12)(font "Arial" ))
	(pt 0 8)
	(drawing
		(line (pt 0 8)(pt 52 8))
		(line (pt 52 4)(pt 78 4))
		(line (pt 52 12)(pt 78 12))
		(line (pt 52 12)(pt 52 4))
		(line (pt 78 4)(pt 82 8))
		(line (pt 82 8)(pt 78 12))
		(line (pt 78 12)(pt 82 8))
	)
)
(pin
	(output)
	(rect 224 784 400 800)
	(text "OUTPUT" (rect 1 0 39 10)(font "Arial" (font_size 6)))
	(text "IRHout" (rect 90 0 125 12)(font "Arial" ))
	(pt 0 8)
	(drawing
		(line (pt 0 8)(pt 52 8))
		(line (pt 52 4)(pt 78 4))
		(line (pt 52 12)(pt 78 12))
		(line (pt 52 12)(pt 52 4))
		(line (pt 78 4)(pt 82 8))
		(line (pt 82 8)(pt 78 12))
		(line (pt 78 12)(pt 82 8))
	)
)
(pin
	(output)
	(rect 224 800 400 816)
	(text "OUTPUT" (rect 1 0 39 10)(font "Arial" (font_size 6)))
	(text "IRLout" (rect 90 0 123 12)(font "Arial" ))
	(pt 0 8)
	(drawing
		(line (pt 0 8)(pt 52 8))
		(line (pt 52 4)(pt 78 4))
		(line (pt 52 12)(pt 78 12))
		(line (pt 52 12)(pt 52 4))
		(line (pt 78 4)(pt 82 8))
		(line (pt 82 8)(pt 78 12))
		(line (pt 78 12)(pt 82 8))
	)
)
(pin
	(output)
	(rect 224 816 400 832)
	(text "OUTPUT" (rect 1 0 39 10)(font "Arial" (font_size 6)))
	(text "PCout" (rect 90 0 120 12)(font "Arial" ))
	(pt 0 8)
	(drawing
		(line (pt 0 8)(pt 52 8))
		(line (pt 52 4)(pt 78 4))
		(line (pt 52 12)(pt 78 12))
		(line (pt 52 12)(pt 52 4))
		(line (pt 78 4)(pt 82 8))
		(line (pt 82 8)(pt 78 12))
		(line (pt 78 12)(pt 82 8))
	)
)
(pin
	(output)
	(rect 224 832 400 848)
	(text "OUTPUT" (rect 1 0 39 10)(font "Arial" (font_size 6)))
	(text "ldPSW" (rect 90 0 123 12)(font "Arial" ))
	(pt 0 8)
	(drawing
		(line (pt 0 8)(pt 52 8))
		(line (pt 52 4)(pt 78 4))
		(line (pt 52 12)(pt 78 12))
		(line (pt 52 12)(pt 52 4))
		(line (pt 78 4)(pt 82 8))
		(line (pt 82 8)(pt 78 12))
		(line (pt 78 12)(pt 82 8))
	)
)
(pin
	(output)
	(rect 224 848 400 864)
	(text "OUTPUT" (rect 1 0 39 10)(font "Arial" (font_size 6)))
	(text "stPSWI" (rect 90 0 127 12)(font "Arial" ))
	(pt 0 8)
	(drawing
		(line (pt 0 8)(pt 52 8))
		(line (pt 52 4)(pt 78 4))
		(line (pt 52 12)(pt 78 12))
		(line (pt 52 12)(pt 52 4))
		(line (pt 78 4)(pt 82 8))
		(line (pt 82 8)(pt 78 12))
		(line (pt 78 12)(pt 82 8))
	)
)
(pin
	(output)
	(rect 224 864 400 880)
	(text "OUTPUT" (rect 1 0 39 10)(font "Arial" (font_size 6)))
	(text "clPSWI" (rect 90 0 126 12)(font "Arial" ))
	(pt 0 8)
	(drawing
		(line (pt 0 8)(pt 52 8))
		(line (pt 52 4)(pt 78 4))
		(line (pt 52 12)(pt 78 12))
		(line (pt 52 12)(pt 52 4))
		(line (pt 78 4)(pt 82 8))
		(line (pt 82 8)(pt 78 12))
		(line (pt 78 12)(pt 82 8))
	)
)
(pin
	(output)
	(rect 224 880 400 896)
	(text "OUTPUT" (rect 1 0 39 10)(font "Arial" (font_size 6)))
	(text "stPSWT" (rect 90 0 130 12)(font "Arial" ))
	(pt 0 8)
	(drawing
		(line (pt 0 8)(pt 52 8))
		(line (pt 52 4)(pt 78 4))
		(line (pt 52 12)(pt 78 12))
		(line (pt 52 12)(pt 52 4))
		(line (pt 78 4)(pt 82 8))
		(line (pt 82 8)(pt 78 12))
		(line (pt 78 12)(pt 82 8))
	)
)
(pin
	(output)
	(rect 224 896 400 912)
	(text "OUTPUT" (rect 1 0 39 10)(font "Arial" (font_size 6)))
	(text "clPSWT" (rect 90 0 128 12)(font "Arial" ))
	(pt 0 8)
	(drawing
		(line (pt 0 8)(pt 52 8))
		(line (pt 52 4)(pt 78 4))
		(line (pt 52 12)(pt 78 12))
		(line (pt 52 12)(pt 52 4))
		(line (pt 78 4)(pt 82 8))
		(line (pt 82 8)(pt 78 12))
		(line (pt 78 12)(pt 82 8))
	)
)
(pin
	(output)
	(rect 224 912 400 928)
	(text "OUTPUT" (rect 1 0 39 10)(font "Arial" (font_size 6)))
	(text "ldN" (rect 90 0 106 12)(font "Arial" ))
	(pt 0 8)
	(drawing
		(line (pt 0 8)(pt 52 8))
		(line (pt 52 4)(pt 78 4))
		(line (pt 52 12)(pt 78 12))
		(line (pt 52 12)(pt 52 4))
		(line (pt 78 4)(pt 82 8))
		(line (pt 82 8)(pt 78 12))
		(line (pt 78 12)(pt 82 8))
	)
)
(pin
	(output)
	(rect 224 928 400 944)
	(text "OUTPUT" (rect 1 0 39 10)(font "Arial" (font_size 6)))
	(text "ldZ" (rect 90 0 105 12)(font "Arial" ))
	(pt 0 8)
	(drawing
		(line (pt 0 8)(pt 52 8))
		(line (pt 52 4)(pt 78 4))
		(line (pt 52 12)(pt 78 12))
		(line (pt 52 12)(pt 52 4))
		(line (pt 78 4)(pt 82 8))
		(line (pt 82 8)(pt 78 12))
		(line (pt 78 12)(pt 82 8))
	)
)
(pin
	(output)
	(rect 224 944 400 960)
	(text "OUTPUT" (rect 1 0 39 10)(font "Arial" (font_size 6)))
	(text "ldV" (rect 90 0 106 12)(font "Arial" ))
	(pt 0 8)
	(drawing
		(line (pt 0 8)(pt 52 8))
		(line (pt 52 4)(pt 78 4))
		(line (pt 52 12)(pt 78 12))
		(line (pt 52 12)(pt 52 4))
		(line (pt 78 4)(pt 82 8))
		(line (pt 82 8)(pt 78 12))
		(line (pt 78 12)(pt 82 8))
	)
)
(pin
	(output)
	(rect 224 960 400 976)
	(text "OUTPUT" (rect 1 0 39 10)(font "Arial" (font_size 6)))
	(text "ldC" (rect 90 0 106 12)(font "Arial" ))
	(pt 0 8)
	(drawing
		(line (pt 0 8)(pt 52 8))
		(line (pt 52 4)(pt 78 4))
		(line (pt 52 12)(pt 78 12))
		(line (pt 52 12)(pt 52 4))
		(line (pt 78 4)(pt 82 8))
		(line (pt 82 8)(pt 78 12))
		(line (pt 78 12)(pt 82 8))
	)
)
(pin
	(output)
	(rect 224 976 400 992)
	(text "OUTPUT" (rect 1 0 39 10)(font "Arial" (font_size 6)))
	(text "ldL" (rect 90 0 104 12)(font "Arial" ))
	(pt 0 8)
	(drawing
		(line (pt 0 8)(pt 52 8))
		(line (pt 52 4)(pt 78 4))
		(line (pt 52 12)(pt 78 12))
		(line (pt 52 12)(pt 52 4))
		(line (pt 78 4)(pt 82 8))
		(line (pt 82 8)(pt 78 12))
		(line (pt 78 12)(pt 82 8))
	)
)
(pin
	(output)
	(rect 224 992 400 1008)
	(text "OUTPUT" (rect 1 0 39 10)(font "Arial" (font_size 6)))
	(text "PSWout" (rect 90 0 130 12)(font "Arial" ))
	(pt 0 8)
	(drawing
		(line (pt 0 8)(pt 52 8))
		(line (pt 52 4)(pt 78 4))
		(line (pt 52 12)(pt 78 12))
		(line (pt 52 12)(pt 52 4))
		(line (pt 78 4)(pt 82 8))
		(line (pt 82 8)(pt 78 12))
		(line (pt 78 12)(pt 82 8))
	)
)
(pin
	(output)
	(rect 224 1008 400 1024)
	(text "OUTPUT" (rect 1 0 39 10)(font "Arial" (font_size 6)))
	(text "clSTART" (rect 90 0 132 12)(font "Arial" ))
	(pt 0 8)
	(drawing
		(line (pt 0 8)(pt 52 8))
		(line (pt 52 4)(pt 78 4))
		(line (pt 52 12)(pt 78 12))
		(line (pt 52 12)(pt 52 4))
		(line (pt 78 4)(pt 82 8))
		(line (pt 82 8)(pt 78 12))
		(line (pt 78 12)(pt 82 8))
	)
)
(pin
	(output)
	(rect 224 1024 400 1040)
	(text "OUTPUT" (rect 1 0 39 10)(font "Arial" (font_size 6)))
	(text "ldAB" (rect 90 0 112 12)(font "Arial" ))
	(pt 0 8)
	(drawing
		(line (pt 0 8)(pt 52 8))
		(line (pt 52 4)(pt 78 4))
		(line (pt 52 12)(pt 78 12))
		(line (pt 52 12)(pt 52 4))
		(line (pt 78 4)(pt 82 8))
		(line (pt 82 8)(pt 78 12))
		(line (pt 78 12)(pt 82 8))
	)
)
(pin
	(output)
	(rect 224 1040 400 1056)
	(text "OUTPUT" (rect 1 0 39 10)(font "Arial" (font_size 6)))
	(text "SHR" (rect 90 0 113 12)(font "Arial" ))
	(pt 0 8)
	(drawing
		(line (pt 0 8)(pt 52 8))
		(line (pt 52 4)(pt 78 4))
		(line (pt 52 12)(pt 78 12))
		(line (pt 52 12)(pt 52 4))
		(line (pt 78 4)(pt 82 8))
		(line (pt 82 8)(pt 78 12))
		(line (pt 78 12)(pt 82 8))
	)
)
(pin
	(output)
	(rect 224 1056 400 1072)
	(text "OUTPUT" (rect 1 0 39 10)(font "Arial" (font_size 6)))
	(text "SHL" (rect 90 0 111 12)(font "Arial" ))
	(pt 0 8)
	(drawing
		(line (pt 0 8)(pt 52 8))
		(line (pt 52 4)(pt 78 4))
		(line (pt 52 12)(pt 78 12))
		(line (pt 52 12)(pt 52 4))
		(line (pt 78 4)(pt 82 8))
		(line (pt 82 8)(pt 78 12))
		(line (pt 78 12)(pt 82 8))
	)
)
(pin
	(output)
	(rect 224 1072 400 1088)
	(text "OUTPUT" (rect 1 0 39 10)(font "Arial" (font_size 6)))
	(text "ldBB" (rect 90 0 112 12)(font "Arial" ))
	(pt 0 8)
	(drawing
		(line (pt 0 8)(pt 52 8))
		(line (pt 52 4)(pt 78 4))
		(line (pt 52 12)(pt 78 12))
		(line (pt 52 12)(pt 52 4))
		(line (pt 78 4)(pt 82 8))
		(line (pt 82 8)(pt 78 12))
		(line (pt 78 12)(pt 82 8))
	)
)
(pin
	(output)
	(rect 224 1088 400 1104)
	(text "OUTPUT" (rect 1 0 39 10)(font "Arial" (font_size 6)))
	(text "ABout" (rect 90 0 119 12)(font "Arial" ))
	(pt 0 8)
	(drawing
		(line (pt 0 8)(pt 52 8))
		(line (pt 52 4)(pt 78 4))
		(line (pt 52 12)(pt 78 12))
		(line (pt 52 12)(pt 52 4))
		(line (pt 78 4)(pt 82 8))
		(line (pt 82 8)(pt 78 12))
		(line (pt 78 12)(pt 82 8))
	)
)
(pin
	(output)
	(rect 224 1104 400 1120)
	(text "OUTPUT" (rect 1 0 39 10)(font "Arial" (font_size 6)))
	(text "BBout" (rect 90 0 119 12)(font "Arial" ))
	(pt 0 8)
	(drawing
		(line (pt 0 8)(pt 52 8))
		(line (pt 52 4)(pt 78 4))
		(line (pt 52 12)(pt 78 12))
		(line (pt 52 12)(pt 52 4))
		(line (pt 78 4)(pt 82 8))
		(line (pt 82 8)(pt 78 12))
		(line (pt 78 12)(pt 82 8))
	)
)
(pin
	(output)
	(rect 224 1120 400 1136)
	(text "OUTPUT" (rect 1 0 39 10)(font "Arial" (font_size 6)))
	(text "ALUout" (rect 90 0 126 12)(font "Arial" ))
	(pt 0 8)
	(drawing
		(line (pt 0 8)(pt 52 8))
		(line (pt 52 4)(pt 78 4))
		(line (pt 52 12)(pt 78 12))
		(line (pt 52 12)(pt 52 4))
		(line (pt 78 4)(pt 82 8))
		(line (pt 82 8)(pt 78 12))
		(line (pt 78 12)(pt 82 8))
	)
)
(pin
	(output)
	(rect 224 1136 400 1152)
	(text "OUTPUT" (rect 1 0 39 10)(font "Arial" (font_size 6)))
	(text "ldX" (rect 90 0 104 12)(font "Arial" ))
	(pt 0 8)
	(drawing
		(line (pt 0 8)(pt 52 8))
		(line (pt 52 4)(pt 78 4))
		(line (pt 52 12)(pt 78 12))
		(line (pt 52 12)(pt 52 4))
		(line (pt 78 4)(pt 82 8))
		(line (pt 82 8)(pt 78 12))
		(line (pt 78 12)(pt 82 8))
	)
)
(pin
	(output)
	(rect 224 1152 400 1168)
	(text "OUTPUT" (rect 1 0 39 10)(font "Arial" (font_size 6)))
	(text "ldY" (rect 90 0 106 12)(font "Arial" ))
	(pt 0 8)
	(drawing
		(line (pt 0 8)(pt 52 8))
		(line (pt 52 4)(pt 78 4))
		(line (pt 52 12)(pt 78 12))
		(line (pt 52 12)(pt 52 4))
		(line (pt 78 4)(pt 82 8))
		(line (pt 82 8)(pt 78 12))
		(line (pt 78 12)(pt 82 8))
	)
)
(pin
	(output)
	(rect 224 1168 400 1184)
	(text "OUTPUT" (rect 1 0 39 10)(font "Arial" (font_size 6)))
	(text "ldGPRAR" (rect 90 0 137 12)(font "Arial" ))
	(pt 0 8)
	(drawing
		(line (pt 0 8)(pt 52 8))
		(line (pt 52 4)(pt 78 4))
		(line (pt 52 12)(pt 78 12))
		(line (pt 52 12)(pt 52 4))
		(line (pt 78 4)(pt 82 8))
		(line (pt 82 8)(pt 78 12))
		(line (pt 78 12)(pt 82 8))
	)
)
(pin
	(output)
	(rect 224 1184 400 1200)
	(text "OUTPUT" (rect 1 0 39 10)(font "Arial" (font_size 6)))
	(text "incGPRAR" (rect 90 0 143 12)(font "Arial" ))
	(pt 0 8)
	(drawing
		(line (pt 0 8)(pt 52 8))
		(line (pt 52 4)(pt 78 4))
		(line (pt 52 12)(pt 78 12))
		(line (pt 52 12)(pt 52 4))
		(line (pt 78 4)(pt 82 8))
		(line (pt 82 8)(pt 78 12))
		(line (pt 78 12)(pt 82 8))
	)
)
(pin
	(output)
	(rect 224 1200 400 1216)
	(text "OUTPUT" (rect 1 0 39 10)(font "Arial" (font_size 6)))
	(text "ldGPR" (rect 90 0 121 12)(font "Arial" ))
	(pt 0 8)
	(drawing
		(line (pt 0 8)(pt 52 8))
		(line (pt 52 4)(pt 78 4))
		(line (pt 52 12)(pt 78 12))
		(line (pt 52 12)(pt 52 4))
		(line (pt 78 4)(pt 82 8))
		(line (pt 82 8)(pt 78 12))
		(line (pt 78 12)(pt 82 8))
	)
)
(pin
	(output)
	(rect 224 1216 400 1232)
	(text "OUTPUT" (rect 1 0 39 10)(font "Arial" (font_size 6)))
	(text "GPRout" (rect 90 0 128 12)(font "Arial" ))
	(pt 0 8)
	(drawing
		(line (pt 0 8)(pt 52 8))
		(line (pt 52 4)(pt 78 4))
		(line (pt 52 12)(pt 78 12))
		(line (pt 52 12)(pt 52 4))
		(line (pt 78 4)(pt 82 8))
		(line (pt 82 8)(pt 78 12))
		(line (pt 78 12)(pt 82 8))
	)
)
(pin
	(output)
	(rect 224 1232 400 1248)
	(text "OUTPUT" (rect 1 0 39 10)(font "Arial" (font_size 6)))
	(text "ldSP" (rect 90 0 112 12)(font "Arial" ))
	(pt 0 8)
	(drawing
		(line (pt 0 8)(pt 52 8))
		(line (pt 52 4)(pt 78 4))
		(line (pt 52 12)(pt 78 12))
		(line (pt 52 12)(pt 52 4))
		(line (pt 78 4)(pt 82 8))
		(line (pt 82 8)(pt 78 12))
		(line (pt 78 12)(pt 82 8))
	)
)
(pin
	(output)
	(rect 224 1248 400 1264)
	(text "OUTPUT" (rect 1 0 39 10)(font "Arial" (font_size 6)))
	(text "incSP" (rect 90 0 118 12)(font "Arial" ))
	(pt 0 8)
	(drawing
		(line (pt 0 8)(pt 52 8))
		(line (pt 52 4)(pt 78 4))
		(line (pt 52 12)(pt 78 12))
		(line (pt 52 12)(pt 52 4))
		(line (pt 78 4)(pt 82 8))
		(line (pt 82 8)(pt 78 12))
		(line (pt 78 12)(pt 82 8))
	)
)
(pin
	(output)
	(rect 224 1264 400 1280)
	(text "OUTPUT" (rect 1 0 39 10)(font "Arial" (font_size 6)))
	(text "decSP" (rect 90 0 121 12)(font "Arial" ))
	(pt 0 8)
	(drawing
		(line (pt 0 8)(pt 52 8))
		(line (pt 52 4)(pt 78 4))
		(line (pt 52 12)(pt 78 12))
		(line (pt 52 12)(pt 52 4))
		(line (pt 78 4)(pt 82 8))
		(line (pt 82 8)(pt 78 12))
		(line (pt 78 12)(pt 82 8))
	)
)
(pin
	(output)
	(rect 224 1280 400 1296)
	(text "OUTPUT" (rect 1 0 39 10)(font "Arial" (font_size 6)))
	(text "SPout" (rect 90 0 119 12)(font "Arial" ))
	(pt 0 8)
	(drawing
		(line (pt 0 8)(pt 52 8))
		(line (pt 52 4)(pt 78 4))
		(line (pt 52 12)(pt 78 12))
		(line (pt 52 12)(pt 52 4))
		(line (pt 78 4)(pt 82 8))
		(line (pt 82 8)(pt 78 12))
		(line (pt 78 12)(pt 82 8))
	)
)
(pin
	(output)
	(rect 224 1296 400 1312)
	(text "OUTPUT" (rect 1 0 39 10)(font "Arial" (font_size 6)))
	(text "stPRINS" (rect 90 0 133 12)(font "Arial" ))
	(pt 0 8)
	(drawing
		(line (pt 0 8)(pt 52 8))
		(line (pt 52 4)(pt 78 4))
		(line (pt 52 12)(pt 78 12))
		(line (pt 52 12)(pt 52 4))
		(line (pt 78 4)(pt 82 8))
		(line (pt 82 8)(pt 78 12))
		(line (pt 78 12)(pt 82 8))
	)
)
(pin
	(output)
	(rect 224 1312 400 1328)
	(text "OUTPUT" (rect 1 0 39 10)(font "Arial" (font_size 6)))
	(text "clPRINS" (rect 90 0 132 12)(font "Arial" ))
	(pt 0 8)
	(drawing
		(line (pt 0 8)(pt 52 8))
		(line (pt 52 4)(pt 78 4))
		(line (pt 52 12)(pt 78 12))
		(line (pt 52 12)(pt 52 4))
		(line (pt 78 4)(pt 82 8))
		(line (pt 82 8)(pt 78 12))
		(line (pt 78 12)(pt 82 8))
	)
)
(pin
	(output)
	(rect 224 1328 400 1344)
	(text "OUTPUT" (rect 1 0 39 10)(font "Arial" (font_size 6)))
	(text "stPRCOD" (rect 90 0 139 12)(font "Arial" ))
	(pt 0 8)
	(drawing
		(line (pt 0 8)(pt 52 8))
		(line (pt 52 4)(pt 78 4))
		(line (pt 52 12)(pt 78 12))
		(line (pt 52 12)(pt 52 4))
		(line (pt 78 4)(pt 82 8))
		(line (pt 82 8)(pt 78 12))
		(line (pt 78 12)(pt 82 8))
	)
)
(pin
	(output)
	(rect 224 1344 400 1360)
	(text "OUTPUT" (rect 1 0 39 10)(font "Arial" (font_size 6)))
	(text "clPRCOD" (rect 90 0 138 12)(font "Arial" ))
	(pt 0 8)
	(drawing
		(line (pt 0 8)(pt 52 8))
		(line (pt 52 4)(pt 78 4))
		(line (pt 52 12)(pt 78 12))
		(line (pt 52 12)(pt 52 4))
		(line (pt 78 4)(pt 82 8))
		(line (pt 82 8)(pt 78 12))
		(line (pt 78 12)(pt 82 8))
	)
)
(pin
	(output)
	(rect 224 1360 400 1376)
	(text "OUTPUT" (rect 1 0 39 10)(font "Arial" (font_size 6)))
	(text "stPRADR" (rect 90 0 138 12)(font "Arial" ))
	(pt 0 8)
	(drawing
		(line (pt 0 8)(pt 52 8))
		(line (pt 52 4)(pt 78 4))
		(line (pt 52 12)(pt 78 12))
		(line (pt 52 12)(pt 52 4))
		(line (pt 78 4)(pt 82 8))
		(line (pt 82 8)(pt 78 12))
		(line (pt 78 12)(pt 82 8))
	)
)
(pin
	(output)
	(rect 224 1376 400 1392)
	(text "OUTPUT" (rect 1 0 39 10)(font "Arial" (font_size 6)))
	(text "clPRADR" (rect 90 0 137 12)(font "Arial" ))
	(pt 0 8)
	(drawing
		(line (pt 0 8)(pt 52 8))
		(line (pt 52 4)(pt 78 4))
		(line (pt 52 12)(pt 78 12))
		(line (pt 52 12)(pt 52 4))
		(line (pt 78 4)(pt 82 8))
		(line (pt 82 8)(pt 78 12))
		(line (pt 78 12)(pt 82 8))
	)
)
(pin
	(output)
	(rect 224 1392 400 1408)
	(text "OUTPUT" (rect 1 0 39 10)(font "Arial" (font_size 6)))
	(text "clPRINM" (rect 90 0 133 12)(font "Arial" ))
	(pt 0 8)
	(drawing
		(line (pt 0 8)(pt 52 8))
		(line (pt 52 4)(pt 78 4))
		(line (pt 52 12)(pt 78 12))
		(line (pt 52 12)(pt 52 4))
		(line (pt 78 4)(pt 82 8))
		(line (pt 82 8)(pt 78 12))
		(line (pt 78 12)(pt 82 8))
	)
)
(pin
	(output)
	(rect 224 1408 400 1424)
	(text "OUTPUT" (rect 1 0 39 10)(font "Arial" (font_size 6)))
	(text "clINTR" (rect 90 0 124 12)(font "Arial" ))
	(pt 0 8)
	(drawing
		(line (pt 0 8)(pt 52 8))
		(line (pt 52 4)(pt 78 4))
		(line (pt 52 12)(pt 78 12))
		(line (pt 52 12)(pt 52 4))
		(line (pt 78 4)(pt 82 8))
		(line (pt 82 8)(pt 78 12))
		(line (pt 78 12)(pt 82 8))
	)
)
(pin
	(output)
	(rect 224 1424 400 1440)
	(text "OUTPUT" (rect 1 0 39 10)(font "Arial" (font_size 6)))
	(text "ldBR" (rect 90 0 113 12)(font "Arial" ))
	(pt 0 8)
	(drawing
		(line (pt 0 8)(pt 52 8))
		(line (pt 52 4)(pt 78 4))
		(line (pt 52 12)(pt 78 12))
		(line (pt 52 12)(pt 52 4))
		(line (pt 78 4)(pt 82 8))
		(line (pt 82 8)(pt 78 12))
		(line (pt 78 12)(pt 82 8))
	)
)
(pin
	(output)
	(rect 224 1440 400 1456)
	(text "OUTPUT" (rect 1 0 39 10)(font "Arial" (font_size 6)))
	(text "ldIVTP" (rect 90 0 121 12)(font "Arial" ))
	(pt 0 8)
	(drawing
		(line (pt 0 8)(pt 52 8))
		(line (pt 52 4)(pt 78 4))
		(line (pt 52 12)(pt 78 12))
		(line (pt 52 12)(pt 52 4))
		(line (pt 78 4)(pt 82 8))
		(line (pt 82 8)(pt 78 12))
		(line (pt 78 12)(pt 82 8))
	)
)
(pin
	(output)
	(rect 224 1456 400 1472)
	(text "OUTPUT" (rect 1 0 39 10)(font "Arial" (font_size 6)))
	(text "UEXTout" (rect 90 0 132 12)(font "Arial" ))
	(pt 0 8)
	(drawing
		(line (pt 0 8)(pt 52 8))
		(line (pt 52 4)(pt 78 4))
		(line (pt 52 12)(pt 78 12))
		(line (pt 52 12)(pt 52 4))
		(line (pt 78 4)(pt 82 8))
		(line (pt 82 8)(pt 78 12))
		(line (pt 78 12)(pt 82 8))
	)
)
(pin
	(output)
	(rect 224 1472 400 1488)
	(text "OUTPUT" (rect 1 0 39 10)(font "Arial" (font_size 6)))
	(text "UINTout" (rect 90 0 131 12)(font "Arial" ))
	(pt 0 8)
	(drawing
		(line (pt 0 8)(pt 52 8))
		(line (pt 52 4)(pt 78 4))
		(line (pt 52 12)(pt 78 12))
		(line (pt 52 12)(pt 52 4))
		(line (pt 78 4)(pt 82 8))
		(line (pt 82 8)(pt 78 12))
		(line (pt 78 12)(pt 82 8))
	)
)
(pin
	(output)
	(rect 224 1488 400 1504)
	(text "OUTPUT" (rect 1 0 39 10)(font "Arial" (font_size 6)))
	(text "IVTDSPout" (rect 90 0 144 12)(font "Arial" ))
	(pt 0 8)
	(drawing
		(line (pt 0 8)(pt 52 8))
		(line (pt 52 4)(pt 78 4))
		(line (pt 52 12)(pt 78 12))
		(line (pt 52 12)(pt 52 4))
		(line (pt 78 4)(pt 82 8))
		(line (pt 82 8)(pt 78 12))
		(line (pt 78 12)(pt 82 8))
	)
)
(pin
	(output)
	(rect 224 1504 400 1520)
	(text "OUTPUT" (rect 1 0 39 10)(font "Arial" (font_size 6)))
	(text "IVTPout" (rect 90 0 128 12)(font "Arial" ))
	(pt 0 8)
	(drawing
		(line (pt 0 8)(pt 52 8))
		(line (pt 52 4)(pt 78 4))
		(line (pt 52 12)(pt 78 12))
		(line (pt 52 12)(pt 52 4))
		(line (pt 78 4)(pt 82 8))
		(line (pt 82 8)(pt 78 12))
		(line (pt 78 12)(pt 82 8))
	)
)
(pin
	(output)
	(rect 224 1520 400 1536)
	(text "OUTPUT" (rect 1 0 39 10)(font "Arial" (font_size 6)))
	(text "ADDupr" (rect 90 0 128 12)(font "Arial" ))
	(pt 0 8)
	(drawing
		(line (pt 0 8)(pt 52 8))
		(line (pt 52 4)(pt 78 4))
		(line (pt 52 12)(pt 78 12))
		(line (pt 52 12)(pt 52 4))
		(line (pt 78 4)(pt 82 8))
		(line (pt 82 8)(pt 78 12))
		(line (pt 78 12)(pt 82 8))
	)
)
(symbol
	(rect 560 112 624 192)
	(text "OR4" (rect 45 0 63 10)(font "Arial" (font_size 6)))
	(text "inst4" (rect 38 69 61 81)(font "Arial" ))
	(port
		(pt 64 16)
		(input)
		(text "IN1" (rect 2 7 19 19)(font "Courier New" (bold))(invisible))
		(text "IN1" (rect 45 7 62 19)(font "Courier New" (bold))(invisible))
		(line (pt 64 16)(pt 51 16))
	)
	(port
		(pt 64 48)
		(input)
		(text "IN3" (rect 2 39 19 51)(font "Courier New" (bold))(invisible))
		(text "IN3" (rect 45 39 62 51)(font "Courier New" (bold))(invisible))
		(line (pt 64 48)(pt 49 48))
	)
	(port
		(pt 64 64)
		(input)
		(text "IN4" (rect 2 55 19 67)(font "Courier New" (bold))(invisible))
		(text "IN4" (rect 45 55 62 67)(font "Courier New" (bold))(invisible))
		(line (pt 64 64)(pt 51 64))
	)
	(port
		(pt 64 32)
		(input)
		(text "IN2" (rect 2 23 19 35)(font "Courier New" (bold))(invisible))
		(text "IN2" (rect 45 23 62 35)(font "Courier New" (bold))(invisible))
		(line (pt 64 32)(pt 49 32))
	)
	(port
		(pt 0 40)
		(output)
		(text "OUT" (rect 48 31 65 43)(font "Courier New" (bold))(invisible))
		(text "OUT" (rect 2 31 19 43)(font "Courier New" (bold))(invisible))
		(line (pt 16 40)(pt 0 40))
	)
	(drawing
		(line (pt 51 67)(pt 51 51))
		(line (pt 39 52)(pt 51 52))
		(line (pt 51 12)(pt 51 29))
		(line (pt 51 29)(pt 39 29))
		(arc (pt 57 35)(pt 57 45)(rect 45 24 78 57))
		(arc (pt 39 29)(pt 15 40)(rect 7 29 70 92))
		(arc (pt 15 40)(pt 39 51)(rect 7 -11 70 52))
	)
	(flipy)
)
(symbol
	(rect 1288 656 1432 1008)
	(text "UpravljackiSignaliUpravljackeJedinice" (rect 5 0 215 14)(font "Arial" (font_size 8)))
	(text "inst12" (rect 8 336 37 348)(font "Arial" ))
	(port
		(pt 0 32)
		(input)
		(text "I[4..0]" (rect 0 0 30 14)(font "Arial" (font_size 8)))
		(text "I[4..0]" (rect 21 27 51 41)(font "Arial" (font_size 8)))
		(line (pt 0 32)(pt 16 32)(line_width 3))
	)
	(port
		(pt 0 48)
		(input)
		(text "START" (rect 0 0 40 14)(font "Arial" (font_size 8)))
		(text "START" (rect 21 43 61 57)(font "Arial" (font_size 8)))
		(line (pt 0 48)(pt 16 48))
	)
	(port
		(pt 0 64)
		(input)
		(text "gropr" (rect 0 0 30 14)(font "Arial" (font_size 8)))
		(text "gropr" (rect 21 59 51 73)(font "Arial" (font_size 8)))
		(line (pt 0 64)(pt 16 64))
	)
	(port
		(pt 0 80)
		(input)
		(text "gradr" (rect 0 0 30 14)(font "Arial" (font_size 8)))
		(text "gradr" (rect 21 75 51 89)(font "Arial" (font_size 8)))
		(line (pt 0 80)(pt 16 80))
	)
	(port
		(pt 0 96)
		(input)
		(text "l1" (rect 0 0 9 14)(font "Arial" (font_size 8)))
		(text "l1" (rect 21 91 30 105)(font "Arial" (font_size 8)))
		(line (pt 0 96)(pt 16 96))
	)
	(port
		(pt 0 112)
		(input)
		(text "l2_int" (rect 0 0 29 14)(font "Arial" (font_size 8)))
		(text "l2_int" (rect 21 107 50 121)(font "Arial" (font_size 8)))
		(line (pt 0 112)(pt 16 112))
	)
	(port
		(pt 0 128)
		(input)
		(text "l2_arlog" (rect 0 0 44 14)(font "Arial" (font_size 8)))
		(text "l2_arlog" (rect 21 123 65 137)(font "Arial" (font_size 8)))
		(line (pt 0 128)(pt 16 128))
	)
	(port
		(pt 0 144)
		(input)
		(text "l3_jmp" (rect 0 0 35 14)(font "Arial" (font_size 8)))
		(text "l3_jmp" (rect 21 139 56 153)(font "Arial" (font_size 8)))
		(line (pt 0 144)(pt 16 144))
	)
	(port
		(pt 0 160)
		(input)
		(text "l3_brnch" (rect 0 0 49 14)(font "Arial" (font_size 8)))
		(text "l3_brnch" (rect 21 155 70 169)(font "Arial" (font_size 8)))
		(line (pt 0 160)(pt 16 160))
	)
	(port
		(pt 0 176)
		(input)
		(text "STORE" (rect 0 0 40 14)(font "Arial" (font_size 8)))
		(text "STORE" (rect 21 171 61 185)(font "Arial" (font_size 8)))
		(line (pt 0 176)(pt 16 176))
	)
	(port
		(pt 0 192)
		(input)
		(text "regdir" (rect 0 0 33 14)(font "Arial" (font_size 8)))
		(text "regdir" (rect 21 187 54 201)(font "Arial" (font_size 8)))
		(line (pt 0 192)(pt 16 192))
	)
	(port
		(pt 0 208)
		(input)
		(text "brpom" (rect 0 0 35 14)(font "Arial" (font_size 8)))
		(text "brpom" (rect 21 203 56 217)(font "Arial" (font_size 8)))
		(line (pt 0 208)(pt 16 208))
	)
	(port
		(pt 0 224)
		(input)
		(text "prekid" (rect 0 0 34 14)(font "Arial" (font_size 8)))
		(text "prekid" (rect 21 219 55 233)(font "Arial" (font_size 8)))
		(line (pt 0 224)(pt 16 224))
	)
	(port
		(pt 0 240)
		(input)
		(text "PRINS" (rect 0 0 34 14)(font "Arial" (font_size 8)))
		(text "PRINS" (rect 21 235 55 249)(font "Arial" (font_size 8)))
		(line (pt 0 240)(pt 16 240))
	)
	(port
		(pt 0 256)
		(input)
		(text "PRCOD" (rect 0 0 41 14)(font "Arial" (font_size 8)))
		(text "PRCOD" (rect 21 251 62 265)(font "Arial" (font_size 8)))
		(line (pt 0 256)(pt 16 256))
	)
	(port
		(pt 0 272)
		(input)
		(text "PRADR" (rect 0 0 41 14)(font "Arial" (font_size 8)))
		(text "PRADR" (rect 21 267 62 281)(font "Arial" (font_size 8)))
		(line (pt 0 272)(pt 16 272))
	)
	(port
		(pt 0 288)
		(input)
		(text "PRINM" (rect 0 0 35 14)(font "Arial" (font_size 8)))
		(text "PRINM" (rect 21 283 56 297)(font "Arial" (font_size 8)))
		(line (pt 0 288)(pt 16 288))
	)
	(port
		(pt 0 304)
		(input)
		(text "printr" (rect 0 0 29 14)(font "Arial" (font_size 8)))
		(text "printr" (rect 21 299 50 313)(font "Arial" (font_size 8)))
		(line (pt 0 304)(pt 16 304))
	)
	(port
		(pt 144 32)
		(output)
		(text "next" (rect 0 0 24 14)(font "Arial" (font_size 8)))
		(text "next" (rect 99 27 123 41)(font "Arial" (font_size 8)))
		(line (pt 144 32)(pt 128 32))
	)
	(port
		(pt 144 48)
		(output)
		(text "br" (rect 0 0 11 14)(font "Arial" (font_size 8)))
		(text "br" (rect 112 43 123 57)(font "Arial" (font_size 8)))
		(line (pt 144 48)(pt 128 48))
	)
	(port
		(pt 144 64)
		(output)
		(text "branch" (rect 0 0 40 14)(font "Arial" (font_size 8)))
		(text "branch" (rect 83 59 123 73)(font "Arial" (font_size 8)))
		(line (pt 144 64)(pt 128 64))
	)
	(port
		(pt 144 80)
		(output)
		(text "bradr" (rect 0 0 30 14)(font "Arial" (font_size 8)))
		(text "bradr" (rect 93 75 123 89)(font "Arial" (font_size 8)))
		(line (pt 144 80)(pt 128 80))
	)
	(port
		(pt 144 96)
		(output)
		(text "bropr" (rect 0 0 30 14)(font "Arial" (font_size 8)))
		(text "bropr" (rect 93 91 123 105)(font "Arial" (font_size 8)))
		(line (pt 144 96)(pt 128 96))
	)
	(drawing
		(rectangle (rect 16 16 128 336))
	)
)
(symbol
	(rect 464 136 512 168)
	(text "NOT" (rect 27 0 47 10)(font "Arial" (font_size 6)))
	(text "inst10" (rect 22 21 51 33)(font "Arial" ))
	(port
		(pt 48 16)
		(input)
		(text "IN" (rect 2 7 13 19)(font "Courier New" (bold))(invisible))
		(text "IN" (rect 35 7 46 19)(font "Courier New" (bold))(invisible))
		(line (pt 48 16)(pt 35 16))
	)
	(port
		(pt 0 16)
		(output)
		(text "OUT" (rect 32 7 49 19)(font "Courier New" (bold))(invisible))
		(text "OUT" (rect 2 7 19 19)(font "Courier New" (bold))(invisible))
		(line (pt 9 16)(pt 0 16))
	)
	(drawing
		(line (pt 35 25)(pt 35 7))
		(line (pt 35 7)(pt 17 16))
		(line (pt 35 25)(pt 17 16))
		(circle (rect 9 12 17 20))
	)
	(flipy)
)
(symbol
	(rect 48 552 216 1576)
	(text "UpravljackiSignaliOperacioneJedinice" (rect 5 0 215 14)(font "Arial" (font_size 8)))
	(text "inst9" (rect 8 1008 31 1020)(font "Arial" ))
	(port
		(pt 0 32)
		(input)
		(text "CW[59..0]" (rect 0 0 55 14)(font "Arial" (font_size 8)))
		(text "CW[59..0]" (rect 21 27 76 41)(font "Arial" (font_size 8)))
		(line (pt 0 32)(pt 16 32)(line_width 3))
	)
	(port
		(pt 168 32)
		(output)
		(text "read" (rect 0 0 25 14)(font "Arial" (font_size 8)))
		(text "read" (rect 122 27 147 41)(font "Arial" (font_size 8)))
		(line (pt 168 32)(pt 152 32))
	)
	(port
		(pt 168 48)
		(output)
		(text "write" (rect 0 0 29 14)(font "Arial" (font_size 8)))
		(text "write" (rect 118 43 147 57)(font "Arial" (font_size 8)))
		(line (pt 168 48)(pt 152 48))
	)
	(port
		(pt 168 64)
		(output)
		(text "intack" (rect 0 0 33 14)(font "Arial" (font_size 8)))
		(text "intack" (rect 114 59 147 73)(font "Arial" (font_size 8)))
		(line (pt 168 64)(pt 152 64))
	)
	(port
		(pt 168 80)
		(output)
		(text "MARout" (rect 0 0 44 14)(font "Arial" (font_size 8)))
		(text "MARout" (rect 103 75 147 89)(font "Arial" (font_size 8)))
		(line (pt 168 80)(pt 152 80))
	)
	(port
		(pt 168 96)
		(output)
		(text "MDRout" (rect 0 0 43 14)(font "Arial" (font_size 8)))
		(text "MDRout" (rect 104 91 147 105)(font "Arial" (font_size 8)))
		(line (pt 168 96)(pt 152 96))
	)
	(port
		(pt 168 112)
		(output)
		(text "MDRin" (rect 0 0 35 14)(font "Arial" (font_size 8)))
		(text "MDRin" (rect 112 107 147 121)(font "Arial" (font_size 8)))
		(line (pt 168 112)(pt 152 112))
	)
	(port
		(pt 168 128)
		(output)
		(text "ldMDR" (rect 0 0 35 14)(font "Arial" (font_size 8)))
		(text "ldMDR" (rect 112 123 147 137)(font "Arial" (font_size 8)))
		(line (pt 168 128)(pt 152 128))
	)
	(port
		(pt 168 144)
		(output)
		(text "incMAR" (rect 0 0 43 14)(font "Arial" (font_size 8)))
		(text "incMAR" (rect 104 139 147 153)(font "Arial" (font_size 8)))
		(line (pt 168 144)(pt 152 144))
	)
	(port
		(pt 168 160)
		(output)
		(text "ldMAR" (rect 0 0 36 14)(font "Arial" (font_size 8)))
		(text "ldMAR" (rect 111 155 147 169)(font "Arial" (font_size 8)))
		(line (pt 168 160)(pt 152 160))
	)
	(port
		(pt 168 176)
		(output)
		(text "incPC" (rect 0 0 31 14)(font "Arial" (font_size 8)))
		(text "incPC" (rect 116 171 147 185)(font "Arial" (font_size 8)))
		(line (pt 168 176)(pt 152 176))
	)
	(port
		(pt 168 192)
		(output)
		(text "ldPC" (rect 0 0 24 14)(font "Arial" (font_size 8)))
		(text "ldPC" (rect 123 187 147 201)(font "Arial" (font_size 8)))
		(line (pt 168 192)(pt 152 192))
	)
	(port
		(pt 168 208)
		(output)
		(text "ldIRH" (rect 0 0 28 14)(font "Arial" (font_size 8)))
		(text "ldIRH" (rect 119 203 147 217)(font "Arial" (font_size 8)))
		(line (pt 168 208)(pt 152 208))
	)
	(port
		(pt 168 224)
		(output)
		(text "ldIRL" (rect 0 0 27 14)(font "Arial" (font_size 8)))
		(text "ldIRL" (rect 120 219 147 233)(font "Arial" (font_size 8)))
		(line (pt 168 224)(pt 152 224))
	)
	(port
		(pt 168 240)
		(output)
		(text "IRHout" (rect 0 0 36 14)(font "Arial" (font_size 8)))
		(text "IRHout" (rect 111 235 147 249)(font "Arial" (font_size 8)))
		(line (pt 168 240)(pt 152 240))
	)
	(port
		(pt 168 256)
		(output)
		(text "IRLout" (rect 0 0 35 14)(font "Arial" (font_size 8)))
		(text "IRLout" (rect 112 251 147 265)(font "Arial" (font_size 8)))
		(line (pt 168 256)(pt 152 256))
	)
	(port
		(pt 168 272)
		(output)
		(text "PCout" (rect 0 0 33 14)(font "Arial" (font_size 8)))
		(text "PCout" (rect 114 267 147 281)(font "Arial" (font_size 8)))
		(line (pt 168 272)(pt 152 272))
	)
	(port
		(pt 168 288)
		(output)
		(text "ldPSW" (rect 0 0 36 14)(font "Arial" (font_size 8)))
		(text "ldPSW" (rect 111 283 147 297)(font "Arial" (font_size 8)))
		(line (pt 168 288)(pt 152 288))
	)
	(port
		(pt 168 304)
		(output)
		(text "stPSWI" (rect 0 0 40 14)(font "Arial" (font_size 8)))
		(text "stPSWI" (rect 107 299 147 313)(font "Arial" (font_size 8)))
		(line (pt 168 304)(pt 152 304))
	)
	(port
		(pt 168 320)
		(output)
		(text "clPSWI" (rect 0 0 38 14)(font "Arial" (font_size 8)))
		(text "clPSWI" (rect 109 315 147 329)(font "Arial" (font_size 8)))
		(line (pt 168 320)(pt 152 320))
	)
	(port
		(pt 168 336)
		(output)
		(text "stPSWT" (rect 0 0 44 14)(font "Arial" (font_size 8)))
		(text "stPSWT" (rect 103 331 147 345)(font "Arial" (font_size 8)))
		(line (pt 168 336)(pt 152 336))
	)
	(port
		(pt 168 352)
		(output)
		(text "clPSWT" (rect 0 0 43 14)(font "Arial" (font_size 8)))
		(text "clPSWT" (rect 104 347 147 361)(font "Arial" (font_size 8)))
		(line (pt 168 352)(pt 152 352))
	)
	(port
		(pt 168 368)
		(output)
		(text "ldN" (rect 0 0 17 14)(font "Arial" (font_size 8)))
		(text "ldN" (rect 130 363 147 377)(font "Arial" (font_size 8)))
		(line (pt 168 368)(pt 152 368))
	)
	(port
		(pt 168 384)
		(output)
		(text "ldZ" (rect 0 0 17 14)(font "Arial" (font_size 8)))
		(text "ldZ" (rect 130 379 147 393)(font "Arial" (font_size 8)))
		(line (pt 168 384)(pt 152 384))
	)
	(port
		(pt 168 400)
		(output)
		(text "ldV" (rect 0 0 18 14)(font "Arial" (font_size 8)))
		(text "ldV" (rect 129 395 147 409)(font "Arial" (font_size 8)))
		(line (pt 168 400)(pt 152 400))
	)
	(port
		(pt 168 416)
		(output)
		(text "ldC" (rect 0 0 17 14)(font "Arial" (font_size 8)))
		(text "ldC" (rect 130 411 147 425)(font "Arial" (font_size 8)))
		(line (pt 168 416)(pt 152 416))
	)
	(port
		(pt 168 432)
		(output)
		(text "ldL" (rect 0 0 16 14)(font "Arial" (font_size 8)))
		(text "ldL" (rect 131 427 147 441)(font "Arial" (font_size 8)))
		(line (pt 168 432)(pt 152 432))
	)
	(port
		(pt 168 448)
		(output)
		(text "PSWout" (rect 0 0 44 14)(font "Arial" (font_size 8)))
		(text "PSWout" (rect 103 443 147 457)(font "Arial" (font_size 8)))
		(line (pt 168 448)(pt 152 448))
	)
	(port
		(pt 168 464)
		(output)
		(text "clSTART" (rect 0 0 49 14)(font "Arial" (font_size 8)))
		(text "clSTART" (rect 98 459 147 473)(font "Arial" (font_size 8)))
		(line (pt 168 464)(pt 152 464))
	)
	(port
		(pt 168 480)
		(output)
		(text "ldAB" (rect 0 0 27 14)(font "Arial" (font_size 8)))
		(text "ldAB" (rect 120 475 147 489)(font "Arial" (font_size 8)))
		(line (pt 168 480)(pt 152 480))
	)
	(port
		(pt 168 496)
		(output)
		(text "SHR" (rect 0 0 24 14)(font "Arial" (font_size 8)))
		(text "SHR" (rect 123 491 147 505)(font "Arial" (font_size 8)))
		(line (pt 168 496)(pt 152 496))
	)
	(port
		(pt 168 512)
		(output)
		(text "SHL" (rect 0 0 23 14)(font "Arial" (font_size 8)))
		(text "SHL" (rect 124 507 147 521)(font "Arial" (font_size 8)))
		(line (pt 168 512)(pt 152 512))
	)
	(port
		(pt 168 528)
		(output)
		(text "ldBB" (rect 0 0 25 14)(font "Arial" (font_size 8)))
		(text "ldBB" (rect 122 523 147 537)(font "Arial" (font_size 8)))
		(line (pt 168 528)(pt 152 528))
	)
	(port
		(pt 168 544)
		(output)
		(text "ABout" (rect 0 0 35 14)(font "Arial" (font_size 8)))
		(text "ABout" (rect 112 539 147 553)(font "Arial" (font_size 8)))
		(line (pt 168 544)(pt 152 544))
	)
	(port
		(pt 168 560)
		(output)
		(text "BBout" (rect 0 0 34 14)(font "Arial" (font_size 8)))
		(text "BBout" (rect 113 555 147 569)(font "Arial" (font_size 8)))
		(line (pt 168 560)(pt 152 560))
	)
	(port
		(pt 168 576)
		(output)
		(text "ALUout" (rect 0 0 42 14)(font "Arial" (font_size 8)))
		(text "ALUout" (rect 105 571 147 585)(font "Arial" (font_size 8)))
		(line (pt 168 576)(pt 152 576))
	)
	(port
		(pt 168 592)
		(output)
		(text "ldX" (rect 0 0 17 14)(font "Arial" (font_size 8)))
		(text "ldX" (rect 130 587 147 601)(font "Arial" (font_size 8)))
		(line (pt 168 592)(pt 152 592))
	)
	(port
		(pt 168 608)
		(output)
		(text "ldY" (rect 0 0 18 14)(font "Arial" (font_size 8)))
		(text "ldY" (rect 129 603 147 617)(font "Arial" (font_size 8)))
		(line (pt 168 608)(pt 152 608))
	)
	(port
		(pt 168 624)
		(output)
		(text "ldGPRAR" (rect 0 0 51 14)(font "Arial" (font_size 8)))
		(text "ldGPRAR" (rect 96 619 147 633)(font "Arial" (font_size 8)))
		(line (pt 168 624)(pt 152 624))
	)
	(port
		(pt 168 640)
		(output)
		(text "incGPRAR" (rect 0 0 59 14)(font "Arial" (font_size 8)))
		(text "incGPRAR" (rect 88 635 147 649)(font "Arial" (font_size 8)))
		(line (pt 168 640)(pt 152 640))
	)
	(port
		(pt 168 656)
		(output)
		(text "ldGPR" (rect 0 0 34 14)(font "Arial" (font_size 8)))
		(text "ldGPR" (rect 113 651 147 665)(font "Arial" (font_size 8)))
		(line (pt 168 656)(pt 152 656))
	)
	(port
		(pt 168 672)
		(output)
		(text "GPRout" (rect 0 0 42 14)(font "Arial" (font_size 8)))
		(text "GPRout" (rect 105 667 147 681)(font "Arial" (font_size 8)))
		(line (pt 168 672)(pt 152 672))
	)
	(port
		(pt 168 688)
		(output)
		(text "ldSP" (rect 0 0 24 14)(font "Arial" (font_size 8)))
		(text "ldSP" (rect 123 683 147 697)(font "Arial" (font_size 8)))
		(line (pt 168 688)(pt 152 688))
	)
	(port
		(pt 168 704)
		(output)
		(text "incSP" (rect 0 0 31 14)(font "Arial" (font_size 8)))
		(text "incSP" (rect 116 699 147 713)(font "Arial" (font_size 8)))
		(line (pt 168 704)(pt 152 704))
	)
	(port
		(pt 168 720)
		(output)
		(text "decSP" (rect 0 0 36 14)(font "Arial" (font_size 8)))
		(text "decSP" (rect 111 715 147 729)(font "Arial" (font_size 8)))
		(line (pt 168 720)(pt 152 720))
	)
	(port
		(pt 168 736)
		(output)
		(text "SPout" (rect 0 0 33 14)(font "Arial" (font_size 8)))
		(text "SPout" (rect 114 731 147 745)(font "Arial" (font_size 8)))
		(line (pt 168 736)(pt 152 736))
	)
	(port
		(pt 168 752)
		(output)
		(text "stPRINS" (rect 0 0 44 14)(font "Arial" (font_size 8)))
		(text "stPRINS" (rect 103 747 147 761)(font "Arial" (font_size 8)))
		(line (pt 168 752)(pt 152 752))
	)
	(port
		(pt 168 768)
		(output)
		(text "clPRINS" (rect 0 0 43 14)(font "Arial" (font_size 8)))
		(text "clPRINS" (rect 104 763 147 777)(font "Arial" (font_size 8)))
		(line (pt 168 768)(pt 152 768))
	)
	(port
		(pt 168 784)
		(output)
		(text "stPRCOD" (rect 0 0 51 14)(font "Arial" (font_size 8)))
		(text "stPRCOD" (rect 96 779 147 793)(font "Arial" (font_size 8)))
		(line (pt 168 784)(pt 152 784))
	)
	(port
		(pt 168 800)
		(output)
		(text "clPRCOD" (rect 0 0 50 14)(font "Arial" (font_size 8)))
		(text "clPRCOD" (rect 97 795 147 809)(font "Arial" (font_size 8)))
		(line (pt 168 800)(pt 152 800))
	)
	(port
		(pt 168 816)
		(output)
		(text "stPRADR" (rect 0 0 51 14)(font "Arial" (font_size 8)))
		(text "stPRADR" (rect 96 811 147 825)(font "Arial" (font_size 8)))
		(line (pt 168 816)(pt 152 816))
	)
	(port
		(pt 168 832)
		(output)
		(text "clPRADR" (rect 0 0 50 14)(font "Arial" (font_size 8)))
		(text "clPRADR" (rect 97 827 147 841)(font "Arial" (font_size 8)))
		(line (pt 168 832)(pt 152 832))
	)
	(port
		(pt 168 848)
		(output)
		(text "clPRINM" (rect 0 0 44 14)(font "Arial" (font_size 8)))
		(text "clPRINM" (rect 103 843 147 857)(font "Arial" (font_size 8)))
		(line (pt 168 848)(pt 152 848))
	)
	(port
		(pt 168 864)
		(output)
		(text "clINTR" (rect 0 0 35 14)(font "Arial" (font_size 8)))
		(text "clINTR" (rect 112 859 147 873)(font "Arial" (font_size 8)))
		(line (pt 168 864)(pt 152 864))
	)
	(port
		(pt 168 880)
		(output)
		(text "ldBR" (rect 0 0 25 14)(font "Arial" (font_size 8)))
		(text "ldBR" (rect 122 875 147 889)(font "Arial" (font_size 8)))
		(line (pt 168 880)(pt 152 880))
	)
	(port
		(pt 168 896)
		(output)
		(text "ldIVTP" (rect 0 0 35 14)(font "Arial" (font_size 8)))
		(text "ldIVTP" (rect 112 891 147 905)(font "Arial" (font_size 8)))
		(line (pt 168 896)(pt 152 896))
	)
	(port
		(pt 168 912)
		(output)
		(text "UEXTout" (rect 0 0 48 14)(font "Arial" (font_size 8)))
		(text "UEXTout" (rect 99 907 147 921)(font "Arial" (font_size 8)))
		(line (pt 168 912)(pt 152 912))
	)
	(port
		(pt 168 928)
		(output)
		(text "UINTout" (rect 0 0 43 14)(font "Arial" (font_size 8)))
		(text "UINTout" (rect 104 923 147 937)(font "Arial" (font_size 8)))
		(line (pt 168 928)(pt 152 928))
	)
	(port
		(pt 168 944)
		(output)
		(text "IVTDSPout" (rect 0 0 60 14)(font "Arial" (font_size 8)))
		(text "IVTDSPout" (rect 87 939 147 953)(font "Arial" (font_size 8)))
		(line (pt 168 944)(pt 152 944))
	)
	(port
		(pt 168 960)
		(output)
		(text "IVTPout" (rect 0 0 43 14)(font "Arial" (font_size 8)))
		(text "IVTPout" (rect 104 955 147 969)(font "Arial" (font_size 8)))
		(line (pt 168 960)(pt 152 960))
	)
	(port
		(pt 168 976)
		(output)
		(text "ADDupr" (rect 0 0 44 14)(font "Arial" (font_size 8)))
		(text "ADDupr" (rect 103 971 147 985)(font "Arial" (font_size 8)))
		(line (pt 168 976)(pt 152 976))
	)
	(drawing
		(rectangle (rect 16 16 152 1008))
	)
)
(symbol
	(rect -208 -128 -64 0)
	(text "KMADR" (rect 5 0 48 14)(font "Arial" (font_size 8)))
	(text "inst7" (rect 8 112 31 124)(font "Arial" ))
	(port
		(pt 0 32)
		(input)
		(text "regdir" (rect 0 0 33 14)(font "Arial" (font_size 8)))
		(text "regdir" (rect 21 27 54 41)(font "Arial" (font_size 8)))
		(line (pt 0 32)(pt 16 32))
	)
	(port
		(pt 0 48)
		(input)
		(text "regind" (rect 0 0 35 14)(font "Arial" (font_size 8)))
		(text "regind" (rect 21 43 56 57)(font "Arial" (font_size 8)))
		(line (pt 0 48)(pt 16 48))
	)
	(port
		(pt 0 64)
		(input)
		(text "memdir" (rect 0 0 40 14)(font "Arial" (font_size 8)))
		(text "memdir" (rect 21 59 61 73)(font "Arial" (font_size 8)))
		(line (pt 0 64)(pt 16 64))
	)
	(port
		(pt 0 80)
		(input)
		(text "memind" (rect 0 0 42 14)(font "Arial" (font_size 8)))
		(text "memind" (rect 21 75 63 89)(font "Arial" (font_size 8)))
		(line (pt 0 80)(pt 16 80))
	)
	(port
		(pt 0 96)
		(input)
		(text "immed" (rect 0 0 35 14)(font "Arial" (font_size 8)))
		(text "immed" (rect 21 91 56 105)(font "Arial" (font_size 8)))
		(line (pt 0 96)(pt 16 96))
	)
	(port
		(pt 144 32)
		(output)
		(text "adr[6..0]" (rect 0 0 47 14)(font "Arial" (font_size 8)))
		(text "adr[6..0]" (rect 76 27 123 41)(font "Arial" (font_size 8)))
		(line (pt 144 32)(pt 128 32)(line_width 3))
	)
	(drawing
		(rectangle (rect 16 16 128 112))
	)
)
(symbol
	(rect 80 -88 280 72)
	(text "MP4X" (rect 5 0 36 14)(font "Arial" (font_size 8)))
	(text "inst5" (rect 8 144 31 156)(font "Arial" ))
	(port
		(pt 0 32)
		(input)
		(text "S0" (rect 0 0 15 14)(font "Arial" (font_size 8)))
		(text "S0" (rect 21 27 36 41)(font "Arial" (font_size 8)))
		(line (pt 0 32)(pt 16 32))
	)
	(port
		(pt 0 48)
		(input)
		(text "S1" (rect 0 0 15 14)(font "Arial" (font_size 8)))
		(text "S1" (rect 21 43 36 57)(font "Arial" (font_size 8)))
		(line (pt 0 48)(pt 16 48))
	)
	(port
		(pt 0 64)
		(input)
		(text "X0_[size-1..0]" (rect 0 0 79 14)(font "Arial" (font_size 8)))
		(text "X0_[size-1..0]" (rect 21 59 100 73)(font "Arial" (font_size 8)))
		(line (pt 0 64)(pt 16 64)(line_width 3))
	)
	(port
		(pt 0 80)
		(input)
		(text "X1_[size-1..0]" (rect 0 0 79 14)(font "Arial" (font_size 8)))
		(text "X1_[size-1..0]" (rect 21 75 100 89)(font "Arial" (font_size 8)))
		(line (pt 0 80)(pt 16 80)(line_width 3))
	)
	(port
		(pt 0 96)
		(input)
		(text "X2_[size-1..0]" (rect 0 0 79 14)(font "Arial" (font_size 8)))
		(text "X2_[size-1..0]" (rect 21 91 100 105)(font "Arial" (font_size 8)))
		(line (pt 0 96)(pt 16 96)(line_width 3))
	)
	(port
		(pt 0 112)
		(input)
		(text "X3_[size-1..0]" (rect 0 0 79 14)(font "Arial" (font_size 8)))
		(text "X3_[size-1..0]" (rect 21 107 100 121)(font "Arial" (font_size 8)))
		(line (pt 0 112)(pt 16 112)(line_width 3))
	)
	(port
		(pt 200 32)
		(output)
		(text "Y[size-1..0]" (rect 0 0 66 14)(font "Arial" (font_size 8)))
		(text "Y[size-1..0]" (rect 113 27 179 41)(font "Arial" (font_size 8)))
		(line (pt 200 32)(pt 184 32)(line_width 3))
	)
	(parameter
		"size"
		"7"
		""
		(type "PARAMETER_SIGNED_DEC")	)
	(drawing
		(rectangle (rect 16 16 184 144))
	)
	(annotation_block (parameter)(rect 280 -120 462 -92))
)
(symbol
	(rect 216 120 448 200)
	(text "REGX" (rect 5 0 34 12)(font "Arial" ))
	(text "inst" (rect 8 64 25 76)(font "Arial" ))
	(port
		(pt 0 24)
		(input)
		(text "clk" (rect 0 0 14 12)(font "Arial" ))
		(text "clk" (rect 21 19 35 31)(font "Arial" ))
		(line (pt 0 24)(pt 16 24))
	)
	(port
		(pt 0 40)
		(input)
		(text "ld" (rect 0 0 8 12)(font "Arial" ))
		(text "ld" (rect 21 35 29 47)(font "Arial" ))
		(line (pt 0 40)(pt 16 40))
	)
	(port
		(pt 0 56)
		(input)
		(text "cl" (rect 0 0 8 12)(font "Arial" ))
		(text "cl" (rect 21 51 29 63)(font "Arial" ))
		(line (pt 0 56)(pt 16 56))
	)
	(port
		(pt 232 32)
		(input)
		(text "inc" (rect 0 0 14 12)(font "Arial" ))
		(text "inc" (rect 193 24 207 36)(font "Arial" ))
		(line (pt 216 32)(pt 232 32))
	)
	(port
		(pt 232 48)
		(input)
		(text "dec" (rect 0 0 17 12)(font "Arial" ))
		(text "dec" (rect 190 40 207 52)(font "Arial" ))
		(line (pt 216 48)(pt 232 48))
	)
	(port
		(pt 112 0)
		(input)
		(text "data_in[size-1..0]" (rect 0 0 83 12)(font "Arial" ))
		(text "DIN" (rect 104 16 124 28)(font "Arial" ))
		(line (pt 112 0)(pt 112 16)(line_width 3))
	)
	(port
		(pt 112 80)
		(output)
		(text "data_out[size-1..0]" (rect 0 -64 90 -52)(font "Arial" ))
		(text "  DOUT" (rect 96 48 133 60)(font "Arial" ))
		(line (pt 112 80)(pt 112 64)(line_width 3))
	)
	(parameter
		"size"
		"7"
		""
		(type "PARAMETER_SIGNED_DEC")	)
	(parameter
		"default_value"
		"0"
		""
		(type "PARAMETER_SIGNED_DEC")	)
	(drawing
		(text "REGISTAR" (rect 88 32 150 46)(font "Arial" (color 0 0 0)(font_size 8)(bold)))
		(rectangle (rect 16 16 216 64))
	)
	(annotation_block (parameter)(rect 448 72 645 114))
)
(symbol
	(rect 296 280 392 480)
	(text "mMEM" (rect 0 5 14 40)(font "Arial" (font_size 8))(vertical))
	(text "inst11" (rect 80 8 92 37)(font "Arial" )(vertical))
	(port
		(pt 32 0)
		(input)
		(text "ADDRESS[6..0]" (rect 0 0 86 14)(font "Arial" (font_size 8)))
		(text "ADDRESS[6..0]" (rect 27 21 41 107)(font "Arial" (font_size 8))(vertical))
		(line (pt 32 0)(pt 32 16)(line_width 3))
	)
	(port
		(pt 48 0)
		(input)
		(text "CLK" (rect 0 0 23 14)(font "Arial" (font_size 8)))
		(text "CLK" (rect 43 21 57 44)(font "Arial" (font_size 8))(vertical))
		(line (pt 48 0)(pt 48 16))
	)
	(port
		(pt 32 200)
		(output)
		(text "OUT[71..0]" (rect 0 0 60 14)(font "Arial" (font_size 8)))
		(text "OUT[71..0]" (rect 27 119 41 179)(font "Arial" (font_size 8))(vertical))
		(line (pt 32 200)(pt 32 184)(line_width 3))
	)
	(drawing
		(rectangle (rect 16 16 80 184))
	)
	(flipy_rotate90)
)
(symbol
	(rect -8 120 48 176)
	(text "CONSTX" (rect 5 0 48 12)(font "Arial" ))
	(text "inst1" (rect 8 40 31 52)(font "Arial" ))
	(port
		(pt 56 32)
		(output)
		(text "data[size-1..0]" (rect -96 0 -27 12)(font "Arial" ))
		(text "c" (rect 25 27 30 39)(font "Arial" )(invisible))
		(line (pt 56 32)(pt 40 32)(line_width 3))
	)
	(parameter
		"size"
		"7"
		""
		(type "PARAMETER_SIGNED_DEC")	)
	(parameter
		"const"
		"0"
		""
		(type "PARAMETER_SIGNED_DEC")	)
	(drawing
		(rectangle (rect 24 24 40 40)(fill (color 218 218 218)))
	)
	(annotation_block (parameter)(rect -8 176 174 218))
)
(symbol
	(rect -216 16 -64 784)
	(text "KMOPR" (rect 5 0 47 14)(font "Arial" (font_size 8)))
	(text "inst8" (rect 8 752 31 764)(font "Arial" ))
	(port
		(pt 0 32)
		(input)
		(text "LD" (rect 0 0 15 14)(font "Arial" (font_size 8)))
		(text "LD" (rect 21 27 36 41)(font "Arial" (font_size 8)))
		(line (pt 0 32)(pt 16 32))
	)
	(port
		(pt 0 48)
		(input)
		(text "ST" (rect 0 0 15 14)(font "Arial" (font_size 8)))
		(text "ST" (rect 21 43 36 57)(font "Arial" (font_size 8)))
		(line (pt 0 48)(pt 16 48))
	)
	(port
		(pt 0 64)
		(input)
		(text "ADD" (rect 0 0 25 14)(font "Arial" (font_size 8)))
		(text "ADD" (rect 21 59 46 73)(font "Arial" (font_size 8)))
		(line (pt 0 64)(pt 16 64))
	)
	(port
		(pt 0 80)
		(input)
		(text "SUB" (rect 0 0 24 14)(font "Arial" (font_size 8)))
		(text "SUB" (rect 21 75 45 89)(font "Arial" (font_size 8)))
		(line (pt 0 80)(pt 16 80))
	)
	(port
		(pt 0 96)
		(input)
		(text "AND" (rect 0 0 25 14)(font "Arial" (font_size 8)))
		(text "AND" (rect 21 91 46 105)(font "Arial" (font_size 8)))
		(line (pt 0 96)(pt 16 96))
	)
	(port
		(pt 0 112)
		(input)
		(text "OR" (rect 0 0 17 14)(font "Arial" (font_size 8)))
		(text "OR" (rect 21 107 38 121)(font "Arial" (font_size 8)))
		(line (pt 0 112)(pt 16 112))
	)
	(port
		(pt 0 128)
		(input)
		(text "XOR" (rect 0 0 25 14)(font "Arial" (font_size 8)))
		(text "XOR" (rect 21 123 46 137)(font "Arial" (font_size 8)))
		(line (pt 0 128)(pt 16 128))
	)
	(port
		(pt 0 144)
		(input)
		(text "NOT" (rect 0 0 24 14)(font "Arial" (font_size 8)))
		(text "NOT" (rect 21 139 45 153)(font "Arial" (font_size 8)))
		(line (pt 0 144)(pt 16 144))
	)
	(port
		(pt 0 160)
		(input)
		(text "PUSH" (rect 0 0 31 14)(font "Arial" (font_size 8)))
		(text "PUSH" (rect 21 155 52 169)(font "Arial" (font_size 8)))
		(line (pt 0 160)(pt 16 160))
	)
	(port
		(pt 0 176)
		(input)
		(text "POP" (rect 0 0 23 14)(font "Arial" (font_size 8)))
		(text "POP" (rect 21 171 44 185)(font "Arial" (font_size 8)))
		(line (pt 0 176)(pt 16 176))
	)
	(port
		(pt 0 192)
		(input)
		(text "INC" (rect 0 0 18 14)(font "Arial" (font_size 8)))
		(text "INC" (rect 21 187 39 201)(font "Arial" (font_size 8)))
		(line (pt 0 192)(pt 16 192))
	)
	(port
		(pt 0 208)
		(input)
		(text "DEC" (rect 0 0 23 14)(font "Arial" (font_size 8)))
		(text "DEC" (rect 21 203 44 217)(font "Arial" (font_size 8)))
		(line (pt 0 208)(pt 16 208))
	)
	(port
		(pt 0 224)
		(input)
		(text "RTI" (rect 0 0 17 14)(font "Arial" (font_size 8)))
		(text "RTI" (rect 21 219 38 233)(font "Arial" (font_size 8)))
		(line (pt 0 224)(pt 16 224))
	)
	(port
		(pt 0 240)
		(input)
		(text "RTS" (rect 0 0 23 14)(font "Arial" (font_size 8)))
		(text "RTS" (rect 21 235 44 249)(font "Arial" (font_size 8)))
		(line (pt 0 240)(pt 16 240))
	)
	(port
		(pt 0 256)
		(input)
		(text "ASR" (rect 0 0 25 14)(font "Arial" (font_size 8)))
		(text "ASR" (rect 21 251 46 265)(font "Arial" (font_size 8)))
		(line (pt 0 256)(pt 16 256))
	)
	(port
		(pt 0 272)
		(input)
		(text "LSR" (rect 0 0 23 14)(font "Arial" (font_size 8)))
		(text "LSR" (rect 21 267 44 281)(font "Arial" (font_size 8)))
		(line (pt 0 272)(pt 16 272))
	)
	(port
		(pt 0 288)
		(input)
		(text "ROR" (rect 0 0 25 14)(font "Arial" (font_size 8)))
		(text "ROR" (rect 21 283 46 297)(font "Arial" (font_size 8)))
		(line (pt 0 288)(pt 16 288))
	)
	(port
		(pt 0 304)
		(input)
		(text "RORC" (rect 0 0 34 14)(font "Arial" (font_size 8)))
		(text "RORC" (rect 21 299 55 313)(font "Arial" (font_size 8)))
		(line (pt 0 304)(pt 16 304))
	)
	(port
		(pt 0 320)
		(input)
		(text "ASL" (rect 0 0 24 14)(font "Arial" (font_size 8)))
		(text "ASL" (rect 21 315 45 329)(font "Arial" (font_size 8)))
		(line (pt 0 320)(pt 16 320))
	)
	(port
		(pt 0 336)
		(input)
		(text "LSL" (rect 0 0 22 14)(font "Arial" (font_size 8)))
		(text "LSL" (rect 21 331 43 345)(font "Arial" (font_size 8)))
		(line (pt 0 336)(pt 16 336))
	)
	(port
		(pt 0 352)
		(input)
		(text "ROL" (rect 0 0 24 14)(font "Arial" (font_size 8)))
		(text "ROL" (rect 21 347 45 361)(font "Arial" (font_size 8)))
		(line (pt 0 352)(pt 16 352))
	)
	(port
		(pt 0 368)
		(input)
		(text "ROLC" (rect 0 0 33 14)(font "Arial" (font_size 8)))
		(text "ROLC" (rect 21 363 54 377)(font "Arial" (font_size 8)))
		(line (pt 0 368)(pt 16 368))
	)
	(port
		(pt 0 384)
		(input)
		(text "INTE" (rect 0 0 24 14)(font "Arial" (font_size 8)))
		(text "INTE" (rect 21 379 45 393)(font "Arial" (font_size 8)))
		(line (pt 0 384)(pt 16 384))
	)
	(port
		(pt 0 400)
		(input)
		(text "INTD" (rect 0 0 25 14)(font "Arial" (font_size 8)))
		(text "INTD" (rect 21 395 46 409)(font "Arial" (font_size 8)))
		(line (pt 0 400)(pt 16 400))
	)
	(port
		(pt 0 416)
		(input)
		(text "HALT" (rect 0 0 31 14)(font "Arial" (font_size 8)))
		(text "HALT" (rect 21 411 52 425)(font "Arial" (font_size 8)))
		(line (pt 0 416)(pt 16 416))
	)
	(port
		(pt 0 432)
		(input)
		(text "INT" (rect 0 0 17 14)(font "Arial" (font_size 8)))
		(text "INT" (rect 21 427 38 441)(font "Arial" (font_size 8)))
		(line (pt 0 432)(pt 16 432))
	)
	(port
		(pt 0 448)
		(input)
		(text "BEQL" (rect 0 0 31 14)(font "Arial" (font_size 8)))
		(text "BEQL" (rect 21 443 52 457)(font "Arial" (font_size 8)))
		(line (pt 0 448)(pt 16 448))
	)
	(port
		(pt 0 464)
		(input)
		(text "BNEQL" (rect 0 0 40 14)(font "Arial" (font_size 8)))
		(text "BNEQL" (rect 21 459 61 473)(font "Arial" (font_size 8)))
		(line (pt 0 464)(pt 16 464))
	)
	(port
		(pt 0 480)
		(input)
		(text "BNEG" (rect 0 0 33 14)(font "Arial" (font_size 8)))
		(text "BNEG" (rect 21 475 54 489)(font "Arial" (font_size 8)))
		(line (pt 0 480)(pt 16 480))
	)
	(port
		(pt 0 496)
		(input)
		(text "BNNEG" (rect 0 0 41 14)(font "Arial" (font_size 8)))
		(text "BNNEG" (rect 21 491 62 505)(font "Arial" (font_size 8)))
		(line (pt 0 496)(pt 16 496))
	)
	(port
		(pt 0 512)
		(input)
		(text "BOVF" (rect 0 0 34 14)(font "Arial" (font_size 8)))
		(text "BOVF" (rect 21 507 55 521)(font "Arial" (font_size 8)))
		(line (pt 0 512)(pt 16 512))
	)
	(port
		(pt 0 528)
		(input)
		(text "BNOVF" (rect 0 0 42 14)(font "Arial" (font_size 8)))
		(text "BNOVF" (rect 21 523 63 537)(font "Arial" (font_size 8)))
		(line (pt 0 528)(pt 16 528))
	)
	(port
		(pt 0 544)
		(input)
		(text "BCAR" (rect 0 0 34 14)(font "Arial" (font_size 8)))
		(text "BCAR" (rect 21 539 55 553)(font "Arial" (font_size 8)))
		(line (pt 0 544)(pt 16 544))
	)
	(port
		(pt 0 560)
		(input)
		(text "BNCAR" (rect 0 0 42 14)(font "Arial" (font_size 8)))
		(text "BNCAR" (rect 21 555 63 569)(font "Arial" (font_size 8)))
		(line (pt 0 560)(pt 16 560))
	)
	(port
		(pt 0 576)
		(input)
		(text "BGRT" (rect 0 0 33 14)(font "Arial" (font_size 8)))
		(text "BGRT" (rect 21 571 54 585)(font "Arial" (font_size 8)))
		(line (pt 0 576)(pt 16 576))
	)
	(port
		(pt 0 592)
		(input)
		(text "BGRTE" (rect 0 0 40 14)(font "Arial" (font_size 8)))
		(text "BGRTE" (rect 21 587 61 601)(font "Arial" (font_size 8)))
		(line (pt 0 592)(pt 16 592))
	)
	(port
		(pt 0 608)
		(input)
		(text "BLSS" (rect 0 0 31 14)(font "Arial" (font_size 8)))
		(text "BLSS" (rect 21 603 52 617)(font "Arial" (font_size 8)))
		(line (pt 0 608)(pt 16 608))
	)
	(port
		(pt 0 624)
		(input)
		(text "BLSSE" (rect 0 0 38 14)(font "Arial" (font_size 8)))
		(text "BLSSE" (rect 21 619 59 633)(font "Arial" (font_size 8)))
		(line (pt 0 624)(pt 16 624))
	)
	(port
		(pt 0 640)
		(input)
		(text "BGRTU" (rect 0 0 41 14)(font "Arial" (font_size 8)))
		(text "BGRTU" (rect 21 635 62 649)(font "Arial" (font_size 8)))
		(line (pt 0 640)(pt 16 640))
	)
	(port
		(pt 0 656)
		(input)
		(text "BGRTEU" (rect 0 0 48 14)(font "Arial" (font_size 8)))
		(text "BGRTEU" (rect 21 651 69 665)(font "Arial" (font_size 8)))
		(line (pt 0 656)(pt 16 656))
	)
	(port
		(pt 0 672)
		(input)
		(text "BLSSU" (rect 0 0 40 14)(font "Arial" (font_size 8)))
		(text "BLSSU" (rect 21 667 61 681)(font "Arial" (font_size 8)))
		(line (pt 0 672)(pt 16 672))
	)
	(port
		(pt 0 688)
		(input)
		(text "BLSSEU" (rect 0 0 47 14)(font "Arial" (font_size 8)))
		(text "BLSSEU" (rect 21 683 68 697)(font "Arial" (font_size 8)))
		(line (pt 0 688)(pt 16 688))
	)
	(port
		(pt 0 704)
		(input)
		(text "JSR" (rect 0 0 22 14)(font "Arial" (font_size 8)))
		(text "JSR" (rect 21 699 43 713)(font "Arial" (font_size 8)))
		(line (pt 0 704)(pt 16 704))
	)
	(port
		(pt 0 720)
		(input)
		(text "JMP" (rect 0 0 22 14)(font "Arial" (font_size 8)))
		(text "JMP" (rect 21 715 43 729)(font "Arial" (font_size 8)))
		(line (pt 0 720)(pt 16 720))
	)
	(port
		(pt 152 32)
		(output)
		(text "opr[6..0]" (rect 0 0 47 14)(font "Arial" (font_size 8)))
		(text "opr[6..0]" (rect 84 27 131 41)(font "Arial" (font_size 8)))
		(line (pt 152 32)(pt 136 32)(line_width 3))
	)
	(drawing
		(rectangle (rect 16 16 136 752))
	)
)
(connector
	(text "clk" (rect 184 128 198 140)(font "Arial" ))
	(pt 192 144)
	(pt 216 144)
)
(connector
	(text "bradr" (rect 40 -72 64 -60)(font "Arial" ))
	(pt 80 -56)
	(pt 32 -56)
)
(connector
	(text "bropr" (rect 40 -56 64 -44)(font "Arial" ))
	(pt 80 -40)
	(pt 32 -40)
)
(connector
	(pt 80 24)
	(pt 64 24)
	(bus)
)
(connector
	(pt -32 -96)
	(pt -32 -8)
	(bus)
)
(connector
	(pt -32 -96)
	(pt -64 -96)
	(bus)
)
(connector
	(pt -32 8)
	(pt -32 48)
	(bus)
)
(connector
	(pt -32 48)
	(pt -64 48)
	(bus)
)
(connector
	(pt -216 448)
	(pt -384 448)
)
(connector
	(pt -216 464)
	(pt -376 464)
)
(connector
	(pt -216 480)
	(pt -368 480)
)
(connector
	(pt -216 496)
	(pt -360 496)
)
(connector
	(pt -216 512)
	(pt -352 512)
)
(connector
	(pt -216 528)
	(pt -344 528)
)
(connector
	(pt -216 544)
	(pt -336 544)
)
(connector
	(pt -216 560)
	(pt -328 560)
)
(connector
	(pt -216 576)
	(pt -320 576)
)
(connector
	(pt -216 592)
	(pt -312 592)
)
(connector
	(pt -216 608)
	(pt -304 608)
)
(connector
	(pt -216 624)
	(pt -296 624)
)
(connector
	(pt -216 640)
	(pt -288 640)
)
(connector
	(pt -216 656)
	(pt -280 656)
)
(connector
	(pt -216 672)
	(pt -272 672)
)
(connector
	(pt -216 688)
	(pt -264 688)
)
(connector
	(pt -216 704)
	(pt -256 704)
)
(connector
	(pt -216 720)
	(pt -248 720)
)
(connector
	(pt -216 736)
	(pt -240 736)
)
(connector
	(pt -216 416)
	(pt -400 416)
)
(connector
	(pt -216 432)
	(pt -392 432)
)
(connector
	(pt -8 -24)
	(pt -8 -240)
	(bus)
)
(connector
	(pt 1144 -376)
	(pt -184 -376)
)
(connector
	(pt 1136 -360)
	(pt -184 -360)
)
(connector
	(pt 1128 -344)
	(pt -184 -344)
)
(connector
	(pt 1120 -328)
	(pt -184 -328)
)
(connector
	(pt 1112 -312)
	(pt -184 -312)
)
(connector
	(pt 1104 -296)
	(pt -184 -296)
)
(connector
	(pt 1096 -280)
	(pt -184 -280)
)
(connector
	(pt -184 -392)
	(pt 1152 -392)
)
(connector
	(pt -216 48)
	(pt -232 48)
)
(connector
	(pt -216 64)
	(pt -232 64)
)
(connector
	(pt -216 80)
	(pt -232 80)
)
(connector
	(pt -216 96)
	(pt -232 96)
)
(connector
	(pt -216 112)
	(pt -232 112)
)
(connector
	(pt -216 128)
	(pt -232 128)
)
(connector
	(pt -216 144)
	(pt -232 144)
)
(connector
	(pt -216 160)
	(pt -232 160)
)
(connector
	(pt -216 176)
	(pt -232 176)
)
(connector
	(pt -216 192)
	(pt -232 192)
)
(connector
	(pt -216 208)
	(pt -232 208)
)
(connector
	(pt -216 224)
	(pt -232 224)
)
(connector
	(pt -216 400)
	(pt -408 400)
)
(connector
	(pt -232 272)
	(pt -216 272)
)
(connector
	(pt -232 288)
	(pt -216 288)
)
(connector
	(pt -232 304)
	(pt -216 304)
)
(connector
	(pt -232 320)
	(pt -216 320)
)
(connector
	(pt -232 336)
	(pt -216 336)
)
(connector
	(pt -232 352)
	(pt -216 352)
)
(connector
	(pt -232 368)
	(pt -216 368)
)
(connector
	(pt -232 384)
	(pt -216 384)
)
(connector
	(pt -216 240)
	(pt -432 240)
)
(connector
	(pt -400 416)
	(pt -400 456)
)
(connector
	(pt -384 448)
	(pt -384 480)
)
(connector
	(pt -392 432)
	(pt -392 504)
)
(connector
	(pt -376 464)
	(pt -376 528)
)
(connector
	(pt -368 480)
	(pt -368 544)
)
(connector
	(pt -360 496)
	(pt -360 560)
)
(connector
	(pt -352 512)
	(pt -352 576)
)
(connector
	(pt -344 528)
	(pt -344 592)
)
(connector
	(pt -336 544)
	(pt -336 608)
)
(connector
	(pt -328 560)
	(pt -328 624)
)
(connector
	(pt -320 576)
	(pt -320 640)
)
(connector
	(pt -312 592)
	(pt -312 656)
)
(connector
	(pt -304 608)
	(pt -304 672)
)
(connector
	(pt -296 624)
	(pt -296 688)
)
(connector
	(pt -288 640)
	(pt -288 704)
)
(connector
	(pt -280 656)
	(pt -280 720)
)
(connector
	(pt -272 672)
	(pt -272 736)
)
(connector
	(pt -264 688)
	(pt -264 752)
)
(connector
	(pt -256 704)
	(pt -256 768)
)
(connector
	(pt -248 720)
	(pt -248 784)
)
(connector
	(pt -240 736)
	(pt -240 800)
)
(connector
	(pt -408 400)
	(pt -408 440)
)
(connector
	(pt -440 440)
	(pt -408 440)
)
(connector
	(pt -440 456)
	(pt -400 456)
)
(connector
	(pt -440 504)
	(pt -392 504)
)
(connector
	(pt -440 480)
	(pt -384 480)
)
(connector
	(pt -440 528)
	(pt -376 528)
)
(connector
	(pt -440 544)
	(pt -368 544)
)
(connector
	(pt -440 560)
	(pt -360 560)
)
(connector
	(pt -440 576)
	(pt -352 576)
)
(connector
	(pt -440 592)
	(pt -344 592)
)
(connector
	(pt -440 608)
	(pt -336 608)
)
(connector
	(pt -440 624)
	(pt -328 624)
)
(connector
	(pt -440 640)
	(pt -320 640)
)
(connector
	(pt -440 656)
	(pt -312 656)
)
(connector
	(pt -440 672)
	(pt -304 672)
)
(connector
	(pt -440 688)
	(pt -296 688)
)
(connector
	(pt -440 704)
	(pt -288 704)
)
(connector
	(pt -440 720)
	(pt -280 720)
)
(connector
	(pt -440 736)
	(pt -272 736)
)
(connector
	(pt -440 752)
	(pt -264 752)
)
(connector
	(pt -440 768)
	(pt -256 768)
)
(connector
	(pt -440 784)
	(pt -248 784)
)
(connector
	(pt -440 800)
	(pt -240 800)
)
(connector
	(pt -216 256)
	(pt -424 256)
)
(connector
	(pt -424 416)
	(pt -424 256)
)
(connector
	(pt -424 416)
	(pt -440 416)
)
(connector
	(pt -304 -96)
	(pt -208 -96)
)
(connector
	(pt -304 -80)
	(pt -208 -80)
)
(connector
	(pt -304 -64)
	(pt -208 -64)
)
(connector
	(pt -304 -48)
	(pt -208 -48)
)
(connector
	(pt -304 -32)
	(pt -208 -32)
)
(connector
	(pt -432 392)
	(pt -440 392)
)
(connector
	(pt -432 240)
	(pt -432 392)
)
(connector
	(pt 328 -56)
	(pt 328 120)
	(bus)
)
(connector
	(pt 280 -56)
	(pt 328 -56)
	(bus)
)
(connector
	(pt 200 216)
	(pt 200 160)
)
(connector
	(pt 216 160)
	(pt 200 160)
)
(connector
	(pt 528 216)
	(pt 528 152)
)
(connector
	(pt 200 216)
	(pt 528 216)
)
(connector
	(pt 448 152)
	(pt 464 152)
)
(connector
	(pt 528 152)
	(pt 560 152)
)
(connector
	(pt 512 152)
	(pt 528 152)
)
(connector
	(text "bradr" (rect 664 112 688 124)(font "Arial" ))
	(pt 624 128)
	(pt 712 128)
)
(connector
	(text "br" (rect 674 144 683 156)(font "Arial" ))
	(pt 624 160)
	(pt 712 160)
)
(connector
	(text "branch" (rect 654 160 687 172)(font "Arial" ))
	(pt 624 176)
	(pt 712 176)
)
(connector
	(text "bropr" (rect 662 128 686 140)(font "Arial" ))
	(pt 624 144)
	(pt 712 144)
)
(connector
	(text "adr[6..0]" (rect 32 -24 73 -12)(font "Arial" ))
	(pt -32 -8)
	(pt 80 -8)
	(bus)
)
(connector
	(text "CW[66..60]" (rect -4 -192 52 -180)(font "Arial" ))
	(pt -8 -24)
	(pt 80 -24)
	(bus)
)
(connector
	(text "opr[6..0]" (rect 32 -8 73 4)(font "Arial" ))
	(pt -32 8)
	(pt 80 8)
	(bus)
)
(connector
	(text "CW[71..0]" (rect 281 512 331 524)(font "Arial" ))
	(pt 272 528)
	(pt 328 528)
	(bus)
)
(connector
	(pt 328 480)
	(pt 328 528)
	(bus)
)
(connector
	(pt 48 152)
	(pt 64 152)
	(bus)
)
(connector
	(pt 64 24)
	(pt 64 152)
	(bus)
)
(connector
	(text "clk" (rect 327 261 339 275)(font "Arial" )(vertical))
	(pt 344 280)
	(pt 344 256)
)
(connector
	(text "mPC[6..0]" (rect 312 223 324 273)(font "Arial" )(vertical))
	(pt 328 200)
	(pt 328 280)
	(bus)
)
(connector
	(pt 224 584)
	(pt 216 584)
)
(connector
	(pt 224 600)
	(pt 216 600)
)
(connector
	(pt 224 616)
	(pt 216 616)
)
(connector
	(pt 224 632)
	(pt 216 632)
)
(connector
	(pt 224 648)
	(pt 216 648)
)
(connector
	(pt 224 664)
	(pt 216 664)
)
(connector
	(pt 224 680)
	(pt 216 680)
)
(connector
	(pt 224 696)
	(pt 216 696)
)
(connector
	(pt 224 712)
	(pt 216 712)
)
(connector
	(pt 224 728)
	(pt 216 728)
)
(connector
	(pt 224 744)
	(pt 216 744)
)
(connector
	(pt 224 760)
	(pt 216 760)
)
(connector
	(pt 224 776)
	(pt 216 776)
)
(connector
	(pt 224 792)
	(pt 216 792)
)
(connector
	(pt 224 808)
	(pt 216 808)
)
(connector
	(pt 224 824)
	(pt 216 824)
)
(connector
	(pt 224 840)
	(pt 216 840)
)
(connector
	(pt 224 856)
	(pt 216 856)
)
(connector
	(pt 224 872)
	(pt 216 872)
)
(connector
	(pt 224 888)
	(pt 216 888)
)
(connector
	(pt 224 904)
	(pt 216 904)
)
(connector
	(pt 224 920)
	(pt 216 920)
)
(connector
	(pt 224 936)
	(pt 216 936)
)
(connector
	(pt 224 952)
	(pt 216 952)
)
(connector
	(pt 224 968)
	(pt 216 968)
)
(connector
	(pt 224 984)
	(pt 216 984)
)
(connector
	(pt 224 1000)
	(pt 216 1000)
)
(connector
	(pt 224 1016)
	(pt 216 1016)
)
(connector
	(pt 224 1032)
	(pt 216 1032)
)
(connector
	(pt 224 1048)
	(pt 216 1048)
)
(connector
	(pt 224 1064)
	(pt 216 1064)
)
(connector
	(pt 224 1080)
	(pt 216 1080)
)
(connector
	(pt 224 1096)
	(pt 216 1096)
)
(connector
	(pt 224 1112)
	(pt 216 1112)
)
(connector
	(pt 224 1128)
	(pt 216 1128)
)
(connector
	(pt 224 1144)
	(pt 216 1144)
)
(connector
	(pt 224 1160)
	(pt 216 1160)
)
(connector
	(pt 224 1176)
	(pt 216 1176)
)
(connector
	(pt 224 1192)
	(pt 216 1192)
)
(connector
	(pt 224 1208)
	(pt 216 1208)
)
(connector
	(pt 224 1224)
	(pt 216 1224)
)
(connector
	(pt 224 1240)
	(pt 216 1240)
)
(connector
	(pt 224 1256)
	(pt 216 1256)
)
(connector
	(pt 224 1272)
	(pt 216 1272)
)
(connector
	(pt 224 1288)
	(pt 216 1288)
)
(connector
	(pt 224 1304)
	(pt 216 1304)
)
(connector
	(pt 224 1320)
	(pt 216 1320)
)
(connector
	(pt 224 1336)
	(pt 216 1336)
)
(connector
	(pt 224 1352)
	(pt 216 1352)
)
(connector
	(pt 224 1368)
	(pt 216 1368)
)
(connector
	(pt 224 1384)
	(pt 216 1384)
)
(connector
	(pt 224 1400)
	(pt 216 1400)
)
(connector
	(pt 224 1416)
	(pt 216 1416)
)
(connector
	(pt 224 1432)
	(pt 216 1432)
)
(connector
	(pt 224 1448)
	(pt 216 1448)
)
(connector
	(pt 224 1464)
	(pt 216 1464)
)
(connector
	(pt 224 1480)
	(pt 216 1480)
)
(connector
	(pt 224 1496)
	(pt 216 1496)
)
(connector
	(pt 224 1512)
	(pt 216 1512)
)
(connector
	(pt 224 1528)
	(pt 216 1528)
)
(connector
	(text "CW[59..0]" (rect -24 568 26 580)(font "Arial" ))
	(pt -32 584)
	(pt 48 584)
	(bus)
)
(connector
	(text "branch" (rect 1440 704 1473 716)(font "Arial" ))
	(pt 1432 720)
	(pt 1480 720)
)
(connector
	(text "bradr" (rect 1440 720 1464 732)(font "Arial" ))
	(pt 1432 736)
	(pt 1480 736)
)
(connector
	(text "bropr" (rect 1440 736 1464 748)(font "Arial" ))
	(pt 1432 752)
	(pt 1480 752)
)
(connector
	(text "br" (rect 1440 688 1449 700)(font "Arial" ))
	(pt 1432 704)
	(pt 1480 704)
)
(connector
	(pt 1144 -376)
	(pt 1144 720)
)
(connector
	(pt 1136 -360)
	(pt 1136 736)
)
(connector
	(pt 1128 -344)
	(pt 1128 752)
)
(connector
	(pt 1120 -328)
	(pt 1120 768)
)
(connector
	(pt 1112 -312)
	(pt 1112 784)
)
(connector
	(pt 1104 -296)
	(pt 1104 800)
)
(connector
	(pt 1096 -280)
	(pt 1096 816)
)
(connector
	(pt 1152 -392)
	(pt 1152 704)
)
(connector
	(pt 1152 704)
	(pt 1288 704)
)
(connector
	(pt 1144 720)
	(pt 1288 720)
)
(connector
	(pt 1136 736)
	(pt 1288 736)
)
(connector
	(pt 1128 752)
	(pt 1288 752)
)
(connector
	(pt 1120 768)
	(pt 1288 768)
)
(connector
	(pt 1112 784)
	(pt 1288 784)
)
(connector
	(pt 1104 800)
	(pt 1288 800)
)
(connector
	(pt 1096 816)
	(pt 1288 816)
)
(connector
	(text "ST" (rect 1216 816 1228 828)(font "Arial" ))
	(pt 1208 832)
	(pt 1288 832)
)
(connector
	(text "regdir" (rect 1215 832 1242 844)(font "Arial" ))
	(pt 1208 848)
	(pt 1288 848)
)
(connector
	(pt 1432 688)
	(pt 1472 688)
)
(connector
	(pt 1280 864)
	(pt 1288 864)
)
(connector
	(pt 1280 880)
	(pt 1288 880)
)
(connector
	(pt 1280 896)
	(pt 1288 896)
)
(connector
	(pt 1280 912)
	(pt 1288 912)
)
(connector
	(pt 1280 928)
	(pt 1288 928)
)
(connector
	(pt 1280 944)
	(pt 1288 944)
)
(connector
	(pt 1280 960)
	(pt 1288 960)
)
(connector
	(text "CW[71..67]" (rect 1199 672 1255 684)(font "Arial" ))
	(pt 1224 688)
	(pt 1288 688)
	(bus)
)
(junction (pt 528 152))
