/*
WARNING: Do NOT edit the input and output ports in this file in a text
editor if you plan to continue editing the block that represents it in
the Block Editor! File corruption is VERY likely to occur.
*/
/*
Copyright (C) 1991-2013 Altera Corporation
Your use of Altera Corporation's design tools, logic functions 
and other software and tools, and its AMPP partner logic 
functions, and any output files from any of the foregoing 
(including device programming or simulation files), and any 
associated documentation or information are expressly subject 
to the terms and conditions of the Altera Program License 
Subscription Agreement, Altera MegaCore Function License 
Agreement, or other applicable license agreement, including, 
without limitation, that your use is for the sole purpose of 
programming logic devices manufactured by Altera and sold by 
Altera or its authorized distributors.  Please refer to the 
applicable agreement for further details.
*/
(header "graphic" (version "1.4"))
(pin
	(input)
	(rect 24 80 192 96)
	(text "INPUT" (rect 125 0 153 10)(font "Arial" (font_size 6)))
	(text "I[4..0]" (rect 5 0 34 12)(font "Arial" ))
	(pt 168 8)
	(drawing
		(line (pt 84 12)(pt 109 12))
		(line (pt 84 4)(pt 109 4))
		(line (pt 113 8)(pt 168 8))
		(line (pt 84 12)(pt 84 4))
		(line (pt 109 4)(pt 113 8))
		(line (pt 109 12)(pt 113 8))
	)
	(text "VCC" (rect 128 7 148 17)(font "Arial" (font_size 6)))
)
(pin
	(input)
	(rect -136 152 32 168)
	(text "INPUT" (rect 125 0 153 10)(font "Arial" (font_size 6)))
	(text "START" (rect 5 0 39 12)(font "Arial" ))
	(pt 168 8)
	(drawing
		(line (pt 84 12)(pt 109 12))
		(line (pt 84 4)(pt 109 4))
		(line (pt 113 8)(pt 168 8))
		(line (pt 84 12)(pt 84 4))
		(line (pt 109 4)(pt 113 8))
		(line (pt 109 12)(pt 113 8))
	)
	(text "VCC" (rect 128 7 148 17)(font "Arial" (font_size 6)))
)
(pin
	(input)
	(rect -136 184 32 200)
	(text "INPUT" (rect 125 0 153 10)(font "Arial" (font_size 6)))
	(text "gropr" (rect 5 0 29 12)(font "Arial" ))
	(pt 168 8)
	(drawing
		(line (pt 84 12)(pt 109 12))
		(line (pt 84 4)(pt 109 4))
		(line (pt 113 8)(pt 168 8))
		(line (pt 84 12)(pt 84 4))
		(line (pt 109 4)(pt 113 8))
		(line (pt 109 12)(pt 113 8))
	)
	(text "VCC" (rect 128 7 148 17)(font "Arial" (font_size 6)))
)
(pin
	(input)
	(rect -136 216 32 232)
	(text "INPUT" (rect 125 0 153 10)(font "Arial" (font_size 6)))
	(text "gradr" (rect 5 0 29 12)(font "Arial" ))
	(pt 168 8)
	(drawing
		(line (pt 84 12)(pt 109 12))
		(line (pt 84 4)(pt 109 4))
		(line (pt 113 8)(pt 168 8))
		(line (pt 84 12)(pt 84 4))
		(line (pt 109 4)(pt 113 8))
		(line (pt 109 12)(pt 113 8))
	)
	(text "VCC" (rect 128 7 148 17)(font "Arial" (font_size 6)))
)
(pin
	(input)
	(rect -136 248 32 264)
	(text "INPUT" (rect 125 0 153 10)(font "Arial" (font_size 6)))
	(text "l1" (rect 5 0 13 12)(font "Arial" ))
	(pt 168 8)
	(drawing
		(line (pt 84 12)(pt 109 12))
		(line (pt 84 4)(pt 109 4))
		(line (pt 113 8)(pt 168 8))
		(line (pt 84 12)(pt 84 4))
		(line (pt 109 4)(pt 113 8))
		(line (pt 109 12)(pt 113 8))
	)
	(text "VCC" (rect 128 7 148 17)(font "Arial" (font_size 6)))
)
(pin
	(input)
	(rect -136 280 32 296)
	(text "INPUT" (rect 125 0 153 10)(font "Arial" (font_size 6)))
	(text "l2_int" (rect 5 0 30 12)(font "Arial" ))
	(pt 168 8)
	(drawing
		(line (pt 84 12)(pt 109 12))
		(line (pt 84 4)(pt 109 4))
		(line (pt 113 8)(pt 168 8))
		(line (pt 84 12)(pt 84 4))
		(line (pt 109 4)(pt 113 8))
		(line (pt 109 12)(pt 113 8))
	)
	(text "VCC" (rect 128 7 148 17)(font "Arial" (font_size 6)))
)
(pin
	(input)
	(rect -136 312 32 328)
	(text "INPUT" (rect 125 0 153 10)(font "Arial" (font_size 6)))
	(text "l2_arlog" (rect 5 0 42 12)(font "Arial" ))
	(pt 168 8)
	(drawing
		(line (pt 84 12)(pt 109 12))
		(line (pt 84 4)(pt 109 4))
		(line (pt 113 8)(pt 168 8))
		(line (pt 84 12)(pt 84 4))
		(line (pt 109 4)(pt 113 8))
		(line (pt 109 12)(pt 113 8))
	)
	(text "VCC" (rect 128 7 148 17)(font "Arial" (font_size 6)))
)
(pin
	(input)
	(rect -136 344 32 360)
	(text "INPUT" (rect 125 0 153 10)(font "Arial" (font_size 6)))
	(text "l3_jmp" (rect 5 0 36 12)(font "Arial" ))
	(pt 168 8)
	(drawing
		(line (pt 84 12)(pt 109 12))
		(line (pt 84 4)(pt 109 4))
		(line (pt 113 8)(pt 168 8))
		(line (pt 84 12)(pt 84 4))
		(line (pt 109 4)(pt 113 8))
		(line (pt 109 12)(pt 113 8))
	)
	(text "VCC" (rect 128 7 148 17)(font "Arial" (font_size 6)))
)
(pin
	(input)
	(rect -136 408 32 424)
	(text "INPUT" (rect 125 0 153 10)(font "Arial" (font_size 6)))
	(text "STORE" (rect 5 0 41 12)(font "Arial" ))
	(pt 168 8)
	(drawing
		(line (pt 84 12)(pt 109 12))
		(line (pt 84 4)(pt 109 4))
		(line (pt 113 8)(pt 168 8))
		(line (pt 84 12)(pt 84 4))
		(line (pt 109 4)(pt 113 8))
		(line (pt 109 12)(pt 113 8))
	)
	(text "VCC" (rect 128 7 148 17)(font "Arial" (font_size 6)))
)
(pin
	(input)
	(rect -136 440 32 456)
	(text "INPUT" (rect 125 0 153 10)(font "Arial" (font_size 6)))
	(text "regdir" (rect 5 0 32 12)(font "Arial" ))
	(pt 168 8)
	(drawing
		(line (pt 84 12)(pt 109 12))
		(line (pt 84 4)(pt 109 4))
		(line (pt 113 8)(pt 168 8))
		(line (pt 84 12)(pt 84 4))
		(line (pt 109 4)(pt 113 8))
		(line (pt 109 12)(pt 113 8))
	)
	(text "VCC" (rect 128 7 148 17)(font "Arial" (font_size 6)))
)
(pin
	(input)
	(rect -136 472 32 488)
	(text "INPUT" (rect 125 0 153 10)(font "Arial" (font_size 6)))
	(text "brpom" (rect 5 0 35 12)(font "Arial" ))
	(pt 168 8)
	(drawing
		(line (pt 84 12)(pt 109 12))
		(line (pt 84 4)(pt 109 4))
		(line (pt 113 8)(pt 168 8))
		(line (pt 84 12)(pt 84 4))
		(line (pt 109 4)(pt 113 8))
		(line (pt 109 12)(pt 113 8))
	)
	(text "VCC" (rect 128 7 148 17)(font "Arial" (font_size 6)))
)
(pin
	(input)
	(rect -136 504 32 520)
	(text "INPUT" (rect 125 0 153 10)(font "Arial" (font_size 6)))
	(text "prekid" (rect 5 0 34 12)(font "Arial" ))
	(pt 168 8)
	(drawing
		(line (pt 84 12)(pt 109 12))
		(line (pt 84 4)(pt 109 4))
		(line (pt 113 8)(pt 168 8))
		(line (pt 84 12)(pt 84 4))
		(line (pt 109 4)(pt 113 8))
		(line (pt 109 12)(pt 113 8))
	)
	(text "VCC" (rect 128 7 148 17)(font "Arial" (font_size 6)))
)
(pin
	(input)
	(rect -136 536 32 552)
	(text "INPUT" (rect 125 0 153 10)(font "Arial" (font_size 6)))
	(text "PRINS" (rect 5 0 39 12)(font "Arial" ))
	(pt 168 8)
	(drawing
		(line (pt 84 12)(pt 109 12))
		(line (pt 84 4)(pt 109 4))
		(line (pt 113 8)(pt 168 8))
		(line (pt 84 12)(pt 84 4))
		(line (pt 109 4)(pt 113 8))
		(line (pt 109 12)(pt 113 8))
	)
	(text "VCC" (rect 128 7 148 17)(font "Arial" (font_size 6)))
)
(pin
	(input)
	(rect -136 568 32 584)
	(text "INPUT" (rect 125 0 153 10)(font "Arial" (font_size 6)))
	(text "PRCOD" (rect 5 0 45 12)(font "Arial" ))
	(pt 168 8)
	(drawing
		(line (pt 84 12)(pt 109 12))
		(line (pt 84 4)(pt 109 4))
		(line (pt 113 8)(pt 168 8))
		(line (pt 84 12)(pt 84 4))
		(line (pt 109 4)(pt 113 8))
		(line (pt 109 12)(pt 113 8))
	)
	(text "VCC" (rect 128 7 148 17)(font "Arial" (font_size 6)))
)
(pin
	(input)
	(rect -136 600 32 616)
	(text "INPUT" (rect 125 0 153 10)(font "Arial" (font_size 6)))
	(text "PRADR" (rect 5 0 43 12)(font "Arial" ))
	(pt 168 8)
	(drawing
		(line (pt 84 12)(pt 109 12))
		(line (pt 84 4)(pt 109 4))
		(line (pt 113 8)(pt 168 8))
		(line (pt 84 12)(pt 84 4))
		(line (pt 109 4)(pt 113 8))
		(line (pt 109 12)(pt 113 8))
	)
	(text "VCC" (rect 128 7 148 17)(font "Arial" (font_size 6)))
)
(pin
	(input)
	(rect -136 632 32 648)
	(text "INPUT" (rect 125 0 153 10)(font "Arial" (font_size 6)))
	(text "PRINM" (rect 5 0 40 12)(font "Arial" ))
	(pt 168 8)
	(drawing
		(line (pt 84 12)(pt 109 12))
		(line (pt 84 4)(pt 109 4))
		(line (pt 113 8)(pt 168 8))
		(line (pt 84 12)(pt 84 4))
		(line (pt 109 4)(pt 113 8))
		(line (pt 109 12)(pt 113 8))
	)
	(text "VCC" (rect 128 7 148 17)(font "Arial" (font_size 6)))
)
(pin
	(input)
	(rect -136 664 32 680)
	(text "INPUT" (rect 125 0 153 10)(font "Arial" (font_size 6)))
	(text "printr" (rect 5 0 29 12)(font "Arial" ))
	(pt 168 8)
	(drawing
		(line (pt 84 12)(pt 109 12))
		(line (pt 84 4)(pt 109 4))
		(line (pt 113 8)(pt 168 8))
		(line (pt 84 12)(pt 84 4))
		(line (pt 109 4)(pt 113 8))
		(line (pt 109 12)(pt 113 8))
	)
	(text "VCC" (rect 128 7 148 17)(font "Arial" (font_size 6)))
)
(pin
	(input)
	(rect -136 376 32 392)
	(text "INPUT" (rect 125 0 153 10)(font "Arial" (font_size 6)))
	(text "l3_brnch" (rect 5 0 46 12)(font "Arial" ))
	(pt 168 8)
	(drawing
		(line (pt 84 12)(pt 109 12))
		(line (pt 84 4)(pt 109 4))
		(line (pt 113 8)(pt 168 8))
		(line (pt 84 12)(pt 84 4))
		(line (pt 109 4)(pt 113 8))
		(line (pt 109 12)(pt 113 8))
	)
	(text "VCC" (rect 128 7 148 17)(font "Arial" (font_size 6)))
)
(pin
	(output)
	(rect 304 48 480 64)
	(text "OUTPUT" (rect 1 0 39 10)(font "Arial" (font_size 6)))
	(text "next" (rect 90 0 111 12)(font "Arial" ))
	(pt 0 8)
	(drawing
		(line (pt 0 8)(pt 52 8))
		(line (pt 52 4)(pt 78 4))
		(line (pt 52 12)(pt 78 12))
		(line (pt 52 12)(pt 52 4))
		(line (pt 78 4)(pt 82 8))
		(line (pt 82 8)(pt 78 12))
		(line (pt 78 12)(pt 82 8))
	)
)
(pin
	(output)
	(rect 320 72 496 88)
	(text "OUTPUT" (rect 1 0 39 10)(font "Arial" (font_size 6)))
	(text "br" (rect 90 0 99 12)(font "Arial" ))
	(pt 0 8)
	(drawing
		(line (pt 0 8)(pt 52 8))
		(line (pt 52 4)(pt 78 4))
		(line (pt 52 12)(pt 78 12))
		(line (pt 52 12)(pt 52 4))
		(line (pt 78 4)(pt 82 8))
		(line (pt 82 8)(pt 78 12))
		(line (pt 78 12)(pt 82 8))
	)
)
(pin
	(output)
	(rect 1056 320 1232 336)
	(text "OUTPUT" (rect 1 0 39 10)(font "Arial" (font_size 6)))
	(text "branch" (rect 90 0 123 12)(font "Arial" ))
	(pt 0 8)
	(drawing
		(line (pt 0 8)(pt 52 8))
		(line (pt 52 4)(pt 78 4))
		(line (pt 52 12)(pt 78 12))
		(line (pt 52 12)(pt 52 4))
		(line (pt 78 4)(pt 82 8))
		(line (pt 82 8)(pt 78 12))
		(line (pt 78 12)(pt 82 8))
	)
)
(pin
	(output)
	(rect 328 352 504 368)
	(text "OUTPUT" (rect 1 0 39 10)(font "Arial" (font_size 6)))
	(text "bradr" (rect 90 0 114 12)(font "Arial" ))
	(pt 0 8)
	(drawing
		(line (pt 0 8)(pt 52 8))
		(line (pt 52 4)(pt 78 4))
		(line (pt 52 12)(pt 78 12))
		(line (pt 52 12)(pt 52 4))
		(line (pt 78 4)(pt 82 8))
		(line (pt 82 8)(pt 78 12))
		(line (pt 78 12)(pt 82 8))
	)
)
(pin
	(output)
	(rect 328 368 504 384)
	(text "OUTPUT" (rect 1 0 39 10)(font "Arial" (font_size 6)))
	(text "bropr" (rect 90 0 114 12)(font "Arial" ))
	(pt 0 8)
	(drawing
		(line (pt 0 8)(pt 52 8))
		(line (pt 52 4)(pt 78 4))
		(line (pt 52 12)(pt 78 12))
		(line (pt 52 12)(pt 52 4))
		(line (pt 78 4)(pt 82 8))
		(line (pt 82 8)(pt 78 12))
		(line (pt 78 12)(pt 82 8))
	)
)
(symbol
	(rect 192 56 288 632)
	(text "DC32" (rect 5 0 35 14)(font "Arial" (font_size 8)))
	(text "inst" (rect 8 560 25 572)(font "Arial" ))
	(port
		(pt 0 32)
		(input)
		(text "I[4..0]" (rect 0 0 30 14)(font "Arial" (font_size 8)))
		(text "I[4..0]" (rect 21 27 51 41)(font "Arial" (font_size 8)))
		(line (pt 0 32)(pt 16 32)(line_width 3))
	)
	(port
		(pt 96 32)
		(output)
		(text "D0" (rect 0 0 15 14)(font "Arial" (font_size 8)))
		(text "D0" (rect 60 27 75 41)(font "Arial" (font_size 8)))
		(line (pt 96 32)(pt 80 32))
	)
	(port
		(pt 96 48)
		(output)
		(text "D1" (rect 0 0 15 14)(font "Arial" (font_size 8)))
		(text "D1" (rect 60 43 75 57)(font "Arial" (font_size 8)))
		(line (pt 96 48)(pt 80 48))
	)
	(port
		(pt 96 64)
		(output)
		(text "D2" (rect 0 0 15 14)(font "Arial" (font_size 8)))
		(text "D2" (rect 60 59 75 73)(font "Arial" (font_size 8)))
		(line (pt 96 64)(pt 80 64))
	)
	(port
		(pt 96 80)
		(output)
		(text "D3" (rect 0 0 15 14)(font "Arial" (font_size 8)))
		(text "D3" (rect 60 75 75 89)(font "Arial" (font_size 8)))
		(line (pt 96 80)(pt 80 80))
	)
	(port
		(pt 96 96)
		(output)
		(text "D4" (rect 0 0 15 14)(font "Arial" (font_size 8)))
		(text "D4" (rect 60 91 75 105)(font "Arial" (font_size 8)))
		(line (pt 96 96)(pt 80 96))
	)
	(port
		(pt 96 112)
		(output)
		(text "D5" (rect 0 0 15 14)(font "Arial" (font_size 8)))
		(text "D5" (rect 60 107 75 121)(font "Arial" (font_size 8)))
		(line (pt 96 112)(pt 80 112))
	)
	(port
		(pt 96 128)
		(output)
		(text "D6" (rect 0 0 15 14)(font "Arial" (font_size 8)))
		(text "D6" (rect 60 123 75 137)(font "Arial" (font_size 8)))
		(line (pt 96 128)(pt 80 128))
	)
	(port
		(pt 96 144)
		(output)
		(text "D7" (rect 0 0 15 14)(font "Arial" (font_size 8)))
		(text "D7" (rect 60 139 75 153)(font "Arial" (font_size 8)))
		(line (pt 96 144)(pt 80 144))
	)
	(port
		(pt 96 160)
		(output)
		(text "D8" (rect 0 0 15 14)(font "Arial" (font_size 8)))
		(text "D8" (rect 60 155 75 169)(font "Arial" (font_size 8)))
		(line (pt 96 160)(pt 80 160))
	)
	(port
		(pt 96 176)
		(output)
		(text "D9" (rect 0 0 15 14)(font "Arial" (font_size 8)))
		(text "D9" (rect 60 171 75 185)(font "Arial" (font_size 8)))
		(line (pt 96 176)(pt 80 176))
	)
	(port
		(pt 96 192)
		(output)
		(text "D10" (rect 0 0 22 14)(font "Arial" (font_size 8)))
		(text "D10" (rect 53 187 75 201)(font "Arial" (font_size 8)))
		(line (pt 96 192)(pt 80 192))
	)
	(port
		(pt 96 208)
		(output)
		(text "D11" (rect 0 0 22 14)(font "Arial" (font_size 8)))
		(text "D11" (rect 53 203 75 217)(font "Arial" (font_size 8)))
		(line (pt 96 208)(pt 80 208))
	)
	(port
		(pt 96 224)
		(output)
		(text "D12" (rect 0 0 22 14)(font "Arial" (font_size 8)))
		(text "D12" (rect 53 219 75 233)(font "Arial" (font_size 8)))
		(line (pt 96 224)(pt 80 224))
	)
	(port
		(pt 96 240)
		(output)
		(text "D13" (rect 0 0 22 14)(font "Arial" (font_size 8)))
		(text "D13" (rect 53 235 75 249)(font "Arial" (font_size 8)))
		(line (pt 96 240)(pt 80 240))
	)
	(port
		(pt 96 256)
		(output)
		(text "D14" (rect 0 0 22 14)(font "Arial" (font_size 8)))
		(text "D14" (rect 53 251 75 265)(font "Arial" (font_size 8)))
		(line (pt 96 256)(pt 80 256))
	)
	(port
		(pt 96 272)
		(output)
		(text "D15" (rect 0 0 22 14)(font "Arial" (font_size 8)))
		(text "D15" (rect 53 267 75 281)(font "Arial" (font_size 8)))
		(line (pt 96 272)(pt 80 272))
	)
	(port
		(pt 96 288)
		(output)
		(text "D16" (rect 0 0 22 14)(font "Arial" (font_size 8)))
		(text "D16" (rect 53 283 75 297)(font "Arial" (font_size 8)))
		(line (pt 96 288)(pt 80 288))
	)
	(port
		(pt 96 304)
		(output)
		(text "D17" (rect 0 0 22 14)(font "Arial" (font_size 8)))
		(text "D17" (rect 53 299 75 313)(font "Arial" (font_size 8)))
		(line (pt 96 304)(pt 80 304))
	)
	(port
		(pt 96 320)
		(output)
		(text "D18" (rect 0 0 22 14)(font "Arial" (font_size 8)))
		(text "D18" (rect 53 315 75 329)(font "Arial" (font_size 8)))
		(line (pt 96 320)(pt 80 320))
	)
	(port
		(pt 96 336)
		(output)
		(text "D19" (rect 0 0 22 14)(font "Arial" (font_size 8)))
		(text "D19" (rect 53 331 75 345)(font "Arial" (font_size 8)))
		(line (pt 96 336)(pt 80 336))
	)
	(port
		(pt 96 352)
		(output)
		(text "D20" (rect 0 0 22 14)(font "Arial" (font_size 8)))
		(text "D20" (rect 53 347 75 361)(font "Arial" (font_size 8)))
		(line (pt 96 352)(pt 80 352))
	)
	(port
		(pt 96 368)
		(output)
		(text "D21" (rect 0 0 22 14)(font "Arial" (font_size 8)))
		(text "D21" (rect 53 363 75 377)(font "Arial" (font_size 8)))
		(line (pt 96 368)(pt 80 368))
	)
	(port
		(pt 96 384)
		(output)
		(text "D22" (rect 0 0 22 14)(font "Arial" (font_size 8)))
		(text "D22" (rect 53 379 75 393)(font "Arial" (font_size 8)))
		(line (pt 96 384)(pt 80 384))
	)
	(port
		(pt 96 400)
		(output)
		(text "D23" (rect 0 0 22 14)(font "Arial" (font_size 8)))
		(text "D23" (rect 53 395 75 409)(font "Arial" (font_size 8)))
		(line (pt 96 400)(pt 80 400))
	)
	(port
		(pt 96 416)
		(output)
		(text "D24" (rect 0 0 22 14)(font "Arial" (font_size 8)))
		(text "D24" (rect 53 411 75 425)(font "Arial" (font_size 8)))
		(line (pt 96 416)(pt 80 416))
	)
	(port
		(pt 96 432)
		(output)
		(text "D25" (rect 0 0 22 14)(font "Arial" (font_size 8)))
		(text "D25" (rect 53 427 75 441)(font "Arial" (font_size 8)))
		(line (pt 96 432)(pt 80 432))
	)
	(port
		(pt 96 448)
		(output)
		(text "D26" (rect 0 0 22 14)(font "Arial" (font_size 8)))
		(text "D26" (rect 53 443 75 457)(font "Arial" (font_size 8)))
		(line (pt 96 448)(pt 80 448))
	)
	(port
		(pt 96 464)
		(output)
		(text "D27" (rect 0 0 22 14)(font "Arial" (font_size 8)))
		(text "D27" (rect 53 459 75 473)(font "Arial" (font_size 8)))
		(line (pt 96 464)(pt 80 464))
	)
	(port
		(pt 96 480)
		(output)
		(text "D28" (rect 0 0 22 14)(font "Arial" (font_size 8)))
		(text "D28" (rect 53 475 75 489)(font "Arial" (font_size 8)))
		(line (pt 96 480)(pt 80 480))
	)
	(port
		(pt 96 496)
		(output)
		(text "D29" (rect 0 0 22 14)(font "Arial" (font_size 8)))
		(text "D29" (rect 53 491 75 505)(font "Arial" (font_size 8)))
		(line (pt 96 496)(pt 80 496))
	)
	(port
		(pt 96 512)
		(output)
		(text "D30" (rect 0 0 22 14)(font "Arial" (font_size 8)))
		(text "D30" (rect 53 507 75 521)(font "Arial" (font_size 8)))
		(line (pt 96 512)(pt 80 512))
	)
	(port
		(pt 96 528)
		(output)
		(text "D31" (rect 0 0 22 14)(font "Arial" (font_size 8)))
		(text "D31" (rect 53 523 75 537)(font "Arial" (font_size 8)))
		(line (pt 96 528)(pt 80 528))
	)
	(drawing
		(rectangle (rect 16 16 80 560))
	)
)
(symbol
	(rect 608 112 672 160)
	(text "AND2" (rect 1 0 25 10)(font "Arial" (font_size 6)))
	(text "inst3" (rect 3 37 26 49)(font "Arial" ))
	(port
		(pt 0 16)
		(input)
		(text "IN1" (rect 2 7 19 19)(font "Courier New" (bold))(invisible))
		(text "IN1" (rect 2 7 19 19)(font "Courier New" (bold))(invisible))
		(line (pt 0 16)(pt 14 16))
	)
	(port
		(pt 0 32)
		(input)
		(text "IN2" (rect 2 23 19 35)(font "Courier New" (bold))(invisible))
		(text "IN2" (rect 2 23 19 35)(font "Courier New" (bold))(invisible))
		(line (pt 0 32)(pt 14 32))
	)
	(port
		(pt 64 24)
		(output)
		(text "OUT" (rect 48 15 65 27)(font "Courier New" (bold))(invisible))
		(text "OUT" (rect 48 15 65 27)(font "Courier New" (bold))(invisible))
		(line (pt 42 24)(pt 64 24))
	)
	(drawing
		(line (pt 14 12)(pt 30 12))
		(line (pt 14 37)(pt 31 37))
		(line (pt 14 12)(pt 14 37))
		(arc (pt 31 37)(pt 30 12)(rect 18 12 43 37))
	)
)
(symbol
	(rect 608 160 672 208)
	(text "AND2" (rect 1 0 25 10)(font "Arial" (font_size 6)))
	(text "inst4" (rect 3 37 26 49)(font "Arial" ))
	(port
		(pt 0 16)
		(input)
		(text "IN1" (rect 2 7 19 19)(font "Courier New" (bold))(invisible))
		(text "IN1" (rect 2 7 19 19)(font "Courier New" (bold))(invisible))
		(line (pt 0 16)(pt 14 16))
	)
	(port
		(pt 0 32)
		(input)
		(text "IN2" (rect 2 23 19 35)(font "Courier New" (bold))(invisible))
		(text "IN2" (rect 2 23 19 35)(font "Courier New" (bold))(invisible))
		(line (pt 0 32)(pt 14 32))
	)
	(port
		(pt 64 24)
		(output)
		(text "OUT" (rect 48 15 65 27)(font "Courier New" (bold))(invisible))
		(text "OUT" (rect 48 15 65 27)(font "Courier New" (bold))(invisible))
		(line (pt 42 24)(pt 64 24))
	)
	(drawing
		(line (pt 14 12)(pt 30 12))
		(line (pt 14 37)(pt 31 37))
		(line (pt 14 12)(pt 14 37))
		(arc (pt 31 37)(pt 30 12)(rect 18 12 43 37))
	)
)
(symbol
	(rect 608 208 672 256)
	(text "AND2" (rect 1 0 25 10)(font "Arial" (font_size 6)))
	(text "inst5" (rect 3 37 26 49)(font "Arial" ))
	(port
		(pt 0 16)
		(input)
		(text "IN1" (rect 2 7 19 19)(font "Courier New" (bold))(invisible))
		(text "IN1" (rect 2 7 19 19)(font "Courier New" (bold))(invisible))
		(line (pt 0 16)(pt 14 16))
	)
	(port
		(pt 0 32)
		(input)
		(text "IN2" (rect 2 23 19 35)(font "Courier New" (bold))(invisible))
		(text "IN2" (rect 2 23 19 35)(font "Courier New" (bold))(invisible))
		(line (pt 0 32)(pt 14 32))
	)
	(port
		(pt 64 24)
		(output)
		(text "OUT" (rect 48 15 65 27)(font "Courier New" (bold))(invisible))
		(text "OUT" (rect 48 15 65 27)(font "Courier New" (bold))(invisible))
		(line (pt 42 24)(pt 64 24))
	)
	(drawing
		(line (pt 14 12)(pt 30 12))
		(line (pt 14 37)(pt 31 37))
		(line (pt 14 12)(pt 14 37))
		(arc (pt 31 37)(pt 30 12)(rect 18 12 43 37))
	)
)
(symbol
	(rect 608 256 672 304)
	(text "AND2" (rect 1 0 25 10)(font "Arial" (font_size 6)))
	(text "inst6" (rect 3 37 26 49)(font "Arial" ))
	(port
		(pt 0 16)
		(input)
		(text "IN1" (rect 2 7 19 19)(font "Courier New" (bold))(invisible))
		(text "IN1" (rect 2 7 19 19)(font "Courier New" (bold))(invisible))
		(line (pt 0 16)(pt 14 16))
	)
	(port
		(pt 0 32)
		(input)
		(text "IN2" (rect 2 23 19 35)(font "Courier New" (bold))(invisible))
		(text "IN2" (rect 2 23 19 35)(font "Courier New" (bold))(invisible))
		(line (pt 0 32)(pt 14 32))
	)
	(port
		(pt 64 24)
		(output)
		(text "OUT" (rect 48 15 65 27)(font "Courier New" (bold))(invisible))
		(text "OUT" (rect 48 15 65 27)(font "Courier New" (bold))(invisible))
		(line (pt 42 24)(pt 64 24))
	)
	(drawing
		(line (pt 14 12)(pt 30 12))
		(line (pt 14 37)(pt 31 37))
		(line (pt 14 12)(pt 14 37))
		(arc (pt 31 37)(pt 30 12)(rect 18 12 43 37))
	)
)
(symbol
	(rect 608 304 672 352)
	(text "AND2" (rect 1 0 25 10)(font "Arial" (font_size 6)))
	(text "inst7" (rect 3 37 26 49)(font "Arial" ))
	(port
		(pt 0 16)
		(input)
		(text "IN1" (rect 2 7 19 19)(font "Courier New" (bold))(invisible))
		(text "IN1" (rect 2 7 19 19)(font "Courier New" (bold))(invisible))
		(line (pt 0 16)(pt 14 16))
	)
	(port
		(pt 0 32)
		(input)
		(text "IN2" (rect 2 23 19 35)(font "Courier New" (bold))(invisible))
		(text "IN2" (rect 2 23 19 35)(font "Courier New" (bold))(invisible))
		(line (pt 0 32)(pt 14 32))
	)
	(port
		(pt 64 24)
		(output)
		(text "OUT" (rect 48 15 65 27)(font "Courier New" (bold))(invisible))
		(text "OUT" (rect 48 15 65 27)(font "Courier New" (bold))(invisible))
		(line (pt 42 24)(pt 64 24))
	)
	(drawing
		(line (pt 14 12)(pt 30 12))
		(line (pt 14 37)(pt 31 37))
		(line (pt 14 12)(pt 14 37))
		(arc (pt 31 37)(pt 30 12)(rect 18 12 43 37))
	)
)
(symbol
	(rect 608 352 672 400)
	(text "AND2" (rect 1 0 25 10)(font "Arial" (font_size 6)))
	(text "inst9" (rect 3 37 26 49)(font "Arial" ))
	(port
		(pt 0 16)
		(input)
		(text "IN1" (rect 2 7 19 19)(font "Courier New" (bold))(invisible))
		(text "IN1" (rect 2 7 19 19)(font "Courier New" (bold))(invisible))
		(line (pt 0 16)(pt 14 16))
	)
	(port
		(pt 0 32)
		(input)
		(text "IN2" (rect 2 23 19 35)(font "Courier New" (bold))(invisible))
		(text "IN2" (rect 2 23 19 35)(font "Courier New" (bold))(invisible))
		(line (pt 0 32)(pt 14 32))
	)
	(port
		(pt 64 24)
		(output)
		(text "OUT" (rect 48 15 65 27)(font "Courier New" (bold))(invisible))
		(text "OUT" (rect 48 15 65 27)(font "Courier New" (bold))(invisible))
		(line (pt 42 24)(pt 64 24))
	)
	(drawing
		(line (pt 14 12)(pt 30 12))
		(line (pt 14 37)(pt 31 37))
		(line (pt 14 12)(pt 14 37))
		(arc (pt 31 37)(pt 30 12)(rect 18 12 43 37))
	)
)
(symbol
	(rect 608 416 672 464)
	(text "AND2" (rect 1 0 25 10)(font "Arial" (font_size 6)))
	(text "inst10" (rect 3 37 32 49)(font "Arial" ))
	(port
		(pt 0 16)
		(input)
		(text "IN1" (rect 2 7 19 19)(font "Courier New" (bold))(invisible))
		(text "IN1" (rect 2 7 19 19)(font "Courier New" (bold))(invisible))
		(line (pt 0 16)(pt 14 16))
	)
	(port
		(pt 0 32)
		(input)
		(text "IN2" (rect 2 23 19 35)(font "Courier New" (bold))(invisible))
		(text "IN2" (rect 2 23 19 35)(font "Courier New" (bold))(invisible))
		(line (pt 0 32)(pt 14 32))
	)
	(port
		(pt 64 24)
		(output)
		(text "OUT" (rect 48 15 65 27)(font "Courier New" (bold))(invisible))
		(text "OUT" (rect 48 15 65 27)(font "Courier New" (bold))(invisible))
		(line (pt 42 24)(pt 64 24))
	)
	(drawing
		(line (pt 14 12)(pt 30 12))
		(line (pt 14 37)(pt 31 37))
		(line (pt 14 12)(pt 14 37))
		(arc (pt 31 37)(pt 30 12)(rect 18 12 43 37))
	)
)
(symbol
	(rect 608 464 672 512)
	(text "AND2" (rect 1 0 25 10)(font "Arial" (font_size 6)))
	(text "inst11" (rect 3 37 32 49)(font "Arial" ))
	(port
		(pt 0 16)
		(input)
		(text "IN1" (rect 2 7 19 19)(font "Courier New" (bold))(invisible))
		(text "IN1" (rect 2 7 19 19)(font "Courier New" (bold))(invisible))
		(line (pt 0 16)(pt 14 16))
	)
	(port
		(pt 0 32)
		(input)
		(text "IN2" (rect 2 23 19 35)(font "Courier New" (bold))(invisible))
		(text "IN2" (rect 2 23 19 35)(font "Courier New" (bold))(invisible))
		(line (pt 0 32)(pt 14 32))
	)
	(port
		(pt 64 24)
		(output)
		(text "OUT" (rect 48 15 65 27)(font "Courier New" (bold))(invisible))
		(text "OUT" (rect 48 15 65 27)(font "Courier New" (bold))(invisible))
		(line (pt 42 24)(pt 64 24))
	)
	(drawing
		(line (pt 14 12)(pt 30 12))
		(line (pt 14 37)(pt 31 37))
		(line (pt 14 12)(pt 14 37))
		(arc (pt 31 37)(pt 30 12)(rect 18 12 43 37))
	)
)
(symbol
	(rect 608 512 672 560)
	(text "AND2" (rect 1 0 25 10)(font "Arial" (font_size 6)))
	(text "inst12" (rect 3 37 32 49)(font "Arial" ))
	(port
		(pt 0 16)
		(input)
		(text "IN1" (rect 2 7 19 19)(font "Courier New" (bold))(invisible))
		(text "IN1" (rect 2 7 19 19)(font "Courier New" (bold))(invisible))
		(line (pt 0 16)(pt 14 16))
	)
	(port
		(pt 0 32)
		(input)
		(text "IN2" (rect 2 23 19 35)(font "Courier New" (bold))(invisible))
		(text "IN2" (rect 2 23 19 35)(font "Courier New" (bold))(invisible))
		(line (pt 0 32)(pt 14 32))
	)
	(port
		(pt 64 24)
		(output)
		(text "OUT" (rect 48 15 65 27)(font "Courier New" (bold))(invisible))
		(text "OUT" (rect 48 15 65 27)(font "Courier New" (bold))(invisible))
		(line (pt 42 24)(pt 64 24))
	)
	(drawing
		(line (pt 14 12)(pt 30 12))
		(line (pt 14 37)(pt 31 37))
		(line (pt 14 12)(pt 14 37))
		(arc (pt 31 37)(pt 30 12)(rect 18 12 43 37))
	)
)
(symbol
	(rect 608 560 672 608)
	(text "AND2" (rect 1 0 25 10)(font "Arial" (font_size 6)))
	(text "inst13" (rect 3 37 32 49)(font "Arial" ))
	(port
		(pt 0 16)
		(input)
		(text "IN1" (rect 2 7 19 19)(font "Courier New" (bold))(invisible))
		(text "IN1" (rect 2 7 19 19)(font "Courier New" (bold))(invisible))
		(line (pt 0 16)(pt 14 16))
	)
	(port
		(pt 0 32)
		(input)
		(text "IN2" (rect 2 23 19 35)(font "Courier New" (bold))(invisible))
		(text "IN2" (rect 2 23 19 35)(font "Courier New" (bold))(invisible))
		(line (pt 0 32)(pt 14 32))
	)
	(port
		(pt 64 24)
		(output)
		(text "OUT" (rect 48 15 65 27)(font "Courier New" (bold))(invisible))
		(text "OUT" (rect 48 15 65 27)(font "Courier New" (bold))(invisible))
		(line (pt 42 24)(pt 64 24))
	)
	(drawing
		(line (pt 14 12)(pt 30 12))
		(line (pt 14 37)(pt 31 37))
		(line (pt 14 12)(pt 14 37))
		(arc (pt 31 37)(pt 30 12)(rect 18 12 43 37))
	)
)
(symbol
	(rect 608 608 672 656)
	(text "AND2" (rect 1 0 25 10)(font "Arial" (font_size 6)))
	(text "inst14" (rect 3 37 32 49)(font "Arial" ))
	(port
		(pt 0 16)
		(input)
		(text "IN1" (rect 2 7 19 19)(font "Courier New" (bold))(invisible))
		(text "IN1" (rect 2 7 19 19)(font "Courier New" (bold))(invisible))
		(line (pt 0 16)(pt 14 16))
	)
	(port
		(pt 0 32)
		(input)
		(text "IN2" (rect 2 23 19 35)(font "Courier New" (bold))(invisible))
		(text "IN2" (rect 2 23 19 35)(font "Courier New" (bold))(invisible))
		(line (pt 0 32)(pt 14 32))
	)
	(port
		(pt 64 24)
		(output)
		(text "OUT" (rect 48 15 65 27)(font "Courier New" (bold))(invisible))
		(text "OUT" (rect 48 15 65 27)(font "Courier New" (bold))(invisible))
		(line (pt 42 24)(pt 64 24))
	)
	(drawing
		(line (pt 14 12)(pt 30 12))
		(line (pt 14 37)(pt 31 37))
		(line (pt 14 12)(pt 14 37))
		(arc (pt 31 37)(pt 30 12)(rect 18 12 43 37))
	)
)
(symbol
	(rect 608 656 672 704)
	(text "AND2" (rect 1 0 25 10)(font "Arial" (font_size 6)))
	(text "inst15" (rect 3 37 32 49)(font "Arial" ))
	(port
		(pt 0 16)
		(input)
		(text "IN1" (rect 2 7 19 19)(font "Courier New" (bold))(invisible))
		(text "IN1" (rect 2 7 19 19)(font "Courier New" (bold))(invisible))
		(line (pt 0 16)(pt 14 16))
	)
	(port
		(pt 0 32)
		(input)
		(text "IN2" (rect 2 23 19 35)(font "Courier New" (bold))(invisible))
		(text "IN2" (rect 2 23 19 35)(font "Courier New" (bold))(invisible))
		(line (pt 0 32)(pt 14 32))
	)
	(port
		(pt 64 24)
		(output)
		(text "OUT" (rect 48 15 65 27)(font "Courier New" (bold))(invisible))
		(text "OUT" (rect 48 15 65 27)(font "Courier New" (bold))(invisible))
		(line (pt 42 24)(pt 64 24))
	)
	(drawing
		(line (pt 14 12)(pt 30 12))
		(line (pt 14 37)(pt 31 37))
		(line (pt 14 12)(pt 14 37))
		(arc (pt 31 37)(pt 30 12)(rect 18 12 43 37))
	)
)
(symbol
	(rect 608 704 672 752)
	(text "AND2" (rect 1 0 25 10)(font "Arial" (font_size 6)))
	(text "inst16" (rect 3 37 32 49)(font "Arial" ))
	(port
		(pt 0 16)
		(input)
		(text "IN1" (rect 2 7 19 19)(font "Courier New" (bold))(invisible))
		(text "IN1" (rect 2 7 19 19)(font "Courier New" (bold))(invisible))
		(line (pt 0 16)(pt 14 16))
	)
	(port
		(pt 0 32)
		(input)
		(text "IN2" (rect 2 23 19 35)(font "Courier New" (bold))(invisible))
		(text "IN2" (rect 2 23 19 35)(font "Courier New" (bold))(invisible))
		(line (pt 0 32)(pt 14 32))
	)
	(port
		(pt 64 24)
		(output)
		(text "OUT" (rect 48 15 65 27)(font "Courier New" (bold))(invisible))
		(text "OUT" (rect 48 15 65 27)(font "Courier New" (bold))(invisible))
		(line (pt 42 24)(pt 64 24))
	)
	(drawing
		(line (pt 14 12)(pt 30 12))
		(line (pt 14 37)(pt 31 37))
		(line (pt 14 12)(pt 14 37))
		(arc (pt 31 37)(pt 30 12)(rect 18 12 43 37))
	)
)
(symbol
	(rect 608 752 672 800)
	(text "AND2" (rect 1 0 25 10)(font "Arial" (font_size 6)))
	(text "inst17" (rect 3 37 32 49)(font "Arial" ))
	(port
		(pt 0 16)
		(input)
		(text "IN1" (rect 2 7 19 19)(font "Courier New" (bold))(invisible))
		(text "IN1" (rect 2 7 19 19)(font "Courier New" (bold))(invisible))
		(line (pt 0 16)(pt 14 16))
	)
	(port
		(pt 0 32)
		(input)
		(text "IN2" (rect 2 23 19 35)(font "Courier New" (bold))(invisible))
		(text "IN2" (rect 2 23 19 35)(font "Courier New" (bold))(invisible))
		(line (pt 0 32)(pt 14 32))
	)
	(port
		(pt 64 24)
		(output)
		(text "OUT" (rect 48 15 65 27)(font "Courier New" (bold))(invisible))
		(text "OUT" (rect 48 15 65 27)(font "Courier New" (bold))(invisible))
		(line (pt 42 24)(pt 64 24))
	)
	(drawing
		(line (pt 14 12)(pt 30 12))
		(line (pt 14 37)(pt 31 37))
		(line (pt 14 12)(pt 14 37))
		(arc (pt 31 37)(pt 30 12)(rect 18 12 43 37))
	)
)
(symbol
	(rect 792 96 856 240)
	(text "OR8" (rect 1 0 19 10)(font "Arial" (font_size 6)))
	(text "inst18" (rect 3 133 32 145)(font "Arial" ))
	(port
		(pt 0 16)
		(input)
		(text "IN1" (rect 2 7 19 19)(font "Courier New" (bold))(invisible))
		(text "IN1" (rect 2 7 19 19)(font "Courier New" (bold))(invisible))
		(line (pt 0 16)(pt 14 16))
	)
	(port
		(pt 0 48)
		(input)
		(text "IN3" (rect 2 39 19 51)(font "Courier New" (bold))(invisible))
		(text "IN3" (rect 2 39 19 51)(font "Courier New" (bold))(invisible))
		(line (pt 0 48)(pt 14 48))
	)
	(port
		(pt 0 32)
		(input)
		(text "IN2" (rect 2 23 19 35)(font "Courier New" (bold))(invisible))
		(text "IN2" (rect 2 23 19 35)(font "Courier New" (bold))(invisible))
		(line (pt 0 32)(pt 14 32))
	)
	(port
		(pt 0 64)
		(input)
		(text "IN4" (rect 2 55 19 67)(font "Courier New" (bold))(invisible))
		(text "IN4" (rect 2 55 19 67)(font "Courier New" (bold))(invisible))
		(line (pt 0 64)(pt 16 64))
	)
	(port
		(pt 0 96)
		(input)
		(text "IN6" (rect 2 87 19 99)(font "Courier New" (bold))(invisible))
		(text "IN6" (rect 2 87 19 99)(font "Courier New" (bold))(invisible))
		(line (pt 0 96)(pt 14 96))
	)
	(port
		(pt 0 80)
		(input)
		(text "IN5" (rect 2 71 19 83)(font "Courier New" (bold))(invisible))
		(text "IN5" (rect 2 71 19 83)(font "Courier New" (bold))(invisible))
		(line (pt 0 80)(pt 16 80))
	)
	(port
		(pt 0 112)
		(input)
		(text "IN7" (rect 2 103 19 115)(font "Courier New" (bold))(invisible))
		(text "IN7" (rect 2 103 19 115)(font "Courier New" (bold))(invisible))
		(line (pt 0 112)(pt 14 112))
	)
	(port
		(pt 0 128)
		(input)
		(text "IN8" (rect 2 119 19 131)(font "Courier New" (bold))(invisible))
		(text "IN8" (rect 2 119 19 131)(font "Courier New" (bold))(invisible))
		(line (pt 0 128)(pt 14 128))
	)
	(port
		(pt 64 72)
		(output)
		(text "OUT" (rect 48 63 65 75)(font "Courier New" (bold))(invisible))
		(text "OUT" (rect 48 63 65 75)(font "Courier New" (bold))(invisible))
		(line (pt 48 72)(pt 64 72))
	)
	(drawing
		(line (pt 14 131)(pt 14 83))
		(line (pt 14 84)(pt 25 84))
		(line (pt 14 61)(pt 25 61))
		(line (pt 14 61)(pt 14 13))
		(arc (pt 25 83)(pt 49 72)(rect -6 21 57 84))
		(arc (pt 49 72)(pt 25 61)(rect -6 61 57 124))
		(arc (pt 7 77)(pt 7 67)(rect -14 56 19 89))
	)
)
(symbol
	(rect 792 448 856 592)
	(text "OR8" (rect 1 0 19 10)(font "Arial" (font_size 6)))
	(text "inst19" (rect 3 133 32 145)(font "Arial" ))
	(port
		(pt 0 16)
		(input)
		(text "IN1" (rect 2 7 19 19)(font "Courier New" (bold))(invisible))
		(text "IN1" (rect 2 7 19 19)(font "Courier New" (bold))(invisible))
		(line (pt 0 16)(pt 14 16))
	)
	(port
		(pt 0 48)
		(input)
		(text "IN3" (rect 2 39 19 51)(font "Courier New" (bold))(invisible))
		(text "IN3" (rect 2 39 19 51)(font "Courier New" (bold))(invisible))
		(line (pt 0 48)(pt 14 48))
	)
	(port
		(pt 0 32)
		(input)
		(text "IN2" (rect 2 23 19 35)(font "Courier New" (bold))(invisible))
		(text "IN2" (rect 2 23 19 35)(font "Courier New" (bold))(invisible))
		(line (pt 0 32)(pt 14 32))
	)
	(port
		(pt 0 64)
		(input)
		(text "IN4" (rect 2 55 19 67)(font "Courier New" (bold))(invisible))
		(text "IN4" (rect 2 55 19 67)(font "Courier New" (bold))(invisible))
		(line (pt 0 64)(pt 16 64))
	)
	(port
		(pt 0 96)
		(input)
		(text "IN6" (rect 2 87 19 99)(font "Courier New" (bold))(invisible))
		(text "IN6" (rect 2 87 19 99)(font "Courier New" (bold))(invisible))
		(line (pt 0 96)(pt 14 96))
	)
	(port
		(pt 0 80)
		(input)
		(text "IN5" (rect 2 71 19 83)(font "Courier New" (bold))(invisible))
		(text "IN5" (rect 2 71 19 83)(font "Courier New" (bold))(invisible))
		(line (pt 0 80)(pt 16 80))
	)
	(port
		(pt 0 112)
		(input)
		(text "IN7" (rect 2 103 19 115)(font "Courier New" (bold))(invisible))
		(text "IN7" (rect 2 103 19 115)(font "Courier New" (bold))(invisible))
		(line (pt 0 112)(pt 14 112))
	)
	(port
		(pt 0 128)
		(input)
		(text "IN8" (rect 2 119 19 131)(font "Courier New" (bold))(invisible))
		(text "IN8" (rect 2 119 19 131)(font "Courier New" (bold))(invisible))
		(line (pt 0 128)(pt 14 128))
	)
	(port
		(pt 64 72)
		(output)
		(text "OUT" (rect 48 63 65 75)(font "Courier New" (bold))(invisible))
		(text "OUT" (rect 48 63 65 75)(font "Courier New" (bold))(invisible))
		(line (pt 48 72)(pt 64 72))
	)
	(drawing
		(line (pt 14 131)(pt 14 83))
		(line (pt 14 84)(pt 25 84))
		(line (pt 14 61)(pt 25 61))
		(line (pt 14 61)(pt 14 13))
		(arc (pt 25 83)(pt 49 72)(rect -6 21 57 84))
		(arc (pt 49 72)(pt 25 61)(rect -6 61 57 124))
		(arc (pt 7 77)(pt 7 67)(rect -14 56 19 89))
	)
)
(symbol
	(rect 944 304 1008 352)
	(text "OR2" (rect 1 0 19 10)(font "Arial" (font_size 6)))
	(text "inst20" (rect 3 37 32 49)(font "Arial" ))
	(port
		(pt 0 32)
		(input)
		(text "IN2" (rect 2 23 19 35)(font "Courier New" (bold))(invisible))
		(text "IN2" (rect 2 23 19 35)(font "Courier New" (bold))(invisible))
		(line (pt 0 32)(pt 15 32))
	)
	(port
		(pt 0 16)
		(input)
		(text "IN1" (rect 2 7 19 19)(font "Courier New" (bold))(invisible))
		(text "IN1" (rect 2 7 19 19)(font "Courier New" (bold))(invisible))
		(line (pt 0 16)(pt 15 16))
	)
	(port
		(pt 64 24)
		(output)
		(text "OUT" (rect 48 15 65 27)(font "Courier New" (bold))(invisible))
		(text "OUT" (rect 48 15 65 27)(font "Courier New" (bold))(invisible))
		(line (pt 48 24)(pt 64 24))
	)
	(drawing
		(line (pt 14 36)(pt 25 36))
		(line (pt 14 13)(pt 25 13))
		(arc (pt 7 29)(pt 7 19)(rect -14 8 19 41))
		(arc (pt 49 24)(pt 25 13)(rect -6 13 57 76))
		(arc (pt 25 35)(pt 49 24)(rect -6 -27 57 36))
	)
)
(symbol
	(rect 40 176 88 208)
	(text "NOT" (rect 1 0 21 10)(font "Arial" (font_size 6)))
	(text "inst22" (rect 3 21 32 33)(font "Arial" ))
	(port
		(pt 0 16)
		(input)
		(text "IN" (rect 2 7 13 19)(font "Courier New" (bold))(invisible))
		(text "IN" (rect 2 7 13 19)(font "Courier New" (bold))(invisible))
		(line (pt 0 16)(pt 13 16))
	)
	(port
		(pt 48 16)
		(output)
		(text "OUT" (rect 32 7 49 19)(font "Courier New" (bold))(invisible))
		(text "OUT" (rect 32 7 49 19)(font "Courier New" (bold))(invisible))
		(line (pt 39 16)(pt 48 16))
	)
	(drawing
		(line (pt 13 25)(pt 13 7))
		(line (pt 13 7)(pt 31 16))
		(line (pt 13 25)(pt 31 16))
		(circle (rect 31 12 39 20))
	)
)
(symbol
	(rect 40 208 88 240)
	(text "NOT" (rect 1 0 21 10)(font "Arial" (font_size 6)))
	(text "inst23" (rect 3 21 32 33)(font "Arial" ))
	(port
		(pt 0 16)
		(input)
		(text "IN" (rect 2 7 13 19)(font "Courier New" (bold))(invisible))
		(text "IN" (rect 2 7 13 19)(font "Courier New" (bold))(invisible))
		(line (pt 0 16)(pt 13 16))
	)
	(port
		(pt 48 16)
		(output)
		(text "OUT" (rect 32 7 49 19)(font "Courier New" (bold))(invisible))
		(text "OUT" (rect 32 7 49 19)(font "Courier New" (bold))(invisible))
		(line (pt 39 16)(pt 48 16))
	)
	(drawing
		(line (pt 13 25)(pt 13 7))
		(line (pt 13 7)(pt 31 16))
		(line (pt 13 25)(pt 31 16))
		(circle (rect 31 12 39 20))
	)
)
(symbol
	(rect 56 248 120 296)
	(text "OR2" (rect 1 0 19 10)(font "Arial" (font_size 6)))
	(text "inst24" (rect 3 37 32 49)(font "Arial" ))
	(port
		(pt 0 32)
		(input)
		(text "IN2" (rect 2 23 19 35)(font "Courier New" (bold))(invisible))
		(text "IN2" (rect 2 23 19 35)(font "Courier New" (bold))(invisible))
		(line (pt 0 32)(pt 15 32))
	)
	(port
		(pt 0 16)
		(input)
		(text "IN1" (rect 2 7 19 19)(font "Courier New" (bold))(invisible))
		(text "IN1" (rect 2 7 19 19)(font "Courier New" (bold))(invisible))
		(line (pt 0 16)(pt 15 16))
	)
	(port
		(pt 64 24)
		(output)
		(text "OUT" (rect 48 15 65 27)(font "Courier New" (bold))(invisible))
		(text "OUT" (rect 48 15 65 27)(font "Courier New" (bold))(invisible))
		(line (pt 48 24)(pt 64 24))
	)
	(drawing
		(line (pt 14 36)(pt 25 36))
		(line (pt 14 13)(pt 25 13))
		(arc (pt 7 29)(pt 7 19)(rect -14 8 19 41))
		(arc (pt 49 24)(pt 25 13)(rect -6 13 57 76))
		(arc (pt 25 35)(pt 49 24)(rect -6 -27 57 36))
	)
)
(symbol
	(rect 48 464 96 496)
	(text "NOT" (rect 1 0 21 10)(font "Arial" (font_size 6)))
	(text "inst27" (rect 3 21 32 33)(font "Arial" ))
	(port
		(pt 0 16)
		(input)
		(text "IN" (rect 2 7 13 19)(font "Courier New" (bold))(invisible))
		(text "IN" (rect 2 7 13 19)(font "Courier New" (bold))(invisible))
		(line (pt 0 16)(pt 13 16))
	)
	(port
		(pt 48 16)
		(output)
		(text "OUT" (rect 32 7 49 19)(font "Courier New" (bold))(invisible))
		(text "OUT" (rect 32 7 49 19)(font "Courier New" (bold))(invisible))
		(line (pt 39 16)(pt 48 16))
	)
	(drawing
		(line (pt 13 25)(pt 13 7))
		(line (pt 13 7)(pt 31 16))
		(line (pt 13 25)(pt 31 16))
		(circle (rect 31 12 39 20))
	)
)
(symbol
	(rect 48 496 96 528)
	(text "NOT" (rect 1 0 21 10)(font "Arial" (font_size 6)))
	(text "inst28" (rect 3 21 32 33)(font "Arial" ))
	(port
		(pt 0 16)
		(input)
		(text "IN" (rect 2 7 13 19)(font "Courier New" (bold))(invisible))
		(text "IN" (rect 2 7 13 19)(font "Courier New" (bold))(invisible))
		(line (pt 0 16)(pt 13 16))
	)
	(port
		(pt 48 16)
		(output)
		(text "OUT" (rect 32 7 49 19)(font "Courier New" (bold))(invisible))
		(text "OUT" (rect 32 7 49 19)(font "Courier New" (bold))(invisible))
		(line (pt 39 16)(pt 48 16))
	)
	(drawing
		(line (pt 13 25)(pt 13 7))
		(line (pt 13 7)(pt 31 16))
		(line (pt 13 25)(pt 31 16))
		(circle (rect 31 12 39 20))
	)
)
(symbol
	(rect 48 528 96 560)
	(text "NOT" (rect 1 0 21 10)(font "Arial" (font_size 6)))
	(text "inst29" (rect 3 21 32 33)(font "Arial" ))
	(port
		(pt 0 16)
		(input)
		(text "IN" (rect 2 7 13 19)(font "Courier New" (bold))(invisible))
		(text "IN" (rect 2 7 13 19)(font "Courier New" (bold))(invisible))
		(line (pt 0 16)(pt 13 16))
	)
	(port
		(pt 48 16)
		(output)
		(text "OUT" (rect 32 7 49 19)(font "Courier New" (bold))(invisible))
		(text "OUT" (rect 32 7 49 19)(font "Courier New" (bold))(invisible))
		(line (pt 39 16)(pt 48 16))
	)
	(drawing
		(line (pt 13 25)(pt 13 7))
		(line (pt 13 7)(pt 31 16))
		(line (pt 13 25)(pt 31 16))
		(circle (rect 31 12 39 20))
	)
)
(symbol
	(rect 48 560 96 592)
	(text "NOT" (rect 1 0 21 10)(font "Arial" (font_size 6)))
	(text "inst30" (rect 3 21 32 33)(font "Arial" ))
	(port
		(pt 0 16)
		(input)
		(text "IN" (rect 2 7 13 19)(font "Courier New" (bold))(invisible))
		(text "IN" (rect 2 7 13 19)(font "Courier New" (bold))(invisible))
		(line (pt 0 16)(pt 13 16))
	)
	(port
		(pt 48 16)
		(output)
		(text "OUT" (rect 32 7 49 19)(font "Courier New" (bold))(invisible))
		(text "OUT" (rect 32 7 49 19)(font "Courier New" (bold))(invisible))
		(line (pt 39 16)(pt 48 16))
	)
	(drawing
		(line (pt 13 25)(pt 13 7))
		(line (pt 13 7)(pt 31 16))
		(line (pt 13 25)(pt 31 16))
		(circle (rect 31 12 39 20))
	)
)
(symbol
	(rect 48 592 96 624)
	(text "NOT" (rect 1 0 21 10)(font "Arial" (font_size 6)))
	(text "inst31" (rect 3 21 32 33)(font "Arial" ))
	(port
		(pt 0 16)
		(input)
		(text "IN" (rect 2 7 13 19)(font "Courier New" (bold))(invisible))
		(text "IN" (rect 2 7 13 19)(font "Courier New" (bold))(invisible))
		(line (pt 0 16)(pt 13 16))
	)
	(port
		(pt 48 16)
		(output)
		(text "OUT" (rect 32 7 49 19)(font "Courier New" (bold))(invisible))
		(text "OUT" (rect 32 7 49 19)(font "Courier New" (bold))(invisible))
		(line (pt 39 16)(pt 48 16))
	)
	(drawing
		(line (pt 13 25)(pt 13 7))
		(line (pt 13 7)(pt 31 16))
		(line (pt 13 25)(pt 31 16))
		(circle (rect 31 12 39 20))
	)
)
(symbol
	(rect 48 624 96 656)
	(text "NOT" (rect 1 0 21 10)(font "Arial" (font_size 6)))
	(text "inst32" (rect 3 21 32 33)(font "Arial" ))
	(port
		(pt 0 16)
		(input)
		(text "IN" (rect 2 7 13 19)(font "Courier New" (bold))(invisible))
		(text "IN" (rect 2 7 13 19)(font "Courier New" (bold))(invisible))
		(line (pt 0 16)(pt 13 16))
	)
	(port
		(pt 48 16)
		(output)
		(text "OUT" (rect 32 7 49 19)(font "Courier New" (bold))(invisible))
		(text "OUT" (rect 32 7 49 19)(font "Courier New" (bold))(invisible))
		(line (pt 39 16)(pt 48 16))
	)
	(drawing
		(line (pt 13 25)(pt 13 7))
		(line (pt 13 7)(pt 31 16))
		(line (pt 13 25)(pt 31 16))
		(circle (rect 31 12 39 20))
	)
)
(symbol
	(rect 48 656 96 688)
	(text "NOT" (rect 1 0 21 10)(font "Arial" (font_size 6)))
	(text "inst33" (rect 3 21 32 33)(font "Arial" ))
	(port
		(pt 0 16)
		(input)
		(text "IN" (rect 2 7 13 19)(font "Courier New" (bold))(invisible))
		(text "IN" (rect 2 7 13 19)(font "Courier New" (bold))(invisible))
		(line (pt 0 16)(pt 13 16))
	)
	(port
		(pt 48 16)
		(output)
		(text "OUT" (rect 32 7 49 19)(font "Courier New" (bold))(invisible))
		(text "OUT" (rect 32 7 49 19)(font "Courier New" (bold))(invisible))
		(line (pt 39 16)(pt 48 16))
	)
	(drawing
		(line (pt 13 25)(pt 13 7))
		(line (pt 13 7)(pt 31 16))
		(line (pt 13 25)(pt 31 16))
		(circle (rect 31 12 39 20))
	)
)
(symbol
	(rect 608 64 672 112)
	(text "AND2" (rect 1 0 25 10)(font "Arial" (font_size 6)))
	(text "inst882" (rect 3 37 38 49)(font "Arial" ))
	(port
		(pt 0 16)
		(input)
		(text "IN1" (rect 2 7 19 19)(font "Courier New" (bold))(invisible))
		(text "IN1" (rect 2 7 19 19)(font "Courier New" (bold))(invisible))
		(line (pt 0 16)(pt 14 16))
	)
	(port
		(pt 0 32)
		(input)
		(text "IN2" (rect 2 23 19 35)(font "Courier New" (bold))(invisible))
		(text "IN2" (rect 2 23 19 35)(font "Courier New" (bold))(invisible))
		(line (pt 0 32)(pt 14 32))
	)
	(port
		(pt 64 24)
		(output)
		(text "OUT" (rect 48 15 65 27)(font "Courier New" (bold))(invisible))
		(text "OUT" (rect 48 15 65 27)(font "Courier New" (bold))(invisible))
		(line (pt 42 24)(pt 64 24))
	)
	(drawing
		(line (pt 14 12)(pt 30 12))
		(line (pt 14 37)(pt 31 37))
		(line (pt 14 12)(pt 14 37))
		(arc (pt 31 37)(pt 30 12)(rect 18 12 43 37))
	)
)
(symbol
	(rect 40 144 88 176)
	(text "NOT" (rect 1 0 21 10)(font "Arial" (font_size 6)))
	(text "inst888" (rect 3 21 38 33)(font "Arial" ))
	(port
		(pt 0 16)
		(input)
		(text "IN" (rect 2 7 13 19)(font "Courier New" (bold))(invisible))
		(text "IN" (rect 2 7 13 19)(font "Courier New" (bold))(invisible))
		(line (pt 0 16)(pt 13 16))
	)
	(port
		(pt 48 16)
		(output)
		(text "OUT" (rect 32 7 49 19)(font "Courier New" (bold))(invisible))
		(text "OUT" (rect 32 7 49 19)(font "Courier New" (bold))(invisible))
		(line (pt 39 16)(pt 48 16))
	)
	(drawing
		(line (pt 13 25)(pt 13 7))
		(line (pt 13 7)(pt 31 16))
		(line (pt 13 25)(pt 31 16))
		(circle (rect 31 12 39 20))
	)
)
(symbol
	(rect 56 344 120 392)
	(text "OR2" (rect 1 0 19 10)(font "Arial" (font_size 6)))
	(text "inst1" (rect 3 37 26 49)(font "Arial" ))
	(port
		(pt 0 32)
		(input)
		(text "IN2" (rect 2 23 19 35)(font "Courier New" (bold))(invisible))
		(text "IN2" (rect 2 23 19 35)(font "Courier New" (bold))(invisible))
		(line (pt 0 32)(pt 15 32))
	)
	(port
		(pt 0 16)
		(input)
		(text "IN1" (rect 2 7 19 19)(font "Courier New" (bold))(invisible))
		(text "IN1" (rect 2 7 19 19)(font "Courier New" (bold))(invisible))
		(line (pt 0 16)(pt 15 16))
	)
	(port
		(pt 64 24)
		(output)
		(text "OUT" (rect 48 15 65 27)(font "Courier New" (bold))(invisible))
		(text "OUT" (rect 48 15 65 27)(font "Courier New" (bold))(invisible))
		(line (pt 48 24)(pt 64 24))
	)
	(drawing
		(line (pt 14 36)(pt 25 36))
		(line (pt 14 13)(pt 25 13))
		(arc (pt 7 29)(pt 7 19)(rect -14 8 19 41))
		(arc (pt 49 24)(pt 25 13)(rect -6 13 57 76))
		(arc (pt 25 35)(pt 49 24)(rect -6 -27 57 36))
	)
)
(symbol
	(rect 760 248 792 280)
	(text "GND" (rect 8 16 29 26)(font "Arial" (font_size 6)))
	(text "inst2" (rect 3 21 26 33)(font "Arial" )(invisible))
	(port
		(pt 16 0)
		(output)
		(text "1" (rect 18 0 23 12)(font "Courier New" (bold))(invisible))
		(text "1" (rect 18 0 23 12)(font "Courier New" (bold))(invisible))
		(line (pt 16 8)(pt 16 0))
	)
	(drawing
		(line (pt 8 8)(pt 16 16))
		(line (pt 16 16)(pt 24 8))
		(line (pt 8 8)(pt 24 8))
	)
)
(connector
	(pt 296 88)
	(pt 296 56)
)
(connector
	(pt 288 88)
	(pt 296 88)
)
(connector
	(pt 296 56)
	(pt 304 56)
)
(connector
	(pt 288 104)
	(pt 312 104)
)
(connector
	(pt 312 80)
	(pt 320 80)
)
(connector
	(pt 312 104)
	(pt 312 80)
)
(connector
	(text "usl2" (rect 317 104 337 116)(font "Arial" ))
	(pt 288 120)
	(pt 328 120)
)
(connector
	(text "usl3" (rect 317 120 337 132)(font "Arial" ))
	(pt 288 136)
	(pt 328 136)
)
(connector
	(text "usl4" (rect 317 136 337 148)(font "Arial" ))
	(pt 288 152)
	(pt 328 152)
)
(connector
	(text "usl5" (rect 317 152 337 164)(font "Arial" ))
	(pt 288 168)
	(pt 328 168)
)
(connector
	(text "usl6" (rect 317 168 337 180)(font "Arial" ))
	(pt 288 184)
	(pt 328 184)
)
(connector
	(text "usl7" (rect 317 184 337 196)(font "Arial" ))
	(pt 288 200)
	(pt 328 200)
)
(connector
	(text "usl8" (rect 317 200 337 212)(font "Arial" ))
	(pt 288 216)
	(pt 328 216)
)
(connector
	(text "usl9" (rect 317 216 337 228)(font "Arial" ))
	(pt 288 232)
	(pt 328 232)
)
(connector
	(text "usl10" (rect 317 232 342 244)(font "Arial" ))
	(pt 288 248)
	(pt 328 248)
)
(connector
	(text "usl11" (rect 317 248 342 260)(font "Arial" ))
	(pt 288 264)
	(pt 328 264)
)
(connector
	(text "usl12" (rect 317 264 342 276)(font "Arial" ))
	(pt 288 280)
	(pt 328 280)
)
(connector
	(text "usl13" (rect 317 280 342 292)(font "Arial" ))
	(pt 288 296)
	(pt 328 296)
)
(connector
	(text "usl14" (rect 317 296 342 308)(font "Arial" ))
	(pt 288 312)
	(pt 328 312)
)
(connector
	(text "usl15" (rect 317 312 342 324)(font "Arial" ))
	(pt 288 328)
	(pt 328 328)
)
(connector
	(text "usl16" (rect 317 328 342 340)(font "Arial" ))
	(pt 288 344)
	(pt 328 344)
)
(connector
	(text "usl2" (rect 576 64 596 76)(font "Arial" ))
	(pt 608 80)
	(pt 568 80)
)
(connector
	(text "usl3" (rect 576 112 596 124)(font "Arial" ))
	(pt 608 128)
	(pt 568 128)
)
(connector
	(text "usl4" (rect 576 160 596 172)(font "Arial" ))
	(pt 608 176)
	(pt 568 176)
)
(connector
	(text "usl5" (rect 576 208 596 220)(font "Arial" ))
	(pt 608 224)
	(pt 568 224)
)
(connector
	(text "usl6" (rect 576 256 596 268)(font "Arial" ))
	(pt 608 272)
	(pt 568 272)
)
(connector
	(text "usl7" (rect 576 304 596 316)(font "Arial" ))
	(pt 608 320)
	(pt 568 320)
)
(connector
	(text "nSTART" (rect 560 80 600 92)(font "Arial" ))
	(pt 608 96)
	(pt 568 96)
)
(connector
	(text "ngropr" (rect 560 128 590 140)(font "Arial" ))
	(pt 608 144)
	(pt 568 144)
)
(connector
	(text "ngradr" (rect 560 176 590 188)(font "Arial" ))
	(pt 608 192)
	(pt 568 192)
)
(connector
	(text "x1" (rect 560 224 571 236)(font "Arial" ))
	(pt 608 240)
	(pt 568 240)
)
(connector
	(text "x2" (rect 560 272 571 284)(font "Arial" ))
	(pt 608 288)
	(pt 568 288)
)
(connector
	(text "x3" (rect 560 320 571 332)(font "Arial" ))
	(pt 608 336)
	(pt 568 336)
)
(connector
	(pt 672 88)
	(pt 688 88)
)
(connector
	(pt 688 184)
	(pt 672 184)
)
(connector
	(pt 704 232)
	(pt 672 232)
)
(connector
	(pt 720 280)
	(pt 672 280)
)
(connector
	(pt 736 328)
	(pt 672 328)
)
(connector
	(pt 688 88)
	(pt 688 112)
)
(connector
	(pt 672 136)
	(pt 672 128)
)
(connector
	(pt 688 184)
	(pt 688 144)
)
(connector
	(pt 704 232)
	(pt 704 160)
)
(connector
	(pt 720 280)
	(pt 720 176)
)
(connector
	(pt 736 328)
	(pt 736 192)
)
(connector
	(pt 688 112)
	(pt 792 112)
)
(connector
	(pt 688 144)
	(pt 792 144)
)
(connector
	(pt 672 128)
	(pt 792 128)
)
(connector
	(pt 704 160)
	(pt 792 160)
)
(connector
	(pt 736 192)
	(pt 792 192)
)
(connector
	(pt 720 176)
	(pt 792 176)
)
(connector
	(pt 856 168)
	(pt 944 168)
)
(connector
	(pt 944 168)
	(pt 944 320)
)
(connector
	(pt 1008 328)
	(pt 1056 328)
)
(connector
	(pt 32 160)
	(pt 40 160)
)
(connector
	(text "nSTART" (rect 96 144 136 156)(font "Arial" ))
	(pt 88 160)
	(pt 144 160)
)
(connector
	(pt 32 192)
	(pt 40 192)
)
(connector
	(pt 32 224)
	(pt 40 224)
)
(connector
	(text "ngropr" (rect 96 176 126 188)(font "Arial" ))
	(pt 88 192)
	(pt 144 192)
)
(connector
	(text "ngradr" (rect 96 208 126 220)(font "Arial" ))
	(pt 88 224)
	(pt 144 224)
)
(connector
	(pt 40 288)
	(pt 40 280)
)
(connector
	(pt 32 288)
	(pt 40 288)
)
(connector
	(pt 40 280)
	(pt 56 280)
)
(connector
	(pt 40 256)
	(pt 40 264)
)
(connector
	(pt 32 256)
	(pt 40 256)
)
(connector
	(pt 40 264)
	(pt 56 264)
)
(connector
	(text "x1" (rect 128 256 139 268)(font "Arial" ))
	(pt 120 272)
	(pt 160 272)
)
(connector
	(text "x2" (rect 40 304 51 316)(font "Arial" ))
	(pt 32 320)
	(pt 88 320)
)
(connector
	(pt 32 480)
	(pt 48 480)
)
(connector
	(pt 32 512)
	(pt 48 512)
)
(connector
	(pt 32 544)
	(pt 48 544)
)
(connector
	(pt 32 576)
	(pt 48 576)
)
(connector
	(pt 32 608)
	(pt 48 608)
)
(connector
	(pt 32 640)
	(pt 48 640)
)
(connector
	(pt 32 672)
	(pt 48 672)
)
(connector
	(text "nbrpom" (rect 104 464 140 476)(font "Arial" ))
	(pt 96 480)
	(pt 160 480)
)
(connector
	(text "nprekid" (rect 104 496 139 508)(font "Arial" ))
	(pt 96 512)
	(pt 160 512)
)
(connector
	(text "nPRINS" (rect 104 528 144 540)(font "Arial" ))
	(pt 96 544)
	(pt 160 544)
)
(connector
	(text "nPRCOD" (rect 104 560 150 572)(font "Arial" ))
	(pt 96 576)
	(pt 160 576)
)
(connector
	(text "nPRADR" (rect 104 592 148 604)(font "Arial" ))
	(pt 96 608)
	(pt 160 608)
)
(connector
	(text "nPRINM" (rect 104 624 145 636)(font "Arial" ))
	(pt 96 640)
	(pt 160 640)
)
(connector
	(text "nprintr" (rect 104 656 134 668)(font "Arial" ))
	(pt 96 672)
	(pt 160 672)
)
(connector
	(pt 328 376)
	(pt 288 376)
)
(connector
	(pt 288 360)
	(pt 328 360)
)
(connector
	(text "<<__$DEF_ALIAS2784>>" (rect 32 336 155 348)(font "Arial" )(invisible))
	(pt 32 352)
	(pt 40 352)
)
(connector
	(text "<<__$DEF_ALIAS2792>>" (rect 32 368 155 380)(font "Arial" )(invisible))
	(pt 32 384)
	(pt 40 384)
)
(connector
	(pt 40 360)
	(pt 56 360)
)
(connector
	(pt 40 376)
	(pt 56 376)
)
(connector
	(pt 40 384)
	(pt 40 376)
)
(connector
	(pt 40 352)
	(pt 40 360)
)
(connector
	(text "x3" (rect 128 352 139 364)(font "Arial" ))
	(pt 160 368)
	(pt 120 368)
)
(connector
	(text "STORE" (rect 560 368 596 380)(font "Arial" ))
	(pt 608 384)
	(pt 568 384)
)
(connector
	(pt 672 376)
	(pt 752 376)
)
(connector
	(pt 752 208)
	(pt 752 376)
)
(connector
	(pt 792 208)
	(pt 752 208)
)
(connector
	(text "regdir" (rect 560 432 587 444)(font "Arial" ))
	(pt 608 448)
	(pt 568 448)
)
(connector
	(text "nbrpom" (rect 560 480 596 492)(font "Arial" ))
	(pt 608 496)
	(pt 568 496)
)
(connector
	(text "nprekid" (rect 560 528 595 540)(font "Arial" ))
	(pt 608 544)
	(pt 568 544)
)
(connector
	(text "nPRINS" (rect 560 576 600 588)(font "Arial" ))
	(pt 608 592)
	(pt 568 592)
)
(connector
	(text "nPRCOD" (rect 560 624 606 636)(font "Arial" ))
	(pt 608 640)
	(pt 568 640)
)
(connector
	(text "nPRADR" (rect 560 672 604 684)(font "Arial" ))
	(pt 608 688)
	(pt 568 688)
)
(connector
	(text "nPRINM" (rect 560 720 601 732)(font "Arial" ))
	(pt 608 736)
	(pt 568 736)
)
(connector
	(text "nprintr" (rect 560 768 590 780)(font "Arial" ))
	(pt 608 784)
	(pt 568 784)
)
(connector
	(pt 672 440)
	(pt 688 440)
)
(connector
	(pt 688 536)
	(pt 672 536)
)
(connector
	(pt 704 584)
	(pt 672 584)
)
(connector
	(pt 720 632)
	(pt 672 632)
)
(connector
	(pt 736 680)
	(pt 672 680)
)
(connector
	(pt 688 440)
	(pt 688 464)
)
(connector
	(pt 672 488)
	(pt 672 480)
)
(connector
	(pt 688 536)
	(pt 688 496)
)
(connector
	(pt 704 584)
	(pt 704 512)
)
(connector
	(pt 720 632)
	(pt 720 528)
)
(connector
	(pt 736 680)
	(pt 736 544)
)
(connector
	(pt 688 464)
	(pt 792 464)
)
(connector
	(pt 688 496)
	(pt 792 496)
)
(connector
	(pt 672 480)
	(pt 792 480)
)
(connector
	(pt 704 512)
	(pt 792 512)
)
(connector
	(pt 736 544)
	(pt 792 544)
)
(connector
	(pt 720 528)
	(pt 792 528)
)
(connector
	(pt 792 560)
	(pt 752 560)
)
(connector
	(pt 752 728)
	(pt 752 560)
)
(connector
	(pt 752 728)
	(pt 672 728)
)
(connector
	(pt 792 576)
	(pt 768 576)
)
(connector
	(pt 768 776)
	(pt 768 576)
)
(connector
	(pt 768 776)
	(pt 672 776)
)
(connector
	(pt 944 520)
	(pt 856 520)
)
(connector
	(pt 944 336)
	(pt 944 520)
)
(connector
	(text "usl8" (rect 576 352 596 364)(font "Arial" ))
	(pt 608 368)
	(pt 568 368)
)
(connector
	(text "usl9" (rect 576 416 596 428)(font "Arial" ))
	(pt 608 432)
	(pt 568 432)
)
(connector
	(text "usl10" (rect 576 464 601 476)(font "Arial" ))
	(pt 608 480)
	(pt 568 480)
)
(connector
	(text "usl11" (rect 576 512 601 524)(font "Arial" ))
	(pt 608 528)
	(pt 568 528)
)
(connector
	(text "usl12" (rect 576 560 601 572)(font "Arial" ))
	(pt 608 576)
	(pt 568 576)
)
(connector
	(text "usl13" (rect 576 608 601 620)(font "Arial" ))
	(pt 608 624)
	(pt 568 624)
)
(connector
	(text "usl14" (rect 576 656 601 668)(font "Arial" ))
	(pt 608 672)
	(pt 568 672)
)
(connector
	(text "usl15" (rect 576 704 601 716)(font "Arial" ))
	(pt 608 720)
	(pt 568 720)
)
(connector
	(text "usl16" (rect 576 752 601 764)(font "Arial" ))
	(pt 608 768)
	(pt 568 768)
)
(connector
	(pt 792 224)
	(pt 776 224)
)
(connector
	(pt 776 224)
	(pt 776 248)
)
