/*
WARNING: Do NOT edit the input and output ports in this file in a text
editor if you plan to continue editing the block that represents it in
the Block Editor! File corruption is VERY likely to occur.
*/
/*
Copyright (C) 1991-2013 Altera Corporation
Your use of Altera Corporation's design tools, logic functions 
and other software and tools, and its AMPP partner logic 
functions, and any output files from any of the foregoing 
(including device programming or simulation files), and any 
associated documentation or information are expressly subject 
to the terms and conditions of the Altera Program License 
Subscription Agreement, Altera MegaCore Function License 
Agreement, or other applicable license agreement, including, 
without limitation, that your use is for the sole purpose of 
programming logic devices manufactured by Altera and sold by 
Altera or its authorized distributors.  Please refer to the 
applicable agreement for further details.
*/
(header "graphic" (version "1.4"))
(pin
	(input)
	(rect 104 -304 272 -288)
	(text "INPUT" (rect 125 0 153 10)(font "Arial" (font_size 6)))
	(text "CLK" (rect 5 0 26 12)(font "Arial" ))
	(pt 168 8)
	(drawing
		(line (pt 84 12)(pt 109 12))
		(line (pt 84 4)(pt 109 4))
		(line (pt 113 8)(pt 168 8))
		(line (pt 84 12)(pt 84 4))
		(line (pt 109 4)(pt 113 8))
		(line (pt 109 12)(pt 113 8))
	)
	(text "VCC" (rect 128 7 148 17)(font "Arial" (font_size 6)))
)
(pin
	(output)
	(rect 664 920 840 936)
	(text "OUTPUT" (rect 1 0 39 10)(font "Arial" (font_size 6)))
	(text "READ_TIME" (rect 90 0 151 12)(font "Arial" ))
	(pt 0 8)
	(drawing
		(line (pt 0 8)(pt 52 8))
		(line (pt 52 4)(pt 78 4))
		(line (pt 52 12)(pt 78 12))
		(line (pt 52 12)(pt 52 4))
		(line (pt 78 4)(pt 82 8))
		(line (pt 82 8)(pt 78 12))
		(line (pt 78 12)(pt 82 8))
	)
)
(pin
	(output)
	(rect 1560 1296 1739 1312)
	(text "OUTPUT" (rect 1 0 39 10)(font "Arial" (font_size 6)))
	(text "REFRESH_TIME" (rect 90 0 173 12)(font "Arial" ))
	(pt 0 8)
	(drawing
		(line (pt 0 8)(pt 52 8))
		(line (pt 52 4)(pt 78 4))
		(line (pt 52 12)(pt 78 12))
		(line (pt 52 12)(pt 52 4))
		(line (pt 78 4)(pt 82 8))
		(line (pt 82 8)(pt 78 12))
		(line (pt 78 12)(pt 82 8))
	)
)
(pin
	(output)
	(rect 1416 -16 1592 0)
	(text "OUTPUT" (rect 1 0 39 10)(font "Arial" (font_size 6)))
	(text "X[9..0]" (rect 90 0 121 12)(font "Arial" ))
	(pt 0 8)
	(drawing
		(line (pt 0 8)(pt 52 8))
		(line (pt 52 4)(pt 78 4))
		(line (pt 52 12)(pt 78 12))
		(line (pt 52 12)(pt 52 4))
		(line (pt 78 4)(pt 82 8))
		(line (pt 82 8)(pt 78 12))
		(line (pt 78 12)(pt 82 8))
	)
)
(pin
	(output)
	(rect 1416 16 1592 32)
	(text "OUTPUT" (rect 1 0 39 10)(font "Arial" (font_size 6)))
	(text "Y[9..0]" (rect 90 0 124 12)(font "Arial" ))
	(pt 0 8)
	(drawing
		(line (pt 0 8)(pt 52 8))
		(line (pt 52 4)(pt 78 4))
		(line (pt 52 12)(pt 78 12))
		(line (pt 52 12)(pt 52 4))
		(line (pt 78 4)(pt 82 8))
		(line (pt 82 8)(pt 78 12))
		(line (pt 78 12)(pt 82 8))
	)
)
(pin
	(output)
	(rect 1424 288 1600 304)
	(text "OUTPUT" (rect 1 0 39 10)(font "Arial" (font_size 6)))
	(text "H_SYNC" (rect 90 0 136 12)(font "Arial" ))
	(pt 0 8)
	(drawing
		(line (pt 0 8)(pt 52 8))
		(line (pt 52 4)(pt 78 4))
		(line (pt 52 12)(pt 78 12))
		(line (pt 52 12)(pt 52 4))
		(line (pt 78 4)(pt 82 8))
		(line (pt 82 8)(pt 78 12))
		(line (pt 78 12)(pt 82 8))
	)
)
(pin
	(output)
	(rect 1424 528 1600 544)
	(text "OUTPUT" (rect 1 0 39 10)(font "Arial" (font_size 6)))
	(text "V_SYNC" (rect 90 0 134 12)(font "Arial" ))
	(pt 0 8)
	(drawing
		(line (pt 0 8)(pt 52 8))
		(line (pt 52 4)(pt 78 4))
		(line (pt 52 12)(pt 78 12))
		(line (pt 52 12)(pt 52 4))
		(line (pt 78 4)(pt 82 8))
		(line (pt 82 8)(pt 78 12))
		(line (pt 78 12)(pt 82 8))
	)
)
(pin
	(output)
	(rect 1424 776 1600 792)
	(text "OUTPUT" (rect 1 0 39 10)(font "Arial" (font_size 6)))
	(text "DISP_EN" (rect 90 0 137 12)(font "Arial" ))
	(pt 0 8)
	(drawing
		(line (pt 0 8)(pt 52 8))
		(line (pt 52 4)(pt 78 4))
		(line (pt 52 12)(pt 78 12))
		(line (pt 52 12)(pt 52 4))
		(line (pt 78 4)(pt 82 8))
		(line (pt 82 8)(pt 78 12))
		(line (pt 78 12)(pt 82 8))
	)
)
(pin
	(output)
	(rect 1056 1824 1232 1840)
	(text "OUTPUT" (rect 1 0 39 10)(font "Arial" (font_size 6)))
	(text "WRITE_TIME" (rect 90 0 156 12)(font "Arial" ))
	(pt 0 8)
	(drawing
		(line (pt 0 8)(pt 52 8))
		(line (pt 52 4)(pt 78 4))
		(line (pt 52 12)(pt 78 12))
		(line (pt 52 12)(pt 52 4))
		(line (pt 78 4)(pt 82 8))
		(line (pt 82 8)(pt 78 12))
		(line (pt 78 12)(pt 82 8))
	)
)
(symbol
	(rect 560 904 624 952)
	(text "AND2" (rect 1 0 25 10)(font "Arial" (font_size 6)))
	(text "inst22" (rect 3 37 32 49)(font "Arial" ))
	(port
		(pt 0 16)
		(input)
		(text "IN1" (rect 2 7 19 19)(font "Courier New" (bold))(invisible))
		(text "IN1" (rect 2 7 19 19)(font "Courier New" (bold))(invisible))
		(line (pt 0 16)(pt 14 16))
	)
	(port
		(pt 0 32)
		(input)
		(text "IN2" (rect 2 23 19 35)(font "Courier New" (bold))(invisible))
		(text "IN2" (rect 2 23 19 35)(font "Courier New" (bold))(invisible))
		(line (pt 0 32)(pt 14 32))
	)
	(port
		(pt 64 24)
		(output)
		(text "OUT" (rect 48 15 65 27)(font "Courier New" (bold))(invisible))
		(text "OUT" (rect 48 15 65 27)(font "Courier New" (bold))(invisible))
		(line (pt 42 24)(pt 64 24))
	)
	(drawing
		(line (pt 14 12)(pt 30 12))
		(line (pt 14 37)(pt 31 37))
		(line (pt 14 12)(pt 14 37))
		(arc (pt 31 37)(pt 30 12)(rect 18 12 43 37))
	)
)
(symbol
	(rect 192 768 352 840)
	(text "CMPX" (rect 5 0 34 12)(font "Arial" ))
	(text "inst23" (rect 8 56 37 68)(font "Arial" ))
	(port
		(pt 48 0)
		(input)
		(text "A[size-1..0]" (rect 0 0 55 12)(font "Arial" ))
		(text "  A" (rect 40 16 55 28)(font "Arial" ))
		(line (pt 48 0)(pt 48 17)(line_width 3))
	)
	(port
		(pt 104 0)
		(input)
		(text "B[size-1..0]" (rect 0 0 55 12)(font "Arial" ))
		(text "  B" (rect 96 16 110 28)(font "Arial" ))
		(line (pt 104 0)(pt 104 17)(line_width 3))
	)
	(port
		(pt 48 72)
		(output)
		(text "ls" (rect 0 -40 8 -28)(font "Arial" ))
		(text "A<B" (rect 40 40 60 52)(font "Arial" ))
		(line (pt 48 72)(pt 48 56))
	)
	(port
		(pt 80 72)
		(output)
		(text "eq" (rect 0 -40 11 -28)(font "Arial" ))
		(text "A=B" (rect 72 40 92 52)(font "Arial" ))
		(line (pt 80 72)(pt 80 56))
	)
	(port
		(pt 112 72)
		(output)
		(text "gr" (rect 0 -40 9 -28)(font "Arial" ))
		(text "A>B" (rect 104 40 124 52)(font "Arial" ))
		(line (pt 112 72)(pt 112 56))
	)
	(parameter
		"size"
		"11"
		""
		(type "PARAMETER_SIGNED_DEC")	)
	(drawing
		(text " CMP" (rect 64 24 97 38)(font "Arial" (color 0 0 0)(font_size 8)(bold)))
		(rectangle (rect 16 16 136 56))
	)
	(annotation_block (parameter)(rect 328 752 510 780))
)
(symbol
	(rect 192 928 352 1000)
	(text "CMPX" (rect 5 0 34 12)(font "Arial" ))
	(text "inst25" (rect 8 56 37 68)(font "Arial" ))
	(port
		(pt 48 0)
		(input)
		(text "A[size-1..0]" (rect 0 0 55 12)(font "Arial" ))
		(text "  A" (rect 40 16 55 28)(font "Arial" ))
		(line (pt 48 0)(pt 48 17)(line_width 3))
	)
	(port
		(pt 104 0)
		(input)
		(text "B[size-1..0]" (rect 0 0 55 12)(font "Arial" ))
		(text "  B" (rect 96 16 110 28)(font "Arial" ))
		(line (pt 104 0)(pt 104 17)(line_width 3))
	)
	(port
		(pt 48 72)
		(output)
		(text "ls" (rect 0 -40 8 -28)(font "Arial" ))
		(text "A<B" (rect 40 40 60 52)(font "Arial" ))
		(line (pt 48 72)(pt 48 56))
	)
	(port
		(pt 80 72)
		(output)
		(text "eq" (rect 0 -40 11 -28)(font "Arial" ))
		(text "A=B" (rect 72 40 92 52)(font "Arial" ))
		(line (pt 80 72)(pt 80 56))
	)
	(port
		(pt 112 72)
		(output)
		(text "gr" (rect 0 -40 9 -28)(font "Arial" ))
		(text "A>B" (rect 104 40 124 52)(font "Arial" ))
		(line (pt 112 72)(pt 112 56))
	)
	(parameter
		"size"
		"10"
		""
		(type "PARAMETER_SIGNED_DEC")	)
	(drawing
		(text " CMP" (rect 64 24 97 38)(font "Arial" (color 0 0 0)(font_size 8)(bold)))
		(rectangle (rect 16 16 136 56))
	)
	(annotation_block (parameter)(rect 328 912 510 940))
)
(symbol
	(rect 272 872 328 928)
	(text "CONSTX" (rect 44 5 56 48)(font "Arial" )(vertical))
	(text "inst26" (rect 4 8 16 37)(font "Arial" )(vertical))
	(port
		(pt 24 56)
		(output)
		(text "data[size-1..0]" (rect -96 0 -27 12)(font "Arial" ))
		(text "c" (rect 17 25 29 30)(font "Arial" )(vertical)(invisible))
		(line (pt 24 56)(pt 24 40)(line_width 3))
	)
	(parameter
		"size"
		"10"
		""
		(type "PARAMETER_SIGNED_DEC")	)
	(parameter
		"const"
		"599"
		""
		(type "PARAMETER_SIGNED_DEC")	)
	(drawing
		(rectangle (rect 16 24 32 40)(fill (color 218 218 218)))
	)
	(rotate270)
	(annotation_block (parameter)(rect 328 864 510 906))
)
(symbol
	(rect 200 1472 360 1544)
	(text "CMPX" (rect 5 0 34 12)(font "Arial" ))
	(text "inst32" (rect 8 56 37 68)(font "Arial" ))
	(port
		(pt 48 0)
		(input)
		(text "A[size-1..0]" (rect 0 0 55 12)(font "Arial" ))
		(text "  A" (rect 40 16 55 28)(font "Arial" ))
		(line (pt 48 0)(pt 48 17)(line_width 3))
	)
	(port
		(pt 104 0)
		(input)
		(text "B[size-1..0]" (rect 0 0 55 12)(font "Arial" ))
		(text "  B" (rect 96 16 110 28)(font "Arial" ))
		(line (pt 104 0)(pt 104 17)(line_width 3))
	)
	(port
		(pt 48 72)
		(output)
		(text "ls" (rect 0 -40 8 -28)(font "Arial" ))
		(text "A<B" (rect 40 40 60 52)(font "Arial" ))
		(line (pt 48 72)(pt 48 56))
	)
	(port
		(pt 80 72)
		(output)
		(text "eq" (rect 0 -40 11 -28)(font "Arial" ))
		(text "A=B" (rect 72 40 92 52)(font "Arial" ))
		(line (pt 80 72)(pt 80 56))
	)
	(port
		(pt 112 72)
		(output)
		(text "gr" (rect 0 -40 9 -28)(font "Arial" ))
		(text "A>B" (rect 104 40 124 52)(font "Arial" ))
		(line (pt 112 72)(pt 112 56))
	)
	(parameter
		"size"
		"10"
		""
		(type "PARAMETER_SIGNED_DEC")	)
	(drawing
		(text " CMP" (rect 64 24 97 38)(font "Arial" (color 0 0 0)(font_size 8)(bold)))
		(rectangle (rect 16 16 136 56))
	)
	(annotation_block (parameter)(rect 336 1456 518 1484))
)
(symbol
	(rect 640 1448 704 1496)
	(text "AND2" (rect 1 0 25 10)(font "Arial" (font_size 6)))
	(text "inst34" (rect 3 37 32 49)(font "Arial" ))
	(port
		(pt 0 16)
		(input)
		(text "IN1" (rect 2 7 19 19)(font "Courier New" (bold))(invisible))
		(text "IN1" (rect 2 7 19 19)(font "Courier New" (bold))(invisible))
		(line (pt 0 16)(pt 14 16))
	)
	(port
		(pt 0 32)
		(input)
		(text "IN2" (rect 2 23 19 35)(font "Courier New" (bold))(invisible))
		(text "IN2" (rect 2 23 19 35)(font "Courier New" (bold))(invisible))
		(line (pt 0 32)(pt 14 32))
	)
	(port
		(pt 64 24)
		(output)
		(text "OUT" (rect 48 15 65 27)(font "Courier New" (bold))(invisible))
		(text "OUT" (rect 48 15 65 27)(font "Courier New" (bold))(invisible))
		(line (pt 42 24)(pt 64 24))
	)
	(drawing
		(line (pt 14 12)(pt 30 12))
		(line (pt 14 37)(pt 31 37))
		(line (pt 14 12)(pt 14 37))
		(arc (pt 31 37)(pt 30 12)(rect 18 12 43 37))
	)
)
(symbol
	(rect 200 1704 360 1776)
	(text "CMPX" (rect 5 0 34 12)(font "Arial" ))
	(text "inst36" (rect 8 56 37 68)(font "Arial" ))
	(port
		(pt 48 0)
		(input)
		(text "A[size-1..0]" (rect 0 0 55 12)(font "Arial" ))
		(text "  A" (rect 40 16 55 28)(font "Arial" ))
		(line (pt 48 0)(pt 48 17)(line_width 3))
	)
	(port
		(pt 104 0)
		(input)
		(text "B[size-1..0]" (rect 0 0 55 12)(font "Arial" ))
		(text "  B" (rect 96 16 110 28)(font "Arial" ))
		(line (pt 104 0)(pt 104 17)(line_width 3))
	)
	(port
		(pt 48 72)
		(output)
		(text "ls" (rect 0 -40 8 -28)(font "Arial" ))
		(text "A<B" (rect 40 40 60 52)(font "Arial" ))
		(line (pt 48 72)(pt 48 56))
	)
	(port
		(pt 80 72)
		(output)
		(text "eq" (rect 0 -40 11 -28)(font "Arial" ))
		(text "A=B" (rect 72 40 92 52)(font "Arial" ))
		(line (pt 80 72)(pt 80 56))
	)
	(port
		(pt 112 72)
		(output)
		(text "gr" (rect 0 -40 9 -28)(font "Arial" ))
		(text "A>B" (rect 104 40 124 52)(font "Arial" ))
		(line (pt 112 72)(pt 112 56))
	)
	(parameter
		"size"
		"11"
		""
		(type "PARAMETER_SIGNED_DEC")	)
	(drawing
		(text " CMP" (rect 64 24 97 38)(font "Arial" (color 0 0 0)(font_size 8)(bold)))
		(rectangle (rect 16 16 136 56))
	)
	(annotation_block (parameter)(rect 336 1688 518 1716))
)
(symbol
	(rect 208 2088 368 2160)
	(text "CMPX" (rect 5 0 34 12)(font "Arial" ))
	(text "inst41" (rect 8 56 37 68)(font "Arial" ))
	(port
		(pt 48 0)
		(input)
		(text "A[size-1..0]" (rect 0 0 55 12)(font "Arial" ))
		(text "  A" (rect 40 16 55 28)(font "Arial" ))
		(line (pt 48 0)(pt 48 17)(line_width 3))
	)
	(port
		(pt 104 0)
		(input)
		(text "B[size-1..0]" (rect 0 0 55 12)(font "Arial" ))
		(text "  B" (rect 96 16 110 28)(font "Arial" ))
		(line (pt 104 0)(pt 104 17)(line_width 3))
	)
	(port
		(pt 48 72)
		(output)
		(text "ls" (rect 0 -40 8 -28)(font "Arial" ))
		(text "A<B" (rect 40 40 60 52)(font "Arial" ))
		(line (pt 48 72)(pt 48 56))
	)
	(port
		(pt 80 72)
		(output)
		(text "eq" (rect 0 -40 11 -28)(font "Arial" ))
		(text "A=B" (rect 72 40 92 52)(font "Arial" ))
		(line (pt 80 72)(pt 80 56))
	)
	(port
		(pt 112 72)
		(output)
		(text "gr" (rect 0 -40 9 -28)(font "Arial" ))
		(text "A>B" (rect 104 40 124 52)(font "Arial" ))
		(line (pt 112 72)(pt 112 56))
	)
	(parameter
		"size"
		"10"
		""
		(type "PARAMETER_SIGNED_DEC")	)
	(drawing
		(text " CMP" (rect 64 24 97 38)(font "Arial" (color 0 0 0)(font_size 8)(bold)))
		(rectangle (rect 16 16 136 56))
	)
	(annotation_block (parameter)(rect 344 2072 526 2100))
)
(symbol
	(rect 200 1872 360 1944)
	(text "CMPX" (rect 5 0 34 12)(font "Arial" ))
	(text "inst38" (rect 8 56 37 68)(font "Arial" ))
	(port
		(pt 48 0)
		(input)
		(text "A[size-1..0]" (rect 0 0 55 12)(font "Arial" ))
		(text "  A" (rect 40 16 55 28)(font "Arial" ))
		(line (pt 48 0)(pt 48 17)(line_width 3))
	)
	(port
		(pt 104 0)
		(input)
		(text "B[size-1..0]" (rect 0 0 55 12)(font "Arial" ))
		(text "  B" (rect 96 16 110 28)(font "Arial" ))
		(line (pt 104 0)(pt 104 17)(line_width 3))
	)
	(port
		(pt 48 72)
		(output)
		(text "ls" (rect 0 -40 8 -28)(font "Arial" ))
		(text "A<B" (rect 40 40 60 52)(font "Arial" ))
		(line (pt 48 72)(pt 48 56))
	)
	(port
		(pt 80 72)
		(output)
		(text "eq" (rect 0 -40 11 -28)(font "Arial" ))
		(text "A=B" (rect 72 40 92 52)(font "Arial" ))
		(line (pt 80 72)(pt 80 56))
	)
	(port
		(pt 112 72)
		(output)
		(text "gr" (rect 0 -40 9 -28)(font "Arial" ))
		(text "A>B" (rect 104 40 124 52)(font "Arial" ))
		(line (pt 112 72)(pt 112 56))
	)
	(parameter
		"size"
		"11"
		""
		(type "PARAMETER_SIGNED_DEC")	)
	(drawing
		(text " CMP" (rect 64 24 97 38)(font "Arial" (color 0 0 0)(font_size 8)(bold)))
		(rectangle (rect 16 16 136 56))
	)
	(annotation_block (parameter)(rect 336 1856 518 1884))
)
(symbol
	(rect 288 2024 344 2080)
	(text "CONSTX" (rect 44 5 56 48)(font "Arial" )(vertical))
	(text "inst42" (rect 4 8 16 37)(font "Arial" )(vertical))
	(port
		(pt 24 56)
		(output)
		(text "data[size-1..0]" (rect -96 0 -27 12)(font "Arial" ))
		(text "c" (rect 17 25 29 30)(font "Arial" )(vertical)(invisible))
		(line (pt 24 56)(pt 24 40)(line_width 3))
	)
	(parameter
		"size"
		"10"
		""
		(type "PARAMETER_SIGNED_DEC")	)
	(parameter
		"const"
		"600"
		""
		(type "PARAMETER_SIGNED_DEC")	)
	(drawing
		(rectangle (rect 16 24 32 40)(fill (color 218 218 218)))
	)
	(rotate270)
	(annotation_block (parameter)(rect 344 2016 526 2058))
)
(symbol
	(rect 600 -248 832 -168)
	(text "REGX" (rect 5 0 34 12)(font "Arial" ))
	(text "inst" (rect 8 64 25 76)(font "Arial" ))
	(port
		(pt 0 24)
		(input)
		(text "clk" (rect 0 0 14 12)(font "Arial" ))
		(text "clk" (rect 21 19 35 31)(font "Arial" ))
		(line (pt 0 24)(pt 16 24))
	)
	(port
		(pt 0 40)
		(input)
		(text "ld" (rect 0 0 8 12)(font "Arial" ))
		(text "ld" (rect 21 35 29 47)(font "Arial" ))
		(line (pt 0 40)(pt 16 40))
	)
	(port
		(pt 0 56)
		(input)
		(text "cl" (rect 0 0 8 12)(font "Arial" ))
		(text "cl" (rect 21 51 29 63)(font "Arial" ))
		(line (pt 0 56)(pt 16 56))
	)
	(port
		(pt 232 32)
		(input)
		(text "inc" (rect 0 0 14 12)(font "Arial" ))
		(text "inc" (rect 193 24 207 36)(font "Arial" ))
		(line (pt 216 32)(pt 232 32))
	)
	(port
		(pt 232 48)
		(input)
		(text "dec" (rect 0 0 17 12)(font "Arial" ))
		(text "dec" (rect 190 40 207 52)(font "Arial" ))
		(line (pt 216 48)(pt 232 48))
	)
	(port
		(pt 112 0)
		(input)
		(text "data_in[size-1..0]" (rect 0 0 83 12)(font "Arial" ))
		(text "DIN" (rect 104 16 124 28)(font "Arial" ))
		(line (pt 112 0)(pt 112 16)(line_width 3))
	)
	(port
		(pt 112 80)
		(output)
		(text "data_out[size-1..0]" (rect 0 -64 90 -52)(font "Arial" ))
		(text "  DOUT" (rect 96 48 133 60)(font "Arial" ))
		(line (pt 112 80)(pt 112 64)(line_width 3))
	)
	(parameter
		"size"
		"11"
		""
		(type "PARAMETER_SIGNED_DEC")	)
	(parameter
		"default_value"
		"0"
		""
		(type "PARAMETER_SIGNED_DEC")	)
	(drawing
		(text "REGISTAR" (rect 88 32 150 46)(font "Arial" (color 0 0 0)(font_size 8)(bold)))
		(rectangle (rect 16 16 216 64))
	)
	(annotation_block (parameter)(rect 832 -296 1029 -254))
)
(symbol
	(rect 1072 -248 1304 -168)
	(text "REGX" (rect 5 0 34 12)(font "Arial" ))
	(text "inst1" (rect 8 64 31 76)(font "Arial" ))
	(port
		(pt 0 24)
		(input)
		(text "clk" (rect 0 0 14 12)(font "Arial" ))
		(text "clk" (rect 21 19 35 31)(font "Arial" ))
		(line (pt 0 24)(pt 16 24))
	)
	(port
		(pt 0 40)
		(input)
		(text "ld" (rect 0 0 8 12)(font "Arial" ))
		(text "ld" (rect 21 35 29 47)(font "Arial" ))
		(line (pt 0 40)(pt 16 40))
	)
	(port
		(pt 0 56)
		(input)
		(text "cl" (rect 0 0 8 12)(font "Arial" ))
		(text "cl" (rect 21 51 29 63)(font "Arial" ))
		(line (pt 0 56)(pt 16 56))
	)
	(port
		(pt 232 32)
		(input)
		(text "inc" (rect 0 0 14 12)(font "Arial" ))
		(text "inc" (rect 193 24 207 36)(font "Arial" ))
		(line (pt 216 32)(pt 232 32))
	)
	(port
		(pt 232 48)
		(input)
		(text "dec" (rect 0 0 17 12)(font "Arial" ))
		(text "dec" (rect 190 40 207 52)(font "Arial" ))
		(line (pt 216 48)(pt 232 48))
	)
	(port
		(pt 112 0)
		(input)
		(text "data_in[size-1..0]" (rect 0 0 83 12)(font "Arial" ))
		(text "DIN" (rect 104 16 124 28)(font "Arial" ))
		(line (pt 112 0)(pt 112 16)(line_width 3))
	)
	(port
		(pt 112 80)
		(output)
		(text "data_out[size-1..0]" (rect 0 -64 90 -52)(font "Arial" ))
		(text "  DOUT" (rect 96 48 133 60)(font "Arial" ))
		(line (pt 112 80)(pt 112 64)(line_width 3))
	)
	(parameter
		"size"
		"10"
		""
		(type "PARAMETER_SIGNED_DEC")	)
	(parameter
		"default_value"
		"0"
		""
		(type "PARAMETER_SIGNED_DEC")	)
	(drawing
		(text "REGISTAR" (rect 88 32 150 46)(font "Arial" (color 0 0 0)(font_size 8)(bold)))
		(rectangle (rect 16 16 216 64))
	)
	(annotation_block (parameter)(rect 1304 -296 1501 -254))
)
(symbol
	(rect 664 -96 824 -24)
	(text "CMPX" (rect 5 0 34 12)(font "Arial" ))
	(text "inst2" (rect 8 56 31 68)(font "Arial" ))
	(port
		(pt 48 0)
		(input)
		(text "A[size-1..0]" (rect 0 0 55 12)(font "Arial" ))
		(text "  A" (rect 40 16 55 28)(font "Arial" ))
		(line (pt 48 0)(pt 48 17)(line_width 3))
	)
	(port
		(pt 104 0)
		(input)
		(text "B[size-1..0]" (rect 0 0 55 12)(font "Arial" ))
		(text "  B" (rect 96 16 110 28)(font "Arial" ))
		(line (pt 104 0)(pt 104 17)(line_width 3))
	)
	(port
		(pt 48 72)
		(output)
		(text "ls" (rect 0 -40 8 -28)(font "Arial" ))
		(text "A<B" (rect 40 40 60 52)(font "Arial" ))
		(line (pt 48 72)(pt 48 56))
	)
	(port
		(pt 80 72)
		(output)
		(text "eq" (rect 0 -40 11 -28)(font "Arial" ))
		(text "A=B" (rect 72 40 92 52)(font "Arial" ))
		(line (pt 80 72)(pt 80 56))
	)
	(port
		(pt 112 72)
		(output)
		(text "gr" (rect 0 -40 9 -28)(font "Arial" ))
		(text "A>B" (rect 104 40 124 52)(font "Arial" ))
		(line (pt 112 72)(pt 112 56))
	)
	(parameter
		"size"
		"11"
		""
		(type "PARAMETER_SIGNED_DEC")	)
	(drawing
		(text " CMP" (rect 64 24 97 38)(font "Arial" (color 0 0 0)(font_size 8)(bold)))
		(rectangle (rect 16 16 136 56))
	)
	(annotation_block (parameter)(rect 832 -72 1014 -44))
)
(symbol
	(rect 1136 -96 1296 -24)
	(text "CMPX" (rect 5 0 34 12)(font "Arial" ))
	(text "inst3" (rect 8 56 31 68)(font "Arial" ))
	(port
		(pt 48 0)
		(input)
		(text "A[size-1..0]" (rect 0 0 55 12)(font "Arial" ))
		(text "  A" (rect 40 16 55 28)(font "Arial" ))
		(line (pt 48 0)(pt 48 17)(line_width 3))
	)
	(port
		(pt 104 0)
		(input)
		(text "B[size-1..0]" (rect 0 0 55 12)(font "Arial" ))
		(text "  B" (rect 96 16 110 28)(font "Arial" ))
		(line (pt 104 0)(pt 104 17)(line_width 3))
	)
	(port
		(pt 48 72)
		(output)
		(text "ls" (rect 0 -40 8 -28)(font "Arial" ))
		(text "A<B" (rect 40 40 60 52)(font "Arial" ))
		(line (pt 48 72)(pt 48 56))
	)
	(port
		(pt 80 72)
		(output)
		(text "eq" (rect 0 -40 11 -28)(font "Arial" ))
		(text "A=B" (rect 72 40 92 52)(font "Arial" ))
		(line (pt 80 72)(pt 80 56))
	)
	(port
		(pt 112 72)
		(output)
		(text "gr" (rect 0 -40 9 -28)(font "Arial" ))
		(text "A>B" (rect 104 40 124 52)(font "Arial" ))
		(line (pt 112 72)(pt 112 56))
	)
	(parameter
		"size"
		"10"
		""
		(type "PARAMETER_SIGNED_DEC")	)
	(drawing
		(text " CMP" (rect 64 24 97 38)(font "Arial" (color 0 0 0)(font_size 8)(bold)))
		(rectangle (rect 16 16 136 56))
	)
	(annotation_block (parameter)(rect 1304 -80 1486 -52))
)
(symbol
	(rect 744 -152 800 -96)
	(text "CONSTX" (rect 44 5 56 48)(font "Arial" )(vertical))
	(text "inst4" (rect 4 8 16 31)(font "Arial" )(vertical))
	(port
		(pt 24 56)
		(output)
		(text "data[size-1..0]" (rect -96 0 -27 12)(font "Arial" ))
		(text "c" (rect 17 25 29 30)(font "Arial" )(vertical)(invisible))
		(line (pt 24 56)(pt 24 40)(line_width 3))
	)
	(parameter
		"size"
		"11"
		""
		(type "PARAMETER_SIGNED_DEC")	)
	(parameter
		"const"
		"1039"
		""
		(type "PARAMETER_SIGNED_DEC")	)
	(drawing
		(rectangle (rect 16 24 32 40)(fill (color 218 218 218)))
	)
	(rotate270)
	(annotation_block (parameter)(rect 832 -152 1014 -110))
)
(symbol
	(rect 1216 -152 1272 -96)
	(text "CONSTX" (rect 44 5 56 48)(font "Arial" )(vertical))
	(text "inst5" (rect 4 8 16 31)(font "Arial" )(vertical))
	(port
		(pt 24 56)
		(output)
		(text "data[size-1..0]" (rect -96 0 -27 12)(font "Arial" ))
		(text "c" (rect 17 25 29 30)(font "Arial" )(vertical)(invisible))
		(line (pt 24 56)(pt 24 40)(line_width 3))
	)
	(parameter
		"size"
		"10"
		""
		(type "PARAMETER_SIGNED_DEC")	)
	(parameter
		"const"
		"665"
		""
		(type "PARAMETER_SIGNED_DEC")	)
	(drawing
		(rectangle (rect 16 24 32 40)(fill (color 218 218 218)))
	)
	(rotate270)
	(annotation_block (parameter)(rect 1304 -152 1486 -110))
)
(symbol
	(rect 672 168 832 240)
	(text "CMPX" (rect 5 0 34 12)(font "Arial" ))
	(text "inst6" (rect 8 56 31 68)(font "Arial" ))
	(port
		(pt 48 0)
		(input)
		(text "A[size-1..0]" (rect 0 0 55 12)(font "Arial" ))
		(text "  A" (rect 40 16 55 28)(font "Arial" ))
		(line (pt 48 0)(pt 48 17)(line_width 3))
	)
	(port
		(pt 104 0)
		(input)
		(text "B[size-1..0]" (rect 0 0 55 12)(font "Arial" ))
		(text "  B" (rect 96 16 110 28)(font "Arial" ))
		(line (pt 104 0)(pt 104 17)(line_width 3))
	)
	(port
		(pt 48 72)
		(output)
		(text "ls" (rect 0 -40 8 -28)(font "Arial" ))
		(text "A<B" (rect 40 40 60 52)(font "Arial" ))
		(line (pt 48 72)(pt 48 56))
	)
	(port
		(pt 80 72)
		(output)
		(text "eq" (rect 0 -40 11 -28)(font "Arial" ))
		(text "A=B" (rect 72 40 92 52)(font "Arial" ))
		(line (pt 80 72)(pt 80 56))
	)
	(port
		(pt 112 72)
		(output)
		(text "gr" (rect 0 -40 9 -28)(font "Arial" ))
		(text "A>B" (rect 104 40 124 52)(font "Arial" ))
		(line (pt 112 72)(pt 112 56))
	)
	(parameter
		"size"
		"11"
		""
		(type "PARAMETER_SIGNED_DEC")	)
	(drawing
		(text " CMP" (rect 64 24 97 38)(font "Arial" (color 0 0 0)(font_size 8)(bold)))
		(rectangle (rect 16 16 136 56))
	)
	(annotation_block (parameter)(rect 840 192 1022 220))
)
(symbol
	(rect 1136 168 1296 240)
	(text "CMPX" (rect 5 0 34 12)(font "Arial" ))
	(text "inst7" (rect 8 56 31 68)(font "Arial" ))
	(port
		(pt 48 0)
		(input)
		(text "A[size-1..0]" (rect 0 0 55 12)(font "Arial" ))
		(text "  A" (rect 40 16 55 28)(font "Arial" ))
		(line (pt 48 0)(pt 48 17)(line_width 3))
	)
	(port
		(pt 104 0)
		(input)
		(text "B[size-1..0]" (rect 0 0 55 12)(font "Arial" ))
		(text "  B" (rect 96 16 110 28)(font "Arial" ))
		(line (pt 104 0)(pt 104 17)(line_width 3))
	)
	(port
		(pt 48 72)
		(output)
		(text "ls" (rect 0 -40 8 -28)(font "Arial" ))
		(text "A<B" (rect 40 40 60 52)(font "Arial" ))
		(line (pt 48 72)(pt 48 56))
	)
	(port
		(pt 80 72)
		(output)
		(text "eq" (rect 0 -40 11 -28)(font "Arial" ))
		(text "A=B" (rect 72 40 92 52)(font "Arial" ))
		(line (pt 80 72)(pt 80 56))
	)
	(port
		(pt 112 72)
		(output)
		(text "gr" (rect 0 -40 9 -28)(font "Arial" ))
		(text "A>B" (rect 104 40 124 52)(font "Arial" ))
		(line (pt 112 72)(pt 112 56))
	)
	(parameter
		"size"
		"11"
		""
		(type "PARAMETER_SIGNED_DEC")	)
	(drawing
		(text " CMP" (rect 64 24 97 38)(font "Arial" (color 0 0 0)(font_size 8)(bold)))
		(rectangle (rect 16 16 136 56))
	)
	(annotation_block (parameter)(rect 1304 192 1486 220))
)
(symbol
	(rect 752 112 808 168)
	(text "CONSTX" (rect 44 5 56 48)(font "Arial" )(vertical))
	(text "inst8" (rect 4 8 16 31)(font "Arial" )(vertical))
	(port
		(pt 24 56)
		(output)
		(text "data[size-1..0]" (rect -96 0 -27 12)(font "Arial" ))
		(text "c" (rect 17 25 29 30)(font "Arial" )(vertical)(invisible))
		(line (pt 24 56)(pt 24 40)(line_width 3))
	)
	(parameter
		"size"
		"11"
		""
		(type "PARAMETER_SIGNED_DEC")	)
	(parameter
		"const"
		"855"
		""
		(type "PARAMETER_SIGNED_DEC")	)
	(drawing
		(rectangle (rect 16 24 32 40)(fill (color 218 218 218)))
	)
	(rotate270)
	(annotation_block (parameter)(rect 840 112 1022 154))
)
(symbol
	(rect 1216 112 1272 168)
	(text "CONSTX" (rect 44 5 56 48)(font "Arial" )(vertical))
	(text "inst9" (rect 4 8 16 31)(font "Arial" )(vertical))
	(port
		(pt 24 56)
		(output)
		(text "data[size-1..0]" (rect -96 0 -27 12)(font "Arial" ))
		(text "c" (rect 17 25 29 30)(font "Arial" )(vertical)(invisible))
		(line (pt 24 56)(pt 24 40)(line_width 3))
	)
	(parameter
		"size"
		"11"
		""
		(type "PARAMETER_SIGNED_DEC")	)
	(parameter
		"const"
		"975"
		""
		(type "PARAMETER_SIGNED_DEC")	)
	(drawing
		(rectangle (rect 16 24 32 40)(fill (color 218 218 218)))
	)
	(rotate270)
	(annotation_block (parameter)(rect 1304 112 1486 154))
)
(symbol
	(rect 1336 272 1400 320)
	(text "AND2" (rect 1 0 25 10)(font "Arial" (font_size 6)))
	(text "inst10" (rect 3 37 32 49)(font "Arial" ))
	(port
		(pt 0 16)
		(input)
		(text "IN1" (rect 2 7 19 19)(font "Courier New" (bold))(invisible))
		(text "IN1" (rect 2 7 19 19)(font "Courier New" (bold))(invisible))
		(line (pt 0 16)(pt 14 16))
	)
	(port
		(pt 0 32)
		(input)
		(text "IN2" (rect 2 23 19 35)(font "Courier New" (bold))(invisible))
		(text "IN2" (rect 2 23 19 35)(font "Courier New" (bold))(invisible))
		(line (pt 0 32)(pt 14 32))
	)
	(port
		(pt 64 24)
		(output)
		(text "OUT" (rect 48 15 65 27)(font "Courier New" (bold))(invisible))
		(text "OUT" (rect 48 15 65 27)(font "Courier New" (bold))(invisible))
		(line (pt 42 24)(pt 64 24))
	)
	(drawing
		(line (pt 14 12)(pt 30 12))
		(line (pt 14 37)(pt 31 37))
		(line (pt 14 12)(pt 14 37))
		(arc (pt 31 37)(pt 30 12)(rect 18 12 43 37))
	)
)
(symbol
	(rect 1336 512 1400 560)
	(text "AND2" (rect 1 0 25 10)(font "Arial" (font_size 6)))
	(text "inst15" (rect 3 37 32 49)(font "Arial" ))
	(port
		(pt 0 16)
		(input)
		(text "IN1" (rect 2 7 19 19)(font "Courier New" (bold))(invisible))
		(text "IN1" (rect 2 7 19 19)(font "Courier New" (bold))(invisible))
		(line (pt 0 16)(pt 14 16))
	)
	(port
		(pt 0 32)
		(input)
		(text "IN2" (rect 2 23 19 35)(font "Courier New" (bold))(invisible))
		(text "IN2" (rect 2 23 19 35)(font "Courier New" (bold))(invisible))
		(line (pt 0 32)(pt 14 32))
	)
	(port
		(pt 64 24)
		(output)
		(text "OUT" (rect 48 15 65 27)(font "Courier New" (bold))(invisible))
		(text "OUT" (rect 48 15 65 27)(font "Courier New" (bold))(invisible))
		(line (pt 42 24)(pt 64 24))
	)
	(drawing
		(line (pt 14 12)(pt 30 12))
		(line (pt 14 37)(pt 31 37))
		(line (pt 14 12)(pt 14 37))
		(arc (pt 31 37)(pt 30 12)(rect 18 12 43 37))
	)
)
(symbol
	(rect 752 352 808 408)
	(text "CONSTX" (rect 44 5 56 48)(font "Arial" )(vertical))
	(text "inst13" (rect 4 8 16 37)(font "Arial" )(vertical))
	(port
		(pt 24 56)
		(output)
		(text "data[size-1..0]" (rect -96 0 -27 12)(font "Arial" ))
		(text "c" (rect 17 25 29 30)(font "Arial" )(vertical)(invisible))
		(line (pt 24 56)(pt 24 40)(line_width 3))
	)
	(parameter
		"size"
		"10"
		""
		(type "PARAMETER_SIGNED_DEC")	)
	(parameter
		"const"
		"636"
		""
		(type "PARAMETER_SIGNED_DEC")	)
	(drawing
		(rectangle (rect 16 24 32 40)(fill (color 218 218 218)))
	)
	(rotate270)
	(annotation_block (parameter)(rect 840 352 1022 394))
)
(symbol
	(rect 1216 352 1272 408)
	(text "CONSTX" (rect 44 5 56 48)(font "Arial" )(vertical))
	(text "inst14" (rect 4 8 16 37)(font "Arial" )(vertical))
	(port
		(pt 24 56)
		(output)
		(text "data[size-1..0]" (rect -96 0 -27 12)(font "Arial" ))
		(text "c" (rect 17 25 29 30)(font "Arial" )(vertical)(invisible))
		(line (pt 24 56)(pt 24 40)(line_width 3))
	)
	(parameter
		"size"
		"10"
		""
		(type "PARAMETER_SIGNED_DEC")	)
	(parameter
		"const"
		"642"
		""
		(type "PARAMETER_SIGNED_DEC")	)
	(drawing
		(rectangle (rect 16 24 32 40)(fill (color 218 218 218)))
	)
	(rotate270)
	(annotation_block (parameter)(rect 1304 352 1486 394))
)
(symbol
	(rect 1136 408 1296 480)
	(text "CMPX" (rect 5 0 34 12)(font "Arial" ))
	(text "inst12" (rect 8 56 37 68)(font "Arial" ))
	(port
		(pt 48 0)
		(input)
		(text "A[size-1..0]" (rect 0 0 55 12)(font "Arial" ))
		(text "  A" (rect 40 16 55 28)(font "Arial" ))
		(line (pt 48 0)(pt 48 17)(line_width 3))
	)
	(port
		(pt 104 0)
		(input)
		(text "B[size-1..0]" (rect 0 0 55 12)(font "Arial" ))
		(text "  B" (rect 96 16 110 28)(font "Arial" ))
		(line (pt 104 0)(pt 104 17)(line_width 3))
	)
	(port
		(pt 48 72)
		(output)
		(text "ls" (rect 0 -40 8 -28)(font "Arial" ))
		(text "A<B" (rect 40 40 60 52)(font "Arial" ))
		(line (pt 48 72)(pt 48 56))
	)
	(port
		(pt 80 72)
		(output)
		(text "eq" (rect 0 -40 11 -28)(font "Arial" ))
		(text "A=B" (rect 72 40 92 52)(font "Arial" ))
		(line (pt 80 72)(pt 80 56))
	)
	(port
		(pt 112 72)
		(output)
		(text "gr" (rect 0 -40 9 -28)(font "Arial" ))
		(text "A>B" (rect 104 40 124 52)(font "Arial" ))
		(line (pt 112 72)(pt 112 56))
	)
	(parameter
		"size"
		"10"
		""
		(type "PARAMETER_SIGNED_DEC")	)
	(drawing
		(text " CMP" (rect 64 24 97 38)(font "Arial" (color 0 0 0)(font_size 8)(bold)))
		(rectangle (rect 16 16 136 56))
	)
	(annotation_block (parameter)(rect 1304 432 1486 460))
)
(symbol
	(rect 672 408 832 480)
	(text "CMPX" (rect 5 0 34 12)(font "Arial" ))
	(text "inst11" (rect 8 56 37 68)(font "Arial" ))
	(port
		(pt 48 0)
		(input)
		(text "A[size-1..0]" (rect 0 0 55 12)(font "Arial" ))
		(text "  A" (rect 40 16 55 28)(font "Arial" ))
		(line (pt 48 0)(pt 48 17)(line_width 3))
	)
	(port
		(pt 104 0)
		(input)
		(text "B[size-1..0]" (rect 0 0 55 12)(font "Arial" ))
		(text "  B" (rect 96 16 110 28)(font "Arial" ))
		(line (pt 104 0)(pt 104 17)(line_width 3))
	)
	(port
		(pt 48 72)
		(output)
		(text "ls" (rect 0 -40 8 -28)(font "Arial" ))
		(text "A<B" (rect 40 40 60 52)(font "Arial" ))
		(line (pt 48 72)(pt 48 56))
	)
	(port
		(pt 80 72)
		(output)
		(text "eq" (rect 0 -40 11 -28)(font "Arial" ))
		(text "A=B" (rect 72 40 92 52)(font "Arial" ))
		(line (pt 80 72)(pt 80 56))
	)
	(port
		(pt 112 72)
		(output)
		(text "gr" (rect 0 -40 9 -28)(font "Arial" ))
		(text "A>B" (rect 104 40 124 52)(font "Arial" ))
		(line (pt 112 72)(pt 112 56))
	)
	(parameter
		"size"
		"10"
		""
		(type "PARAMETER_SIGNED_DEC")	)
	(drawing
		(text " CMP" (rect 64 24 97 38)(font "Arial" (color 0 0 0)(font_size 8)(bold)))
		(rectangle (rect 16 16 136 56))
	)
	(annotation_block (parameter)(rect 840 432 1022 460))
)
(symbol
	(rect 1336 760 1400 808)
	(text "AND2" (rect 1 0 25 10)(font "Arial" (font_size 6)))
	(text "inst16" (rect 3 37 32 49)(font "Arial" ))
	(port
		(pt 0 16)
		(input)
		(text "IN1" (rect 2 7 19 19)(font "Courier New" (bold))(invisible))
		(text "IN1" (rect 2 7 19 19)(font "Courier New" (bold))(invisible))
		(line (pt 0 16)(pt 14 16))
	)
	(port
		(pt 0 32)
		(input)
		(text "IN2" (rect 2 23 19 35)(font "Courier New" (bold))(invisible))
		(text "IN2" (rect 2 23 19 35)(font "Courier New" (bold))(invisible))
		(line (pt 0 32)(pt 14 32))
	)
	(port
		(pt 64 24)
		(output)
		(text "OUT" (rect 48 15 65 27)(font "Courier New" (bold))(invisible))
		(text "OUT" (rect 48 15 65 27)(font "Courier New" (bold))(invisible))
		(line (pt 42 24)(pt 64 24))
	)
	(drawing
		(line (pt 14 12)(pt 30 12))
		(line (pt 14 37)(pt 31 37))
		(line (pt 14 12)(pt 14 37))
		(arc (pt 31 37)(pt 30 12)(rect 18 12 43 37))
	)
)
(symbol
	(rect 1136 656 1296 728)
	(text "CMPX" (rect 5 0 34 12)(font "Arial" ))
	(text "inst19" (rect 8 56 37 68)(font "Arial" ))
	(port
		(pt 48 0)
		(input)
		(text "A[size-1..0]" (rect 0 0 55 12)(font "Arial" ))
		(text "  A" (rect 40 16 55 28)(font "Arial" ))
		(line (pt 48 0)(pt 48 17)(line_width 3))
	)
	(port
		(pt 104 0)
		(input)
		(text "B[size-1..0]" (rect 0 0 55 12)(font "Arial" ))
		(text "  B" (rect 96 16 110 28)(font "Arial" ))
		(line (pt 104 0)(pt 104 17)(line_width 3))
	)
	(port
		(pt 48 72)
		(output)
		(text "ls" (rect 0 -40 8 -28)(font "Arial" ))
		(text "A<B" (rect 40 40 60 52)(font "Arial" ))
		(line (pt 48 72)(pt 48 56))
	)
	(port
		(pt 80 72)
		(output)
		(text "eq" (rect 0 -40 11 -28)(font "Arial" ))
		(text "A=B" (rect 72 40 92 52)(font "Arial" ))
		(line (pt 80 72)(pt 80 56))
	)
	(port
		(pt 112 72)
		(output)
		(text "gr" (rect 0 -40 9 -28)(font "Arial" ))
		(text "A>B" (rect 104 40 124 52)(font "Arial" ))
		(line (pt 112 72)(pt 112 56))
	)
	(parameter
		"size"
		"10"
		""
		(type "PARAMETER_SIGNED_DEC")	)
	(drawing
		(text " CMP" (rect 64 24 97 38)(font "Arial" (color 0 0 0)(font_size 8)(bold)))
		(rectangle (rect 16 16 136 56))
	)
	(annotation_block (parameter)(rect 1304 680 1486 708))
)
(symbol
	(rect 752 600 808 656)
	(text "CONSTX" (rect 44 5 56 48)(font "Arial" )(vertical))
	(text "inst17" (rect 4 8 16 37)(font "Arial" )(vertical))
	(port
		(pt 24 56)
		(output)
		(text "data[size-1..0]" (rect -96 0 -27 12)(font "Arial" ))
		(text "c" (rect 17 25 29 30)(font "Arial" )(vertical)(invisible))
		(line (pt 24 56)(pt 24 40)(line_width 3))
	)
	(parameter
		"size"
		"11"
		""
		(type "PARAMETER_SIGNED_DEC")	)
	(parameter
		"const"
		"800"
		""
		(type "PARAMETER_SIGNED_DEC")	)
	(drawing
		(rectangle (rect 16 24 32 40)(fill (color 218 218 218)))
	)
	(rotate270)
	(annotation_block (parameter)(rect 840 600 1022 642))
)
(symbol
	(rect 1216 600 1272 656)
	(text "CONSTX" (rect 44 5 56 48)(font "Arial" )(vertical))
	(text "inst18" (rect 4 8 16 37)(font "Arial" )(vertical))
	(port
		(pt 24 56)
		(output)
		(text "data[size-1..0]" (rect -96 0 -27 12)(font "Arial" ))
		(text "c" (rect 17 25 29 30)(font "Arial" )(vertical)(invisible))
		(line (pt 24 56)(pt 24 40)(line_width 3))
	)
	(parameter
		"size"
		"10"
		""
		(type "PARAMETER_SIGNED_DEC")	)
	(parameter
		"const"
		"600"
		""
		(type "PARAMETER_SIGNED_DEC")	)
	(drawing
		(rectangle (rect 16 24 32 40)(fill (color 218 218 218)))
	)
	(rotate270)
	(annotation_block (parameter)(rect 1304 600 1486 642))
)
(symbol
	(rect 672 656 832 728)
	(text "CMPX" (rect 5 0 34 12)(font "Arial" ))
	(text "inst20" (rect 8 56 37 68)(font "Arial" ))
	(port
		(pt 48 0)
		(input)
		(text "A[size-1..0]" (rect 0 0 55 12)(font "Arial" ))
		(text "  A" (rect 40 16 55 28)(font "Arial" ))
		(line (pt 48 0)(pt 48 17)(line_width 3))
	)
	(port
		(pt 104 0)
		(input)
		(text "B[size-1..0]" (rect 0 0 55 12)(font "Arial" ))
		(text "  B" (rect 96 16 110 28)(font "Arial" ))
		(line (pt 104 0)(pt 104 17)(line_width 3))
	)
	(port
		(pt 48 72)
		(output)
		(text "ls" (rect 0 -40 8 -28)(font "Arial" ))
		(text "A<B" (rect 40 40 60 52)(font "Arial" ))
		(line (pt 48 72)(pt 48 56))
	)
	(port
		(pt 80 72)
		(output)
		(text "eq" (rect 0 -40 11 -28)(font "Arial" ))
		(text "A=B" (rect 72 40 92 52)(font "Arial" ))
		(line (pt 80 72)(pt 80 56))
	)
	(port
		(pt 112 72)
		(output)
		(text "gr" (rect 0 -40 9 -28)(font "Arial" ))
		(text "A>B" (rect 104 40 124 52)(font "Arial" ))
		(line (pt 112 72)(pt 112 56))
	)
	(parameter
		"size"
		"11"
		""
		(type "PARAMETER_SIGNED_DEC")	)
	(drawing
		(text " CMP" (rect 64 24 97 38)(font "Arial" (color 0 0 0)(font_size 8)(bold)))
		(rectangle (rect 16 16 136 56))
	)
	(annotation_block (parameter)(rect 840 680 1022 708))
)
(symbol
	(rect 1032 -160 1080 -96)
	(text "AND2" (rect 0 39 10 63)(font "Arial" (font_size 6))(vertical))
	(text "inst21" (rect 37 32 49 61)(font "Arial" )(vertical))
	(port
		(pt 16 64)
		(input)
		(text "IN1" (rect 2 7 19 19)(font "Courier New" (bold))(invisible))
		(text "IN1" (rect 7 45 19 62)(font "Courier New" (bold))(vertical)(invisible))
		(line (pt 16 64)(pt 16 50))
	)
	(port
		(pt 32 64)
		(input)
		(text "IN2" (rect 2 23 19 35)(font "Courier New" (bold))(invisible))
		(text "IN2" (rect 23 45 35 62)(font "Courier New" (bold))(vertical)(invisible))
		(line (pt 32 64)(pt 32 50))
	)
	(port
		(pt 24 0)
		(output)
		(text "OUT" (rect 48 15 65 27)(font "Courier New" (bold))(invisible))
		(text "OUT" (rect 15 -1 27 16)(font "Courier New" (bold))(vertical)(invisible))
		(line (pt 24 22)(pt 24 0))
	)
	(drawing
		(line (pt 12 50)(pt 12 34))
		(line (pt 37 50)(pt 37 33))
		(line (pt 12 50)(pt 37 50))
		(arc (pt 37 33)(pt 12 34)(rect 12 21 37 46))
	)
	(rotate90)
)
(symbol
	(rect 448 1000 512 1048)
	(text "OR2" (rect 1 0 19 10)(font "Arial" (font_size 6)))
	(text "inst29" (rect 3 37 32 49)(font "Arial" ))
	(port
		(pt 0 32)
		(input)
		(text "IN2" (rect 2 23 19 35)(font "Courier New" (bold))(invisible))
		(text "IN2" (rect 2 23 19 35)(font "Courier New" (bold))(invisible))
		(line (pt 0 32)(pt 15 32))
	)
	(port
		(pt 0 16)
		(input)
		(text "IN1" (rect 2 7 19 19)(font "Courier New" (bold))(invisible))
		(text "IN1" (rect 2 7 19 19)(font "Courier New" (bold))(invisible))
		(line (pt 0 16)(pt 15 16))
	)
	(port
		(pt 64 24)
		(output)
		(text "OUT" (rect 48 15 65 27)(font "Courier New" (bold))(invisible))
		(text "OUT" (rect 48 15 65 27)(font "Courier New" (bold))(invisible))
		(line (pt 48 24)(pt 64 24))
	)
	(drawing
		(line (pt 14 36)(pt 25 36))
		(line (pt 14 13)(pt 25 13))
		(arc (pt 7 29)(pt 7 19)(rect -14 8 19 41))
		(arc (pt 49 24)(pt 25 13)(rect -6 13 57 76))
		(arc (pt 25 35)(pt 49 24)(rect -6 -27 57 36))
	)
)
(symbol
	(rect 192 1104 352 1176)
	(text "CMPX" (rect 5 0 34 12)(font "Arial" ))
	(text "inst27" (rect 8 56 37 68)(font "Arial" ))
	(port
		(pt 48 0)
		(input)
		(text "A[size-1..0]" (rect 0 0 55 12)(font "Arial" ))
		(text "  A" (rect 40 16 55 28)(font "Arial" ))
		(line (pt 48 0)(pt 48 17)(line_width 3))
	)
	(port
		(pt 104 0)
		(input)
		(text "B[size-1..0]" (rect 0 0 55 12)(font "Arial" ))
		(text "  B" (rect 96 16 110 28)(font "Arial" ))
		(line (pt 104 0)(pt 104 17)(line_width 3))
	)
	(port
		(pt 48 72)
		(output)
		(text "ls" (rect 0 -40 8 -28)(font "Arial" ))
		(text "A<B" (rect 40 40 60 52)(font "Arial" ))
		(line (pt 48 72)(pt 48 56))
	)
	(port
		(pt 80 72)
		(output)
		(text "eq" (rect 0 -40 11 -28)(font "Arial" ))
		(text "A=B" (rect 72 40 92 52)(font "Arial" ))
		(line (pt 80 72)(pt 80 56))
	)
	(port
		(pt 112 72)
		(output)
		(text "gr" (rect 0 -40 9 -28)(font "Arial" ))
		(text "A>B" (rect 104 40 124 52)(font "Arial" ))
		(line (pt 112 72)(pt 112 56))
	)
	(parameter
		"size"
		"10"
		""
		(type "PARAMETER_SIGNED_DEC")	)
	(drawing
		(text " CMP" (rect 64 24 97 38)(font "Arial" (color 0 0 0)(font_size 8)(bold)))
		(rectangle (rect 16 16 136 56))
	)
	(annotation_block (parameter)(rect 328 1128 510 1156))
)
(symbol
	(rect 272 1040 328 1096)
	(text "CONSTX" (rect 44 5 56 48)(font "Arial" )(vertical))
	(text "inst28" (rect 4 8 16 37)(font "Arial" )(vertical))
	(port
		(pt 24 56)
		(output)
		(text "data[size-1..0]" (rect -96 0 -27 12)(font "Arial" ))
		(text "c" (rect 17 25 29 30)(font "Arial" )(vertical)(invisible))
		(line (pt 24 56)(pt 24 40)(line_width 3))
	)
	(parameter
		"size"
		"10"
		""
		(type "PARAMETER_SIGNED_DEC")	)
	(parameter
		"const"
		"665"
		""
		(type "PARAMETER_SIGNED_DEC")	)
	(drawing
		(rectangle (rect 16 24 32 40)(fill (color 218 218 218)))
	)
	(rotate270)
	(annotation_block (parameter)(rect 328 1064 510 1106))
)
(symbol
	(rect 280 1640 336 1696)
	(text "CONSTX" (rect 44 5 56 48)(font "Arial" )(vertical))
	(text "inst37" (rect 4 8 16 37)(font "Arial" )(vertical))
	(port
		(pt 24 56)
		(output)
		(text "data[size-1..0]" (rect -96 0 -27 12)(font "Arial" ))
		(text "c" (rect 17 25 29 30)(font "Arial" )(vertical)(invisible))
		(line (pt 24 56)(pt 24 40)(line_width 3))
	)
	(parameter
		"size"
		"11"
		""
		(type "PARAMETER_SIGNED_DEC")	)
	(parameter
		"const"
		"806"
		""
		(type "PARAMETER_SIGNED_DEC")	)
	(drawing
		(rectangle (rect 16 24 32 40)(fill (color 218 218 218)))
	)
	(rotate270)
	(annotation_block (parameter)(rect 336 1632 518 1674))
)
(symbol
	(rect 744 1936 808 1984)
	(text "AND3" (rect 1 0 25 10)(font "Arial" (font_size 6)))
	(text "inst44" (rect 3 37 32 49)(font "Arial" ))
	(port
		(pt 0 16)
		(input)
		(text "IN1" (rect 2 7 19 19)(font "Courier New" (bold))(invisible))
		(text "IN1" (rect 2 7 19 19)(font "Courier New" (bold))(invisible))
		(line (pt 0 16)(pt 16 16))
	)
	(port
		(pt 0 24)
		(input)
		(text "IN2" (rect 2 15 19 27)(font "Courier New" (bold))(invisible))
		(text "IN2" (rect 2 15 19 27)(font "Courier New" (bold))(invisible))
		(line (pt 0 24)(pt 16 24))
	)
	(port
		(pt 0 32)
		(input)
		(text "IN3" (rect 2 23 19 35)(font "Courier New" (bold))(invisible))
		(text "IN3" (rect 2 23 19 35)(font "Courier New" (bold))(invisible))
		(line (pt 0 32)(pt 16 32))
	)
	(port
		(pt 64 24)
		(output)
		(text "OUT" (rect 48 15 65 27)(font "Courier New" (bold))(invisible))
		(text "OUT" (rect 48 15 65 27)(font "Courier New" (bold))(invisible))
		(line (pt 43 24)(pt 64 24))
	)
	(drawing
		(line (pt 16 12)(pt 31 12))
		(line (pt 16 37)(pt 31 37))
		(line (pt 16 12)(pt 16 37))
		(arc (pt 31 36)(pt 31 12)(rect 19 12 44 37))
	)
)
(symbol
	(rect 1456 1312 1488 1344)
	(text "GND" (rect 8 16 29 26)(font "Arial" (font_size 6)))
	(text "inst35" (rect 3 21 32 33)(font "Arial" )(invisible))
	(port
		(pt 16 0)
		(output)
		(text "1" (rect 18 0 23 12)(font "Courier New" (bold))(invisible))
		(text "1" (rect 18 0 23 12)(font "Courier New" (bold))(invisible))
		(line (pt 16 8)(pt 16 0))
	)
	(drawing
		(line (pt 8 8)(pt 16 16))
		(line (pt 16 16)(pt 24 8))
		(line (pt 8 8)(pt 24 8))
	)
)
(symbol
	(rect 984 1808 1048 1856)
	(text "OR2" (rect 1 0 19 10)(font "Arial" (font_size 6)))
	(text "inst40" (rect 3 37 32 49)(font "Arial" ))
	(port
		(pt 0 32)
		(input)
		(text "IN2" (rect 2 23 19 35)(font "Courier New" (bold))(invisible))
		(text "IN2" (rect 2 23 19 35)(font "Courier New" (bold))(invisible))
		(line (pt 0 32)(pt 15 32))
	)
	(port
		(pt 0 16)
		(input)
		(text "IN1" (rect 2 7 19 19)(font "Courier New" (bold))(invisible))
		(text "IN1" (rect 2 7 19 19)(font "Courier New" (bold))(invisible))
		(line (pt 0 16)(pt 15 16))
	)
	(port
		(pt 64 24)
		(output)
		(text "OUT" (rect 48 15 65 27)(font "Courier New" (bold))(invisible))
		(text "OUT" (rect 48 15 65 27)(font "Courier New" (bold))(invisible))
		(line (pt 48 24)(pt 64 24))
	)
	(drawing
		(line (pt 14 36)(pt 25 36))
		(line (pt 14 13)(pt 25 13))
		(arc (pt 7 29)(pt 7 19)(rect -14 8 19 41))
		(arc (pt 49 24)(pt 25 13)(rect -6 13 57 76))
		(arc (pt 25 35)(pt 49 24)(rect -6 -27 57 36))
	)
)
(symbol
	(rect 200 1304 360 1376)
	(text "CMPX" (rect 5 0 34 12)(font "Arial" ))
	(text "inst30" (rect 8 56 37 68)(font "Arial" ))
	(port
		(pt 48 0)
		(input)
		(text "A[size-1..0]" (rect 0 0 55 12)(font "Arial" ))
		(text "  A" (rect 40 16 55 28)(font "Arial" ))
		(line (pt 48 0)(pt 48 17)(line_width 3))
	)
	(port
		(pt 104 0)
		(input)
		(text "B[size-1..0]" (rect 0 0 55 12)(font "Arial" ))
		(text "  B" (rect 96 16 110 28)(font "Arial" ))
		(line (pt 104 0)(pt 104 17)(line_width 3))
	)
	(port
		(pt 48 72)
		(output)
		(text "ls" (rect 0 -40 8 -28)(font "Arial" ))
		(text "A<B" (rect 40 40 60 52)(font "Arial" ))
		(line (pt 48 72)(pt 48 56))
	)
	(port
		(pt 80 72)
		(output)
		(text "eq" (rect 0 -40 11 -28)(font "Arial" ))
		(text "A=B" (rect 72 40 92 52)(font "Arial" ))
		(line (pt 80 72)(pt 80 56))
	)
	(port
		(pt 112 72)
		(output)
		(text "gr" (rect 0 -40 9 -28)(font "Arial" ))
		(text "A>B" (rect 104 40 124 52)(font "Arial" ))
		(line (pt 112 72)(pt 112 56))
	)
	(parameter
		"size"
		"10"
		""
		(type "PARAMETER_SIGNED_DEC")	)
	(drawing
		(text " CMP" (rect 64 24 97 38)(font "Arial" (color 0 0 0)(font_size 8)(bold)))
		(rectangle (rect 16 16 136 56))
	)
	(annotation_block (parameter)(rect 336 1288 518 1316))
)
(symbol
	(rect 280 1248 336 1304)
	(text "CONSTX" (rect 44 5 56 48)(font "Arial" )(vertical))
	(text "inst31" (rect 4 8 16 37)(font "Arial" )(vertical))
	(port
		(pt 24 56)
		(output)
		(text "data[size-1..0]" (rect -96 0 -27 12)(font "Arial" ))
		(text "c" (rect 17 25 29 30)(font "Arial" )(vertical)(invisible))
		(line (pt 24 56)(pt 24 40)(line_width 3))
	)
	(parameter
		"size"
		"10"
		""
		(type "PARAMETER_SIGNED_DEC")	)
	(parameter
		"const"
		"600"
		""
		(type "PARAMETER_SIGNED_DEC")	)
	(drawing
		(rectangle (rect 16 24 32 40)(fill (color 218 218 218)))
	)
	(rotate270)
	(annotation_block (parameter)(rect 336 1240 518 1282))
)
(symbol
	(rect 280 1416 336 1472)
	(text "CONSTX" (rect 44 5 56 48)(font "Arial" )(vertical))
	(text "inst33" (rect 4 8 16 37)(font "Arial" )(vertical))
	(port
		(pt 24 56)
		(output)
		(text "data[size-1..0]" (rect -96 0 -27 12)(font "Arial" ))
		(text "c" (rect 17 25 29 30)(font "Arial" )(vertical)(invisible))
		(line (pt 24 56)(pt 24 40)(line_width 3))
	)
	(parameter
		"size"
		"10"
		""
		(type "PARAMETER_SIGNED_DEC")	)
	(parameter
		"const"
		"665"
		""
		(type "PARAMETER_SIGNED_DEC")	)
	(drawing
		(rectangle (rect 16 24 32 40)(fill (color 218 218 218)))
	)
	(rotate270)
	(annotation_block (parameter)(rect 336 1408 518 1450))
)
(symbol
	(rect 280 1808 336 1864)
	(text "CONSTX" (rect 44 5 56 48)(font "Arial" )(vertical))
	(text "inst39" (rect 4 8 16 37)(font "Arial" )(vertical))
	(port
		(pt 24 56)
		(output)
		(text "data[size-1..0]" (rect -96 0 -27 12)(font "Arial" ))
		(text "c" (rect 17 25 29 30)(font "Arial" )(vertical)(invisible))
		(line (pt 24 56)(pt 24 40)(line_width 3))
	)
	(parameter
		"size"
		"11"
		""
		(type "PARAMETER_SIGNED_DEC")	)
	(parameter
		"const"
		"1020"
		""
		(type "PARAMETER_SIGNED_DEC")	)
	(drawing
		(rectangle (rect 16 24 32 40)(fill (color 218 218 218)))
	)
	(rotate270)
	(annotation_block (parameter)(rect 336 1800 518 1842))
)
(symbol
	(rect 272 712 328 768)
	(text "CONSTX" (rect 44 5 56 48)(font "Arial" )(vertical))
	(text "inst24" (rect 4 8 16 37)(font "Arial" )(vertical))
	(port
		(pt 24 56)
		(output)
		(text "data[size-1..0]" (rect -96 0 -27 12)(font "Arial" ))
		(text "c" (rect 17 25 29 30)(font "Arial" )(vertical)(invisible))
		(line (pt 24 56)(pt 24 40)(line_width 3))
	)
	(parameter
		"size"
		"11"
		""
		(type "PARAMETER_SIGNED_DEC")	)
	(parameter
		"const"
		"1033"
		""
		(type "PARAMETER_SIGNED_DEC")	)
	(drawing
		(rectangle (rect 16 24 32 40)(fill (color 218 218 218)))
	)
	(rotate270)
	(annotation_block (parameter)(rect 328 704 510 746))
)
(connector
	(pt 832 -216)
	(pt 920 -216)
)
(connector
	(pt 744 -24)
	(pt 744 48)
)
(connector
	(text "X[10..0]" (rect 696 -152 708 -115)(font "Arial" )(vertical))
	(pt 712 -168)
	(pt 712 -96)
	(bus)
)
(connector
	(text "X[10..0]" (rect 704 120 716 157)(font "Arial" )(vertical))
	(pt 720 168)
	(pt 720 128)
	(bus)
)
(connector
	(text "Y[9..0]" (rect 705 359 717 393)(font "Arial" )(vertical))
	(pt 720 408)
	(pt 720 368)
	(bus)
)
(connector
	(text "X[10..0]" (rect 705 607 717 644)(font "Arial" )(vertical))
	(pt 720 656)
	(pt 720 616)
	(bus)
)
(connector
	(pt 920 -216)
	(pt 920 0)
)
(connector
	(pt 712 -24)
	(pt 712 0)
)
(connector
	(pt 576 -192)
	(pt 576 48)
)
(connector
	(pt 1304 -216)
	(pt 1368 -216)
)
(connector
	(pt 1216 -24)
	(pt 1216 0)
)
(connector
	(text "Y[9..0]" (rect 1168 -141 1180 -107)(font "Arial" )(vertical))
	(pt 1184 -168)
	(pt 1184 -96)
	(bus)
)
(connector
	(text "X[10..0]" (rect 1168 120 1180 157)(font "Arial" )(vertical))
	(pt 1184 168)
	(pt 1184 128)
	(bus)
)
(connector
	(pt 784 240)
	(pt 784 304)
)
(connector
	(pt 1184 240)
	(pt 1184 288)
)
(connector
	(pt 784 480)
	(pt 784 544)
)
(connector
	(pt 1184 480)
	(pt 1184 528)
)
(connector
	(text "Y[9..0]" (rect 1167 359 1179 393)(font "Arial" )(vertical))
	(pt 1184 408)
	(pt 1184 368)
	(bus)
)
(connector
	(pt 1184 728)
	(pt 1184 776)
)
(connector
	(text "Y[9..0]" (rect 1167 607 1179 641)(font "Arial" )(vertical))
	(pt 1184 656)
	(pt 1184 616)
	(bus)
)
(connector
	(pt 720 728)
	(pt 720 792)
)
(connector
	(pt 1216 0)
	(pt 1064 0)
)
(connector
	(pt 1056 -192)
	(pt 1056 -160)
)
(connector
	(pt 1064 0)
	(pt 1064 -96)
)
(connector
	(pt 712 0)
	(pt 920 0)
)
(connector
	(pt 1048 48)
	(pt 1048 -96)
)
(connector
	(text "CLK" (rect 544 -232 565 -220)(font "Arial" ))
	(pt 576 -224)
	(pt 600 -224)
)
(connector
	(pt 576 -192)
	(pt 600 -192)
)
(connector
	(text "CLK" (rect 1016 -232 1037 -220)(font "Arial" ))
	(pt 1048 -224)
	(pt 1072 -224)
)
(connector
	(pt 1056 -192)
	(pt 1072 -192)
)
(connector
	(pt 1400 296)
	(pt 1424 296)
)
(connector
	(pt 1400 536)
	(pt 1424 536)
)
(connector
	(pt 1400 784)
	(pt 1424 784)
)
(connector
	(pt 576 48)
	(pt 744 48)
)
(connector
	(pt 744 48)
	(pt 1048 48)
)
(connector
	(pt 1048 48)
	(pt 1368 48)
)
(connector
	(pt 1184 288)
	(pt 1336 288)
)
(connector
	(pt 784 304)
	(pt 1336 304)
)
(connector
	(pt 1184 528)
	(pt 1336 528)
)
(connector
	(pt 784 544)
	(pt 1336 544)
)
(connector
	(pt 1184 776)
	(pt 1336 776)
)
(connector
	(pt 720 792)
	(pt 1336 792)
)
(connector
	(pt 1368 -216)
	(pt 1368 48)
)
(connector
	(text "X[10..0]" (rect 216 712 228 749)(font "Arial" )(vertical))
	(pt 240 704)
	(pt 240 768)
	(bus)
)
(connector
	(pt 272 840)
	(pt 272 856)
)
(connector
	(pt 560 920)
	(pt 552 920)
)
(connector
	(pt 552 920)
	(pt 552 856)
)
(connector
	(pt 272 856)
	(pt 552 856)
)
(connector
	(text "Y[9..0]" (rect 226 870 238 904)(font "Arial" )(vertical))
	(pt 240 864)
	(pt 240 928)
	(bus)
)
(connector
	(pt 624 928)
	(pt 664 928)
)
(connector
	(pt 240 1016)
	(pt 448 1016)
)
(connector
	(pt 240 1000)
	(pt 240 1016)
)
(connector
	(pt 512 1024)
	(pt 536 1024)
)
(connector
	(pt 536 936)
	(pt 536 1024)
)
(connector
	(pt 536 936)
	(pt 560 936)
)
(connector
	(pt 448 1032)
	(pt 440 1032)
)
(connector
	(pt 440 1032)
	(pt 440 1192)
)
(connector
	(text "Y[9..0]" (rect 224 1059 236 1093)(font "Arial" )(vertical))
	(pt 240 1048)
	(pt 240 1104)
	(bus)
)
(connector
	(pt 440 1192)
	(pt 272 1192)
)
(connector
	(pt 272 1192)
	(pt 272 1176)
)
(connector
	(pt 296 1096)
	(pt 296 1104)
	(bus)
)
(connector
	(text "X[10..0]" (rect 226 1646 238 1683)(font "Arial" )(vertical))
	(pt 248 1640)
	(pt 248 1704)
	(bus)
)
(connector
	(pt 312 1792)
	(pt 312 1776)
)
(connector
	(pt 608 1792)
	(pt 312 1792)
)
(connector
	(pt 304 1696)
	(pt 304 1704)
	(bus)
)
(connector
	(pt 608 2176)
	(pt 256 2176)
)
(connector
	(text "Y[9..0]" (rect 242 2030 254 2064)(font "Arial" )(vertical))
	(pt 256 2024)
	(pt 256 2088)
	(bus)
)
(connector
	(pt 256 2160)
	(pt 256 2176)
)
(connector
	(pt 312 2088)
	(pt 312 2080)
	(bus)
)
(connector
	(pt 304 1864)
	(pt 304 1872)
	(bus)
)
(connector
	(text "X[10..0]" (rect 227 1813 239 1850)(font "Arial" )(vertical))
	(pt 248 1808)
	(pt 248 1872)
	(bus)
)
(connector
	(pt 608 1952)
	(pt 744 1952)
)
(connector
	(pt 608 1792)
	(pt 608 1952)
)
(connector
	(pt 608 1968)
	(pt 744 1968)
)
(connector
	(pt 608 2176)
	(pt 608 1968)
)
(connector
	(pt 248 1944)
	(pt 248 1960)
)
(connector
	(pt 248 1960)
	(pt 744 1960)
)
(connector
	(text "Y[9..0]" (rect 234 1414 246 1448)(font "Arial" )(vertical))
	(pt 248 1408)
	(pt 248 1472)
	(bus)
)
(connector
	(pt 632 1464)
	(pt 640 1464)
)
(connector
	(pt 640 1480)
	(pt 632 1480)
)
(connector
	(pt 632 1560)
	(pt 632 1480)
)
(connector
	(pt 632 1464)
	(pt 632 1392)
)
(connector
	(pt 1472 1312)
	(pt 1472 1304)
)
(connector
	(pt 1560 1304)
	(pt 1472 1304)
)
(connector
	(pt 808 1960)
	(pt 864 1960)
)
(connector
	(pt 1048 1832)
	(pt 1056 1832)
)
(connector
	(pt 984 1840)
	(pt 864 1840)
)
(connector
	(pt 864 1840)
	(pt 864 1960)
)
(connector
	(pt 312 1392)
	(pt 632 1392)
)
(connector
	(pt 312 1392)
	(pt 312 1376)
)
(connector
	(pt 248 1560)
	(pt 632 1560)
)
(connector
	(pt 248 1560)
	(pt 248 1544)
)
(connector
	(text "Y[9..0]" (rect 226 1246 238 1280)(font "Arial" )(vertical))
	(pt 248 1240)
	(pt 248 1304)
	(bus)
)
(connector
	(pt 704 1472)
	(pt 864 1472)
)
(connector
	(pt 864 1472)
	(pt 864 1824)
)
(connector
	(pt 864 1824)
	(pt 984 1824)
)
(junction (pt 744 48))
(junction (pt 1048 48))
(text "REGISTAR X" (rect 680 -280 754 -266)(font "Arial" (color 0 0 0)(font_size 8)(bold)))
(text "REGISTAR Y" (rect 1152 -280 1226 -266)(font "Arial" (color 0 0 0)(font_size 8)(bold)))
(text "Ugnjezdenim brojanjem dva registra" (rect 248 -192 484 -178)(font "Arial" (color 0 0 0)(font_size 8)(bold)))
(text "ostvaruje se generisanje koordinata celog ekrena" (rect 248 -176 572 -162)(font "Arial" (color 0 0 0)(font_size 8)(bold)))
(text "zajedno sa potrebnim vremenskim periodom potrebnim" (rect 248 -160 616 -146)(font "Arial" (color 0 0 0)(font_size 8)(bold)))
(text "za sinhronizaciju horizontalne i vertikalne ose" (rect 248 -144 545 -130)(font "Arial" (color 0 0 0)(font_size 8)(bold)))
(text "(generisanje impulsa za H_SYNC i V_SYNC)" (rect 248 -128 522 -114)(font "Arial" (color 0 0 0)(font_size 8)(bold)))
(text "Registar X generise koordinati X ose," (rect 248 -112 489 -98)(font "Arial" (color 0 0 0)(font_size 8)(bold)))
(text "registar Y generise koordinate Y ose" (rect 248 -96 488 -82)(font "Arial" (color 0 0 0)(font_size 8)(bold)))
(text "Registar X se inkrementira sve dok ne dodje" (rect 248 -80 538 -66)(font "Arial" (color 0 0 0)(font_size 8)(bold)))
(text "do kraja reda, nakon cega se resetuje" (rect 248 -64 493 -50)(font "Arial" (color 0 0 0)(font_size 8)(bold)))
(text "(nulti pixel u sledecem redu), a Y registar se" (rect 248 -48 535 -34)(font "Arial" (color 0 0 0)(font_size 8)(bold)))
(text "inkrementira kako bi se preslo u sledeci red." (rect 248 -32 541 -18)(font "Arial" (color 0 0 0)(font_size 8)(bold)))
(text "Registar Y se resetuje kada se doslo do" (rect 248 -16 507 -2)(font "Arial" (color 0 0 0)(font_size 8)(bold)))
(text "poslednjeg reda i ako se iscrtao poslednji" (rect 248 0 520 14)(font "Arial" (color 0 0 0)(font_size 8)(bold)))
(text "pixel trenutnog (poslednjeg) reda" (rect 248 16 466 30)(font "Arial" (color 0 0 0)(font_size 8)(bold)))
(text "X - pozicija trenutnog pixela na horizontalnoj " (rect 1608 -24 1897 -10)(font "Arial" (color 0 0 0)(font_size 8)(bold)))
(text "osi koja se trenutno isctava" (rect 1624 -8 1803 6)(font "Arial" (color 0 0 0)(font_size 8)(bold)))
(text "Y - pozicija trenutnog pixela na vertikalnoj osi" (rect 1608 8 1900 22)(font "Arial" (color 0 0 0)(font_size 8)(bold)))
(text "koja se trenutno iscrtava" (rect 1624 24 1785 38)(font "Arial" (color 0 0 0)(font_size 8)(bold)))
(text "H_SYNC - impulsni signal koji se generise kada je" (rect 1616 264 1935 278)(font "Arial" (color 0 0 0)(font_size 8)(bold)))
(text "V_SYNC - impulsni signal koji se generise kada je" (rect 1624 504 1944 518)(font "Arial" (color 0 0 0)(font_size 8)(bold)))
(text "i (Vertical_Display + Vertical_Front Porch + Vertical_SyncPulse)" (rect 1680 536 2083 550)(font "Arial" (color 0 0 0)(font_size 8)(bold)))
(text "Y izmedju (Vertical_Display + Vertical_Front Porch)" (rect 1680 520 2005 534)(font "Arial" (color 0 0 0)(font_size 8)(bold)))
(text "X izmedju (Horizontal_Display + Horizontal_Front Porch)" (rect 1672 280 2028 294)(font "Arial" (color 0 0 0)(font_size 8)(bold)))
(text "i (Horizontal_Display + Horizontal_Front Porch + Horizontal_SyncPulse)" (rect 1672 296 2121 310)(font "Arial" (color 0 0 0)(font_size 8)(bold)))
(text "DISP_EN - signal koji je aktivan ako (X,Y) pripada" (rect 1624 760 1929 774)(font "Arial" (color 0 0 0)(font_size 8)(bold)))
(text "delu ekrana koji se isrctava (Horizontal_Display, Vertical_Display)" (rect 1672 776 2090 790)(font "Arial" (color 0 0 0)(font_size 8)(bold)))
(text "Napomena:" (rect 248 40 319 54)(font "Arial" (color 0 0 0)(font_size 8)(bold)))
(text "Pretpostavka je da je registar realizovan tako da je" (rect 248 56 574 70)(font "Arial" (color 0 0 0)(font_size 8)(bold)))
(text "kod iscrtavanja poslednjeg bita u poslednjem redu" (rect 248 88 577 102)(font "Arial" (color 0 0 0)(font_size 8)(bold)))
(text "operacija CL veceg prioriteta od INC. To je bitno " (rect 248 72 558 86)(font "Arial" (color 0 0 0)(font_size 8)(bold)))
(text "(registar Y ima aktivne CL i INC u isto vreme)." (rect 248 104 541 118)(font "Arial" (color 0 0 0)(font_size 8)(bold)))
(text "Uopsteno, potrebno je obezbediti prethodno opisan prioritet operacija" (rect 248 120 703 134)(font "Arial" (color 0 0 0)(font_size 8)(bold)))
